newmtl initialShadingGroup
illum 4
Kd 0.50 0.50 0.50
Ka 0.00 0.00 0.00
Tf 1.00 1.00 1.00
Ni 1.00
newmtl pasted__audi_backFBXASC046003SG2
illum 4
Kd 0.00 0.00 0.00
Ka 0.00 0.00 0.00
Tf 1.00 1.00 1.00
Ni 0.00
newmtl pasted__audi_frontSG2
illum 4
Kd 0.00 0.00 0.00
Ka 0.00 0.00 0.00
Tf 1.00 1.00 1.00
Ni 0.00
newmtl pasted__back_aileronsSG2
illum 4
Kd 0.00 0.00 0.00
Ka 0.00 0.00 0.00
Tf 1.00 1.00 1.00
Ni 0.00
newmtl pasted__back_ailerons_supportSG2
illum 4
Kd 0.00 0.00 0.00
Ka 0.00 0.00 0.00
Tf 1.00 1.00 1.00
Ni 0.00
newmtl pasted__back_bottom_lightFBXASC046003SG2
illum 4
Kd 0.00 0.00 0.00
Ka 0.00 0.00 0.00
Tf 1.00 1.00 1.00
Ni 0.00
newmtl pasted__back_bottom_netFBXASC046003SG2
illum 4
Kd 0.00 0.00 0.00
Ka 0.00 0.00 0.00
Tf 1.00 1.00 1.00
Ni 0.00
newmtl pasted__back_glassSG4
illum 4
Kd 0.00 0.00 0.00
Ka 0.00 0.00 0.00
Tf 1.00 1.00 1.00
Ni 0.00
newmtl pasted__back_glassSG5
illum 4
Kd 0.00 0.00 0.00
Ka 0.00 0.00 0.00
Tf 1.00 1.00 1.00
Ni 0.00
newmtl pasted__back_lightsFBXASC046003SG6
illum 4
Kd 0.00 0.00 0.00
Ka 0.00 0.00 0.00
Tf 1.00 1.00 1.00
Ni 0.00
newmtl pasted__back_lightsFBXASC046003SG7
illum 4
Kd 0.00 0.00 0.00
Ka 0.00 0.00 0.00
Tf 1.00 1.00 1.00
Ni 0.00
newmtl pasted__back_lightsFBXASC046003SG8
illum 4
Kd 0.00 0.00 0.00
Ka 0.00 0.00 0.00
Tf 1.00 1.00 1.00
Ni 0.00
newmtl pasted__back_lightsSG6
illum 4
Kd 0.00 0.00 0.00
Ka 0.00 0.00 0.00
Tf 1.00 1.00 1.00
Ni 0.00
newmtl pasted__back_lightsSG7
illum 4
Kd 0.00 0.00 0.00
Ka 0.00 0.00 0.00
Tf 1.00 1.00 1.00
Ni 0.00
newmtl pasted__back_lightsSG8
illum 4
Kd 0.00 0.00 0.00
Ka 0.00 0.00 0.00
Tf 1.00 1.00 1.00
Ni 0.00
newmtl pasted__back_lights_glassSG2
illum 4
Kd 0.00 0.00 0.00
Ka 0.00 0.00 0.00
Tf 1.00 1.00 1.00
Ni 0.00
newmtl pasted__back_lights_parkFBXASC046003SG4
illum 4
Kd 0.00 0.00 0.00
Ka 0.00 0.00 0.00
Tf 1.00 1.00 1.00
Ni 0.00
newmtl pasted__back_lights_parkFBXASC046003SG5
illum 4
Kd 0.00 0.00 0.00
Ka 0.00 0.00 0.00
Tf 1.00 1.00 1.00
Ni 0.00
newmtl pasted__back_netsSG2
illum 4
Kd 0.00 0.00 0.00
Ka 0.00 0.00 0.00
Tf 1.00 1.00 1.00
Ni 0.00
newmtl pasted__back_plate_bottomSG2
illum 4
Kd 0.00 0.00 0.00
Ka 0.00 0.00 0.00
Tf 1.00 1.00 1.00
Ni 0.00
newmtl pasted__bottom_back_lightsFBXASC046003SG2
illum 4
Kd 0.00 0.00 0.00
Ka 0.00 0.00 0.00
Tf 1.00 1.00 1.00
Ni 0.00
newmtl pasted__bottom_sidesSG4
illum 4
Kd 0.00 0.00 0.00
Ka 0.00 0.00 0.00
Tf 1.00 1.00 1.00
Ni 0.00
newmtl pasted__bottom_sidesSG5
illum 4
Kd 0.00 0.00 0.00
Ka 0.00 0.00 0.00
Tf 1.00 1.00 1.00
Ni 0.00
newmtl pasted__break_discSG8
illum 4
Kd 0.00 0.00 0.00
Ka 0.00 0.00 0.00
Tf 1.00 1.00 1.00
Ni 0.00
newmtl pasted__break_discSG9
illum 4
Kd 0.00 0.00 0.00
Ka 0.00 0.00 0.00
Tf 1.00 1.00 1.00
Ni 0.00
newmtl pasted__break_discSG10
illum 4
Kd 0.00 0.00 0.00
Ka 0.00 0.00 0.00
Tf 1.00 1.00 1.00
Ni 0.00
newmtl pasted__break_discSG11
illum 4
Kd 0.00 0.00 0.00
Ka 0.00 0.00 0.00
Tf 1.00 1.00 1.00
Ni 0.00
newmtl pasted__exhaust_pipesSG2
illum 4
Kd 0.00 0.00 0.00
Ka 0.00 0.00 0.00
Tf 1.00 1.00 1.00
Ni 0.00
newmtl pasted__front_aileronsSG2
illum 4
Kd 0.00 0.00 0.00
Ka 0.00 0.00 0.00
Tf 1.00 1.00 1.00
Ni 0.00
newmtl pasted__front_bottom_supportSG2
illum 4
Kd 0.00 0.00 0.00
Ka 0.00 0.00 0.00
Tf 1.00 1.00 1.00
Ni 0.00
newmtl pasted__front_left_glass_insideSG10
illum 4
Kd 0.00 0.00 0.00
Ka 0.00 0.00 0.00
Tf 1.00 1.00 1.00
Ni 0.00
newmtl pasted__front_left_glass_insideSG11
illum 4
Kd 0.00 0.00 0.00
Ka 0.00 0.00 0.00
Tf 1.00 1.00 1.00
Ni 0.00
newmtl pasted__front_left_glass_insideSG12
illum 4
Kd 0.00 0.00 0.00
Ka 0.00 0.00 0.00
Tf 1.00 1.00 1.00
Ni 0.00
newmtl pasted__front_left_glass_insideSG13
illum 4
Kd 0.00 0.00 0.00
Ka 0.00 0.00 0.00
Tf 1.00 1.00 1.00
Ni 0.00
newmtl pasted__front_left_glass_insideSG14
illum 4
Kd 0.00 0.00 0.00
Ka 0.00 0.00 0.00
Tf 1.00 1.00 1.00
Ni 0.00
newmtl pasted__front_left_glass_lightsSG6
illum 4
Kd 0.00 0.00 0.00
Ka 0.00 0.00 0.00
Tf 1.00 1.00 1.00
Ni 0.00
newmtl pasted__front_left_glass_lightsSG7
illum 4
Kd 0.00 0.00 0.00
Ka 0.00 0.00 0.00
Tf 1.00 1.00 1.00
Ni 0.00
newmtl pasted__front_left_glass_lightsSG8
illum 4
Kd 0.00 0.00 0.00
Ka 0.00 0.00 0.00
Tf 1.00 1.00 1.00
Ni 0.00
newmtl pasted__front_plate_metalSG2
illum 4
Kd 0.00 0.00 0.00
Ka 0.00 0.00 0.00
Tf 1.00 1.00 1.00
Ni 0.00
newmtl pasted__front_right_glass_insideFBXASC046001SG10
illum 4
Kd 0.00 0.00 0.00
Ka 0.00 0.00 0.00
Tf 1.00 1.00 1.00
Ni 0.00
newmtl pasted__front_right_glass_insideFBXASC046001SG11
illum 4
Kd 0.00 0.00 0.00
Ka 0.00 0.00 0.00
Tf 1.00 1.00 1.00
Ni 0.00
newmtl pasted__front_right_glass_insideFBXASC046001SG12
illum 4
Kd 0.00 0.00 0.00
Ka 0.00 0.00 0.00
Tf 1.00 1.00 1.00
Ni 0.00
newmtl pasted__front_right_glass_insideFBXASC046001SG13
illum 4
Kd 0.00 0.00 0.00
Ka 0.00 0.00 0.00
Tf 1.00 1.00 1.00
Ni 0.00
newmtl pasted__front_right_glass_insideFBXASC046001SG14
illum 4
Kd 0.00 0.00 0.00
Ka 0.00 0.00 0.00
Tf 1.00 1.00 1.00
Ni 0.00
newmtl pasted__front_right_glass_lightsSG6
illum 4
Kd 0.00 0.00 0.00
Ka 0.00 0.00 0.00
Tf 1.00 1.00 1.00
Ni 0.00
newmtl pasted__front_right_glass_lightsSG7
illum 4
Kd 0.00 0.00 0.00
Ka 0.00 0.00 0.00
Tf 1.00 1.00 1.00
Ni 0.00
newmtl pasted__front_right_glass_lightsSG8
illum 4
Kd 0.00 0.00 0.00
Ka 0.00 0.00 0.00
Tf 1.00 1.00 1.00
Ni 0.00
newmtl pasted__inside_plate_back_lightsSG2
illum 4
Kd 0.00 0.00 0.00
Ka 0.00 0.00 0.00
Tf 1.00 1.00 1.00
Ni 0.00
newmtl pasted__inside_plate_frontSG2
illum 4
Kd 0.00 0.00 0.00
Ka 0.00 0.00 0.00
Tf 1.00 1.00 1.00
Ni 0.00
newmtl pasted__inside_plate_front_lightsFBXASC046003SG2
illum 4
Kd 0.00 0.00 0.00
Ka 0.00 0.00 0.00
Tf 1.00 1.00 1.00
Ni 0.00
newmtl pasted__left_door_handleSG2
illum 4
Kd 0.00 0.00 0.00
Ka 0.00 0.00 0.00
Tf 1.00 1.00 1.00
Ni 0.00
newmtl pasted__left_rear_view_mirrorSG4
illum 4
Kd 0.00 0.00 0.00
Ka 0.00 0.00 0.00
Tf 1.00 1.00 1.00
Ni 0.00
newmtl pasted__left_rear_view_mirrorSG5
illum 4
Kd 0.00 0.00 0.00
Ka 0.00 0.00 0.00
Tf 1.00 1.00 1.00
Ni 0.00
newmtl pasted__left_rear_view_mirror_bottomSG2
illum 4
Kd 0.00 0.00 0.00
Ka 0.00 0.00 0.00
Tf 1.00 1.00 1.00
Ni 0.00
newmtl pasted__left_window_rubberSG2
illum 4
Kd 0.00 0.00 0.00
Ka 0.00 0.00 0.00
Tf 1.00 1.00 1.00
Ni 0.00
newmtl pasted__license_plateFBXASC046006SG4
illum 4
Kd 0.00 0.00 0.00
Ka 0.00 0.00 0.00
Tf 1.00 1.00 1.00
Ni 0.00
newmtl pasted__license_plateFBXASC046006SG5
illum 4
Kd 0.00 0.00 0.00
Ka 0.00 0.00 0.00
Tf 1.00 1.00 1.00
Ni 0.00
newmtl pasted__license_plateSG4
illum 4
Kd 0.00 0.00 0.00
Ka 0.00 0.00 0.00
Tf 1.00 1.00 1.00
Ni 0.00
newmtl pasted__license_plateSG5
illum 4
Kd 0.00 0.00 0.00
Ka 0.00 0.00 0.00
Tf 1.00 1.00 1.00
Ni 0.00
newmtl pasted__light_netsFBXASC046003SG2
illum 4
Kd 0.00 0.00 0.00
Ka 0.00 0.00 0.00
Tf 1.00 1.00 1.00
Ni 0.00
newmtl pasted__lights_front_glassFBXASC046001SG2
illum 4
Kd 0.00 0.00 0.00
Ka 0.00 0.00 0.00
Tf 1.00 1.00 1.00
Ni 0.00
newmtl pasted__lights_front_left_glassSG2
illum 4
Kd 0.00 0.00 0.00
Ka 0.00 0.00 0.00
Tf 1.00 1.00 1.00
Ni 0.00
newmtl pasted__net_frontSG2
illum 4
Kd 0.00 0.00 0.00
Ka 0.00 0.00 0.00
Tf 1.00 1.00 1.00
Ni 0.00
newmtl pasted__phong9SG
illum 4
Kd 0.00 0.00 0.00
Ka 0.00 0.00 0.00
Tf 1.00 1.00 1.00
map_Kd Arrow_Blue.png
Ni 1.00
Ks 0.50 0.50 0.50
Ns 18.00
newmtl pasted__phong19SG
illum 4
Kd 1.00 1.00 1.00
Ka 0.40 0.40 0.40
Tf 0.23 0.23 0.23
Ni 1.00
Ks 0.13 0.13 0.13
Ns 18.00
newmtl pasted__phong22SG
illum 4
Kd 0.00 0.31 0.50
Ka 0.00 0.00 0.00
Tf 0.23 0.23 0.23
Ni 1.00
Ks 0.13 0.13 0.13
Ns 18.00
newmtl pasted__phong27SG
illum 4
Kd 0.00 0.65 1.00
Ka 0.45 0.45 0.45
Tf 0.13 0.13 0.13
Ni 1.00
Ks 0.00 0.00 0.00
Ns 18.00
newmtl pasted__polySurface3SG2
illum 4
Kd 0.00 0.00 0.00
Ka 0.00 0.00 0.00
Tf 1.00 1.00 1.00
Ni 0.00
newmtl pasted__polySurface4SG2
illum 4
Kd 0.00 0.00 0.00
Ka 0.00 0.00 0.00
Tf 1.00 1.00 1.00
Ni 0.00
newmtl pasted__polySurface5SG2
illum 4
Kd 0.00 0.00 0.00
Ka 0.00 0.00 0.00
Tf 1.00 1.00 1.00
Ni 0.00
newmtl pasted__polySurface6SG2
illum 4
Kd 0.00 0.00 0.00
Ka 0.00 0.00 0.00
Tf 1.00 1.00 1.00
Ni 0.00
newmtl pasted__polySurface7SG2
illum 4
Kd 0.00 0.00 0.00
Ka 0.00 0.00 0.00
Tf 1.00 1.00 1.00
Ni 0.00
newmtl pasted__polySurface8SG2
illum 4
Kd 0.00 0.00 0.00
Ka 0.00 0.00 0.00
Tf 1.00 1.00 1.00
Ni 0.00
newmtl pasted__polySurface9SG2
illum 4
Kd 0.00 0.00 0.00
Ka 0.00 0.00 0.00
Tf 1.00 1.00 1.00
Ni 0.00
newmtl pasted__polySurface10SG2
illum 4
Kd 0.00 0.00 0.00
Ka 0.00 0.00 0.00
Tf 1.00 1.00 1.00
Ni 0.00
newmtl pasted__polySurface11SG2
illum 4
Kd 0.00 0.00 0.00
Ka 0.00 0.00 0.00
Tf 1.00 1.00 1.00
Ni 0.00
newmtl pasted__polySurface12SG2
illum 4
Kd 0.00 0.00 0.00
Ka 0.00 0.00 0.00
Tf 1.00 1.00 1.00
Ni 0.00
newmtl pasted__polySurface14SG2
illum 4
Kd 0.00 0.00 0.00
Ka 0.00 0.00 0.00
Tf 1.00 1.00 1.00
Ni 0.00
newmtl pasted__polySurface15SG2
illum 4
Kd 0.00 0.00 0.00
Ka 0.00 0.00 0.00
Tf 1.00 1.00 1.00
Ni 0.00
newmtl pasted__polySurface16SG2
illum 4
Kd 0.00 0.00 0.00
Ka 0.00 0.00 0.00
Tf 1.00 1.00 1.00
Ni 0.00
newmtl pasted__polySurface17SG2
illum 4
Kd 0.00 0.00 0.00
Ka 0.00 0.00 0.00
Tf 1.00 1.00 1.00
Ni 0.00
newmtl pasted__polySurface18SG2
illum 4
Kd 0.00 0.00 0.00
Ka 0.00 0.00 0.00
Tf 1.00 1.00 1.00
Ni 0.00
newmtl pasted__polySurface19SG2
illum 4
Kd 0.00 0.00 0.00
Ka 0.00 0.00 0.00
Tf 1.00 1.00 1.00
Ni 0.00
newmtl pasted__polySurface20SG2
illum 4
Kd 0.00 0.00 0.00
Ka 0.00 0.00 0.00
Tf 1.00 1.00 1.00
Ni 0.00
newmtl pasted__polySurface21SG2
illum 4
Kd 0.00 0.00 0.00
Ka 0.00 0.00 0.00
Tf 1.00 1.00 1.00
Ni 0.00
newmtl pasted__polySurface22SG2
illum 4
Kd 0.00 0.00 0.00
Ka 0.00 0.00 0.00
Tf 1.00 1.00 1.00
Ni 0.00
newmtl pasted__polySurface23SG2
illum 4
Kd 0.00 0.00 0.00
Ka 0.00 0.00 0.00
Tf 1.00 1.00 1.00
Ni 0.00
newmtl pasted__polySurface24SG2
illum 4
Kd 0.00 0.00 0.00
Ka 0.00 0.00 0.00
Tf 1.00 1.00 1.00
Ni 0.00
newmtl pasted__polySurface26SG2
illum 4
Kd 0.00 0.00 0.00
Ka 0.00 0.00 0.00
Tf 1.00 1.00 1.00
Ni 0.00
newmtl pasted__polySurface27SG2
illum 4
Kd 0.00 0.00 0.00
Ka 0.00 0.00 0.00
Tf 1.00 1.00 1.00
Ni 0.00
newmtl pasted__polySurface28SG2
illum 4
Kd 0.00 0.00 0.00
Ka 0.00 0.00 0.00
Tf 1.00 1.00 1.00
Ni 0.00
newmtl pasted__polySurface29SG2
illum 4
Kd 0.00 0.00 0.00
Ka 0.00 0.00 0.00
Tf 1.00 1.00 1.00
Ni 0.00
newmtl pasted__polySurface30SG2
illum 4
Kd 0.00 0.00 0.00
Ka 0.00 0.00 0.00
Tf 1.00 1.00 1.00
Ni 0.00
newmtl pasted__polySurface31SG2
illum 4
Kd 0.00 0.00 0.00
Ka 0.00 0.00 0.00
Tf 1.00 1.00 1.00
Ni 0.00
newmtl pasted__polySurface32SG2
illum 4
Kd 0.00 0.00 0.00
Ka 0.00 0.00 0.00
Tf 1.00 1.00 1.00
Ni 0.00
newmtl pasted__polySurface33SG2
illum 4
Kd 0.00 0.00 0.00
Ka 0.00 0.00 0.00
Tf 1.00 1.00 1.00
Ni 0.00
newmtl pasted__polySurface34SG2
illum 4
Kd 0.00 0.00 0.00
Ka 0.00 0.00 0.00
Tf 1.00 1.00 1.00
Ni 0.00
newmtl pasted__polySurface35SG2
illum 4
Kd 0.00 0.00 0.00
Ka 0.00 0.00 0.00
Tf 1.00 1.00 1.00
Ni 0.00
newmtl pasted__polySurface36SG2
illum 4
Kd 0.00 0.00 0.00
Ka 0.00 0.00 0.00
Tf 1.00 1.00 1.00
Ni 0.00
newmtl pasted__polySurface37SG2
illum 4
Kd 0.00 0.00 0.00
Ka 0.00 0.00 0.00
Tf 1.00 1.00 1.00
Ni 0.00
newmtl pasted__polySurface38SG2
illum 4
Kd 0.00 0.00 0.00
Ka 0.00 0.00 0.00
Tf 1.00 1.00 1.00
Ni 0.00
newmtl pasted__polySurface39SG2
illum 4
Kd 0.00 0.00 0.00
Ka 0.00 0.00 0.00
Tf 1.00 1.00 1.00
Ni 0.00
newmtl pasted__polySurface40SG2
illum 4
Kd 0.00 0.00 0.00
Ka 0.00 0.00 0.00
Tf 1.00 1.00 1.00
Ni 0.00
newmtl pasted__polySurface41SG2
illum 4
Kd 0.00 0.00 0.00
Ka 0.00 0.00 0.00
Tf 1.00 1.00 1.00
Ni 0.00
newmtl pasted__polySurface42SG2
illum 4
Kd 0.00 0.00 0.00
Ka 0.00 0.00 0.00
Tf 1.00 1.00 1.00
Ni 0.00
newmtl pasted__polySurface43SG2
illum 4
Kd 0.00 0.00 0.00
Ka 0.00 0.00 0.00
Tf 1.00 1.00 1.00
Ni 0.00
newmtl pasted__polySurface44SG2
illum 4
Kd 0.00 0.00 0.00
Ka 0.00 0.00 0.00
Tf 1.00 1.00 1.00
Ni 0.00
newmtl pasted__polySurface45SG2
illum 4
Kd 0.00 0.00 0.00
Ka 0.00 0.00 0.00
Tf 1.00 1.00 1.00
Ni 0.00
newmtl pasted__polySurface46SG2
illum 4
Kd 0.00 0.00 0.00
Ka 0.00 0.00 0.00
Tf 1.00 1.00 1.00
Ni 0.00
newmtl pasted__polySurface47SG2
illum 4
Kd 0.00 0.00 0.00
Ka 0.00 0.00 0.00
Tf 1.00 1.00 1.00
Ni 0.00
newmtl pasted__rear_left_windowSG2
illum 4
Kd 0.00 0.00 0.00
Ka 0.00 0.00 0.00
Tf 1.00 1.00 1.00
Ni 0.00
newmtl pasted__rear_right_windowSG2
illum 4
Kd 0.00 0.00 0.00
Ka 0.00 0.00 0.00
Tf 1.00 1.00 1.00
Ni 0.00
newmtl pasted__right_door_handleSG2
illum 4
Kd 0.00 0.00 0.00
Ka 0.00 0.00 0.00
Tf 1.00 1.00 1.00
Ni 0.00
newmtl pasted__right_rear_view_mirrorSG4
illum 4
Kd 0.00 0.00 0.00
Ka 0.00 0.00 0.00
Tf 1.00 1.00 1.00
Ni 0.00
newmtl pasted__right_rear_view_mirrorSG5
illum 4
Kd 0.00 0.00 0.00
Ka 0.00 0.00 0.00
Tf 1.00 1.00 1.00
Ni 0.00
newmtl pasted__right_rear_view_mirror_bottomSG2
illum 4
Kd 0.00 0.00 0.00
Ka 0.00 0.00 0.00
Tf 1.00 1.00 1.00
Ni 0.00
newmtl pasted__right_window_rubberSG2
illum 4
Kd 0.00 0.00 0.00
Ka 0.00 0.00 0.00
Tf 1.00 1.00 1.00
Ni 0.00
newmtl pasted__rsMaterial5SG
illum 4
Kd 0.00 0.00 0.00
Ka 0.00 0.00 0.00
Tf 1.00 1.00 1.00
Ni 0.00
newmtl pasted__rsMaterial7SG2
illum 4
Kd 0.00 0.00 0.00
Ka 0.00 0.00 0.00
Tf 1.00 1.00 1.00
Ni 0.00
newmtl pasted__rsMaterial17SG
illum 4
Kd 0.00 0.00 0.00
Ka 0.00 0.00 0.00
Tf 1.00 1.00 1.00
Ni 0.00
newmtl pasted__rubber_windshieldSG2
illum 4
Kd 0.00 0.00 0.00
Ka 0.00 0.00 0.00
Tf 1.00 1.00 1.00
Ni 0.00
newmtl pasted__spoilerSG2
illum 4
Kd 0.00 0.00 0.00
Ka 0.00 0.00 0.00
Tf 1.00 1.00 1.00
Ni 0.00
newmtl pasted__wheel_supportFBXASC046003SG4
illum 4
Kd 0.00 0.00 0.00
Ka 0.00 0.00 0.00
Tf 1.00 1.00 1.00
Ni 0.00
newmtl pasted__wheel_supportFBXASC046003SG5
illum 4
Kd 0.00 0.00 0.00
Ka 0.00 0.00 0.00
Tf 1.00 1.00 1.00
Ni 0.00
newmtl pasted__wheel_tyreSG2
illum 4
Kd 0.00 0.00 0.00
Ka 0.00 0.00 0.00
Tf 1.00 1.00 1.00
Ni 0.00
newmtl pasted__windshieldSG2
illum 4
Kd 0.00 0.00 0.00
Ka 0.00 0.00 0.00
Tf 1.00 1.00 1.00
Ni 0.00
newmtl phong3SG
illum 4
Kd 1.00 1.00 1.00
Ka 0.36 0.36 0.36
Tf 1.00 1.00 1.00
Ni 1.00
Ks 0.00 0.00 0.00
Ns 98.00
newmtl phong19SG
illum 4
Kd 0.00 0.00 0.00
Ka 0.00 0.00 0.00
Tf 1.00 1.00 1.00
map_Kd -s_0.1_0.1_ConcreteNew0041_1_seamless_M.jpg
Ni 1.00
Ks 0.00 0.00 0.00
Ns 18.00
newmtl phong31SG
illum 4
Kd 0.73 0.73 0.73
Ka 0.00 0.00 0.00
Tf 1.00 1.00 1.00
Ni 1.00
Ks 0.50 0.50 0.50
Ns 18.00
newmtl phong32SG
illum 4
Kd 0.00 0.00 0.00
Ka 0.00 0.00 0.00
Tf 1.00 1.00 1.00
map_Kd Blau.psd
map_Ka Blau.psd
Ni 1.00
Ks 0.00 0.00 0.00
Ns 18.00
newmtl rsMaterial18SG
illum 4
Kd 0.00 0.00 0.00
Ka 0.00 0.00 0.00
Tf 1.00 1.00 1.00
Ni 0.00
newmtl rsMaterial19SG
illum 4
Kd 0.00 0.00 0.00
Ka 0.00 0.00 0.00
Tf 1.00 1.00 1.00
Ni 0.00
newmtl rsMaterial20SG
illum 4
Kd 0.00 0.00 0.00
Ka 0.00 0.00 0.00
Tf 1.00 1.00 1.00
Ni 0.00
newmtl rsMaterial21SG
illum 4
Kd 0.00 0.00 0.00
Ka 0.00 0.00 0.00
Tf 1.00 1.00 1.00
Ni 0.00
newmtl rsMaterial26SG
illum 4
Kd 0.00 0.00 0.00
Ka 0.00 0.00 0.00
Tf 1.00 1.00 1.00
Ni 0.00
newmtl rsMaterial27SG
illum 4
Kd 0.00 0.00 0.00
Ka 0.00 0.00 0.00
Tf 1.00 1.00 1.00
Ni 0.00
