# OBJ written from D:\Projects\Visionate\MedienTruck\Geometries\EntryLevel\Sonepar\Icons_SoneparLevel\Energieeffizienzberatung.obj
# Units	meters

o Energieeffizienzberatung
v -1.42354 -2.32113 -0.5045
v -1.48805 -2.33727 -0.5045
v -1.54202 -2.37612 -0.5045
v -1.5778 -2.43218 -0.5045
v -1.59032 -2.49749 -0.5045
v -1.5778 -2.5628 -0.5045
v -1.54202 -2.61886 -0.5045
v -1.48805 -2.65771 -0.5045
v -1.42354 -2.67385 -0.5045
v 0.566225 -2.67385 -0.5045
v 0.613813 -2.67005 -0.5045
v 0.658645 -2.65364 -0.5045
v 0.697446 -2.62583 -0.5045
v 0.727381 -2.58864 -0.5045
v 0.746264 -2.54479 -0.5045
v 0.752716 -2.49749 -0.5045
v 0.746264 -2.45019 -0.5045
v 0.727381 -2.40634 -0.5045
v 0.697446 -2.36915 -0.5045
v 0.658645 -2.34134 -0.5045
v 0.613813 -2.32493 -0.5045
v 0.566225 -2.32113 -0.5045
v -1.2436 -2.91542 -0.5035
v -1.30812 -2.93156 -0.5035
v -1.36208 -2.97041 -0.5035
v -1.39787 -3.02647 -0.5035
v -1.41038 -3.09178 -0.5035
v -1.39787 -3.15709 -0.5035
v -1.36208 -3.21314 -0.5035
v -1.30812 -3.252 -0.5035
v -1.2436 -3.26814 -0.5035
v 0.386287 -3.26814 -0.5035
v 0.433876 -3.26434 -0.5035
v 0.478708 -3.24793 -0.5035
v 0.517509 -3.22012 -0.5035
v 0.547444 -3.18293 -0.5035
v 0.566327 -3.13908 -0.5035
v 0.572778 -3.09178 -0.5035
v 0.566327 -3.04448 -0.5035
v 0.547444 -3.00063 -0.5035
v 0.517509 -2.96344 -0.5035
v 0.478708 -2.93563 -0.5035
v 0.433876 -2.91922 -0.5035
v 0.386287 -2.91542 -0.5035
v -1.06312 -3.50971 -0.5025
v -1.1107 -3.51351 -0.5025
v -1.15554 -3.52992 -0.5025
v -1.19434 -3.55773 -0.5025
v -1.22427 -3.59492 -0.5025
v -1.24316 -3.63876 -0.5025
v -1.24961 -3.68607 -0.5025
v -1.24316 -3.73337 -0.5025
v -1.22427 -3.77722 -0.5025
v -1.19434 -3.8144 -0.5025
v -1.15554 -3.84222 -0.5025
v -1.1107 -3.85862 -0.5025
v -1.06312 -3.86243 -0.5025
v 0.197546 -3.86243 -0.5025
v 0.262057 -3.84628 -0.5025
v 0.316028 -3.80743 -0.5025
v 0.351809 -3.75138 -0.5025
v 0.364326 -3.68607 -0.5025
v 0.351809 -3.62075 -0.5025
v 0.316028 -3.5647 -0.5025
v 0.262057 -3.52585 -0.5025
v 0.197546 -3.50971 -0.5025
v -0.374539 5.01699 -0.5015
v -0.32866 5.04765 -0.5015
v -0.298004 5.09352 -0.5015
v -0.287239 5.14764 -0.5015
v -0.287239 5.86299 -0.5015
v -0.300403 5.91434 -0.5015
v -0.331552 5.95724 -0.5015
v -0.376308 5.98565 -0.5015
v -0.428383 5.99559 -0.5015
v -0.480457 5.98565 -0.5015
v -0.525213 5.95724 -0.5015
v -0.556362 5.91434 -0.5015
v -0.569526 5.86299 -0.5015
v -0.569526 5.14764 -0.5015
v -0.558814 5.09365 -0.5015
v -0.5283 5.04784 -0.5015
v -0.482607 5.01715 -0.5015
v -0.428658 5.00622 -0.5015
v 1.16877 4.61223 -0.5005
v 1.18714 4.60132 -0.5005
v 1.20698 4.59336 -0.5005
v 1.22779 4.58852 -0.5005
v 1.24911 4.58692 -0.5005
v 1.28283 4.59092 -0.5005
v 1.31462 4.60288 -0.5005
v 1.34262 4.62209 -0.5005
v 1.36521 4.64745 -0.5005
v 1.77406 5.23404 -0.5005
v 1.79091 5.26675 -0.5005
v 1.79871 5.30271 -0.5005
v 1.79694 5.33947 -0.5005
v 1.78572 5.37452 -0.5005
v 1.76581 5.40547 -0.5005
v 1.73857 5.4302 -0.5005
v 1.70585 5.44705 -0.5005
v 1.66989 5.45486 -0.5005
v 1.63313 5.45309 -0.5005
v 1.59809 5.44186 -0.5005
v 1.56714 5.42196 -0.5005
v 1.5424 5.39471 -0.5005
v 1.13355 4.80868 -0.5005
v 1.11161 4.75821 -0.5005
v 1.11059 4.70318 -0.5005
v 1.13066 4.65194 -0.5005
v -2.25554 4.64745 -0.4995
v -2.21588 4.60926 -0.4995
v -2.16461 4.58916 -0.4995
v -2.10956 4.5902 -0.4995
v -2.0591 4.61223 -0.4995
v -2.02091 4.6519 -0.4995
v -2.0008 4.70316 -0.4995
v -2.00185 4.75821 -0.4995
v -2.02388 4.80868 -0.4995
v -2.43273 5.39581 -0.4995
v -2.45761 5.42304 -0.4995
v -2.48869 5.44289 -0.4995
v -2.52385 5.45403 -0.4995
v -2.5607 5.45568 -0.4995
v -2.59671 5.44774 -0.4995
v -2.62945 5.43076 -0.4995
v -2.65667 5.40587 -0.4995
v -2.67653 5.37479 -0.4995
v -2.68766 5.33963 -0.4995
v -2.68932 5.30279 -0.4995
v -2.68138 5.26677 -0.4995
v -2.66439 5.23404 -0.4995
v -4.0252 3.90734 -0.4985
v -4.05832 3.92341 -0.4985
v -4.09447 3.93036 -0.4985
v -4.13119 3.92771 -0.4985
v -4.16598 3.91566 -0.4985
v -4.19645 3.89501 -0.4985
v -4.22055 3.86717 -0.4985
v -4.23662 3.83405 -0.4985
v -4.24356 3.7979 -0.4985
v -4.24092 3.76118 -0.4985
v -4.22886 3.7264 -0.4985
v -4.20821 3.69592 -0.4985
v -4.18038 3.67183 -0.4985
v -3.58499 3.27784 -0.4985
v -3.53402 3.25711 -0.4985
v -3.479 3.25746 -0.4985
v -3.4283 3.27885 -0.4985
v -3.38964 3.31801 -0.4985
v -3.36892 3.36897 -0.4985
v -3.36927 3.424 -0.4985
v -3.39066 3.47469 -0.4985
v -3.42981 3.51335 -0.4985
v 2.56369 3.30205 -0.4975
v 2.58401 3.30358 -0.4975
v 2.60389 3.30801 -0.4975
v 2.62293 3.31525 -0.4975
v 2.64073 3.32516 -0.4975
v 3.23832 3.71915 -0.4975
v 3.27748 3.75781 -0.4975
v 3.29886 3.8085 -0.4975
v 3.29922 3.86352 -0.4975
v 3.27849 3.91449 -0.4975
v 3.23984 3.95365 -0.4975
v 3.18914 3.97504 -0.4975
v 3.13411 3.97539 -0.4975
v 3.08315 3.95466 -0.4975
v 2.485 3.56067 -0.4975
v 2.4635 3.54329 -0.4975
v 2.44581 3.52204 -0.4975
v 2.4326 3.49774 -0.4975
v 2.4244 3.47133 -0.4975
v 2.42152 3.44383 -0.4975
v 2.42406 3.4163 -0.4975
v 2.43194 3.38979 -0.4975
v 2.44484 3.36533 -0.4975
v 2.4677 3.33887 -0.4975
v 2.49632 3.31877 -0.4975
v 2.52897 3.30624 -0.4975
v 2.19311 2.5363 -0.4965
v 1.73262 3.36428 -0.4965
v 1.02286 3.99185 -0.4965
v 0.144723 4.34749 -0.4965
v -0.801712 4.39065 -0.4965
v -1.70858 4.11643 -0.4965
v -2.47251 3.55607 -0.4965
v -3.00646 2.77344 -0.4965
v -3.24955 1.85774 -0.4965
v -3.17409 0.913331 -0.4965
v -2.78868 0.047849 -0.4965
v -2.13724 -0.640064 -0.4965
v -1.90309 -0.866199 -0.4965
v -1.72696 -1.13995 -0.4965
v -1.61819 -1.44675 -0.4965
v -1.58257 -1.77031 -0.4965
v -1.58257 -1.99702 -0.4965
v 0.662521 -1.99702 -0.4965
v 0.662521 -1.78847 -0.4965
v 0.70364 -1.45464 -0.4965
v 0.819795 -1.13898 -0.4965
v 1.00487 -0.858119 -0.4965
v 1.24911 -0.626858 -0.4965
v 1.71224 -0.181074 -0.4965
v 2.06151 0.358574 -0.4965
v 2.27852 0.963652 -0.4965
v 2.35184 1.60227 -0.4965
v -2.12027 0.702829 -0.4965
v -2.13584 0.698196 -0.4965
v -2.15184 0.695353 -0.4965
v -2.16805 0.694333 -0.4965
v -2.20674 0.699626 -0.4965
v -2.24249 0.715336 -0.4965
v -2.27255 0.740256 -0.4965
v -2.29461 0.772471 -0.4965
v -2.38673 0.988401 -0.4965
v -2.4532 1.21356 -0.4965
v -2.4931 1.4449 -0.4965
v -2.50591 1.67931 -0.4965
v -2.50591 1.70407 -0.4965
v -2.50591 1.72883 -0.4965
v -2.50591 1.7536 -0.4965
v -2.50591 1.77836 -0.4965
v -2.49256 1.83174 -0.4965
v -2.45979 1.87595 -0.4965
v -2.4126 1.90426 -0.4965
v -2.35817 1.91235 -0.4965
v -2.30478 1.89899 -0.4965
v -2.26057 1.86623 -0.4965
v -2.23227 1.81903 -0.4965
v -2.22418 1.7646 -0.4965
v -2.22418 1.74369 -0.4965
v -2.22418 1.72278 -0.4965
v -2.22418 1.70146 -0.4965
v -2.22418 1.67931 -0.4965
v -2.21299 1.47686 -0.4965
v -2.17836 1.27708 -0.4965
v -2.12075 1.08267 -0.4965
v -2.04094 0.896281 -0.4965
v -2.02644 0.843249 -0.4965
v -2.03326 0.788696 -0.4965
v -2.06037 0.740867 -0.4965
v -2.10367 0.706989 -0.4965
v -0.978895 3.36244 -0.4965
v -1.44808 3.13955 -0.4965
v -1.8313 2.78889 -0.4965
v -2.09487 2.34128 -0.4965
v -2.11613 2.30541 -0.4965
v -2.14692 2.2773 -0.4965
v -2.18458 2.25939 -0.4965
v -2.22583 2.25324 -0.4965
v -2.23992 2.25371 -0.4965
v -2.25388 2.25563 -0.4965
v -2.26758 2.25897 -0.4965
v -2.28086 2.26369 -0.4965
v -2.30536 2.27654 -0.4965
v -2.32687 2.29393 -0.4965
v -2.34458 2.31518 -0.4965
v -2.35779 2.33949 -0.4965
v -2.36599 2.36591 -0.4965
v -2.36888 2.39342 -0.4965
v -2.36633 2.42097 -0.4965
v -2.35844 2.44748 -0.4965
v -2.05198 2.96704 -0.4965
v -1.60673 3.374 -0.4965
v -1.06179 3.63264 -0.4965
v -0.464975 3.72025 -0.4965
v -0.426705 3.71742 -0.4965
v -0.390603 3.70441 -0.4965
v -0.359328 3.68217 -0.4965
v -0.335183 3.65235 -0.4965
v -0.319946 3.61713 -0.4965
v -0.31474 3.57911 -0.4965
v -0.319946 3.54109 -0.4965
v -0.335183 3.50587 -0.4965
v -0.359328 3.47604 -0.4965
v -0.390603 3.4538 -0.4965
v -0.426705 3.44079 -0.4965
v -0.464975 3.43796 -0.4965
v 2.46108 -1.28949 -0.4955
v 2.09423 -1.463 -0.4955
v 1.79355 -1.73552 -0.4955
v 1.58493 -2.08359 -0.4955
v 1.48633 -2.47723 -0.4955
v 1.50624 -2.88255 -0.4955
v 1.64295 -3.26463 -0.4955
v 1.88469 -3.59057 -0.4955
v 2.21063 -3.83231 -0.4955
v 2.59271 -3.96902 -0.4955
v 2.99803 -3.98893 -0.4955
v 3.39167 -3.89033 -0.4955
v 3.73974 -3.6817 -0.4955
v 4.01226 -3.38103 -0.4955
v 4.18576 -3.01418 -0.4955
v 4.24531 -2.61277 -0.4955
v 4.14005 -2.08359 -0.4955
v 3.84029 -1.63497 -0.4955
v 3.39167 -1.33521 -0.4955
v 2.86249 -1.22995 -0.4955
v 2.97034 -2.72062 -0.4955
v 2.97034 -3.13718 -0.4955
v 2.97165 -3.16928 -0.4955
v 2.96363 -3.2004 -0.4955
v 2.94697 -3.22787 -0.4955
v 2.92308 -3.24936 -0.4955
v 2.894 -3.26304 -0.4955
v 2.86221 -3.26773 -0.4955
v 2.83042 -3.26304 -0.4955
v 2.80135 -3.24936 -0.4955
v 2.77746 -3.22787 -0.4955
v 2.76079 -3.2004 -0.4955
v 2.75277 -3.16928 -0.4955
v 2.75409 -3.13718 -0.4955
v 2.75409 -2.72062 -0.4955
v 2.33753 -2.72062 -0.4955
v 2.30521 -2.72233 -0.4955
v 2.27379 -2.71456 -0.4955
v 2.24599 -2.69798 -0.4955
v 2.22421 -2.67404 -0.4955
v 2.21034 -2.64479 -0.4955
v 2.20558 -2.61277 -0.4955
v 2.21034 -2.58075 -0.4955
v 2.22421 -2.55151 -0.4955
v 2.24599 -2.52756 -0.4955
v 2.27379 -2.51098 -0.4955
v 2.30521 -2.50321 -0.4955
v 2.33753 -2.50492 -0.4955
v 2.75409 -2.50492 -0.4955
v 2.75409 -2.08837 -0.4955
v 2.75277 -2.05626 -0.4955
v 2.76079 -2.02514 -0.4955
v 2.77746 -1.99767 -0.4955
v 2.80135 -1.97618 -0.4955
v 2.83042 -1.96251 -0.4955
v 2.86221 -1.95781 -0.4955
v 2.894 -1.96251 -0.4955
v 2.92308 -1.97618 -0.4955
v 2.94697 -1.99767 -0.4955
v 2.96363 -2.02514 -0.4955
v 2.97165 -2.05626 -0.4955
v 2.97034 -2.08837 -0.4955
v 2.97034 -2.50492 -0.4955
v 3.38689 -2.50492 -0.4955
v 3.41922 -2.50321 -0.4955
v 3.45064 -2.51098 -0.4955
v 3.47844 -2.52756 -0.4955
v 3.50022 -2.55151 -0.4955
v 3.51409 -2.58075 -0.4955
v 3.51885 -2.61277 -0.4955
v 3.51409 -2.64479 -0.4955
v 3.50022 -2.67404 -0.4955
v 3.47844 -2.69798 -0.4955
v 3.45064 -2.71456 -0.4955
v 3.41922 -2.72233 -0.4955
v 3.38689 -2.72062 -0.4955
v -1.42354 -2.32113 0.4955
v -1.48805 -2.33727 0.4955
v -1.54202 -2.37612 0.4955
v -1.5778 -2.43218 0.4955
v -1.59032 -2.49749 0.4955
v -1.5778 -2.5628 0.4955
v -1.54202 -2.61886 0.4955
v -1.48805 -2.65771 0.4955
v -1.42354 -2.67385 0.4955
v 0.566225 -2.67385 0.4955
v 0.613813 -2.67005 0.4955
v 0.658645 -2.65364 0.4955
v 0.697446 -2.62583 0.4955
v 0.727381 -2.58864 0.4955
v 0.746264 -2.54479 0.4955
v 0.752716 -2.49749 0.4955
v 0.746264 -2.45019 0.4955
v 0.727381 -2.40634 0.4955
v 0.697446 -2.36915 0.4955
v 0.658645 -2.34134 0.4955
v 0.613813 -2.32493 0.4955
v 0.566225 -2.32113 0.4955
v -1.2436 -2.91542 0.4965
v -1.30812 -2.93156 0.4965
v -1.36208 -2.97041 0.4965
v -1.39787 -3.02647 0.4965
v -1.41038 -3.09178 0.4965
v -1.39787 -3.15709 0.4965
v -1.36208 -3.21314 0.4965
v -1.30812 -3.252 0.4965
v -1.2436 -3.26814 0.4965
v 0.386287 -3.26814 0.4965
v 0.433876 -3.26434 0.4965
v 0.478708 -3.24793 0.4965
v 0.517509 -3.22012 0.4965
v 0.547444 -3.18293 0.4965
v 0.566327 -3.13908 0.4965
v 0.572778 -3.09178 0.4965
v 0.566327 -3.04448 0.4965
v 0.547444 -3.00063 0.4965
v 0.517509 -2.96344 0.4965
v 0.478708 -2.93563 0.4965
v 0.433876 -2.91922 0.4965
v 0.386287 -2.91542 0.4965
v -1.06312 -3.50971 0.4975
v -1.1107 -3.51351 0.4975
v -1.15554 -3.52992 0.4975
v -1.19434 -3.55773 0.4975
v -1.22427 -3.59492 0.4975
v -1.24316 -3.63876 0.4975
v -1.24961 -3.68607 0.4975
v -1.24316 -3.73337 0.4975
v -1.22427 -3.77722 0.4975
v -1.19434 -3.8144 0.4975
v -1.15554 -3.84222 0.4975
v -1.1107 -3.85862 0.4975
v -1.06312 -3.86243 0.4975
v 0.197546 -3.86243 0.4975
v 0.262057 -3.84628 0.4975
v 0.316028 -3.80743 0.4975
v 0.351809 -3.75138 0.4975
v 0.364326 -3.68607 0.4975
v 0.351809 -3.62075 0.4975
v 0.316028 -3.5647 0.4975
v 0.262057 -3.52585 0.4975
v 0.197546 -3.50971 0.4975
v -0.374539 5.01699 0.4985
v -0.32866 5.04765 0.4985
v -0.298004 5.09352 0.4985
v -0.287239 5.14764 0.4985
v -0.287239 5.86299 0.4985
v -0.300403 5.91434 0.4985
v -0.331552 5.95724 0.4985
v -0.376308 5.98565 0.4985
v -0.428383 5.99559 0.4985
v -0.480457 5.98565 0.4985
v -0.525213 5.95724 0.4985
v -0.556362 5.91434 0.4985
v -0.569526 5.86299 0.4985
v -0.569526 5.14764 0.4985
v -0.558814 5.09365 0.4985
v -0.5283 5.04784 0.4985
v -0.482607 5.01715 0.4985
v -0.428658 5.00622 0.4985
v 1.16877 4.61223 0.4995
v 1.18714 4.60132 0.4995
v 1.20698 4.59336 0.4995
v 1.22779 4.58852 0.4995
v 1.24911 4.58692 0.4995
v 1.28283 4.59092 0.4995
v 1.31462 4.60288 0.4995
v 1.34262 4.62209 0.4995
v 1.36521 4.64745 0.4995
v 1.77406 5.23404 0.4995
v 1.79091 5.26675 0.4995
v 1.79871 5.30271 0.4995
v 1.79694 5.33947 0.4995
v 1.78572 5.37452 0.4995
v 1.76581 5.40547 0.4995
v 1.73857 5.4302 0.4995
v 1.70585 5.44705 0.4995
v 1.66989 5.45486 0.4995
v 1.63313 5.45309 0.4995
v 1.59809 5.44186 0.4995
v 1.56714 5.42196 0.4995
v 1.5424 5.39471 0.4995
v 1.13355 4.80868 0.4995
v 1.11161 4.75821 0.4995
v 1.11059 4.70318 0.4995
v 1.13066 4.65194 0.4995
v -2.25554 4.64745 0.5005
v -2.21588 4.60926 0.5005
v -2.16461 4.58916 0.5005
v -2.10956 4.5902 0.5005
v -2.0591 4.61223 0.5005
v -2.02091 4.6519 0.5005
v -2.0008 4.70316 0.5005
v -2.00185 4.75821 0.5005
v -2.02388 4.80868 0.5005
v -2.43273 5.39581 0.5005
v -2.45761 5.42304 0.5005
v -2.48869 5.44289 0.5005
v -2.52385 5.45403 0.5005
v -2.5607 5.45568 0.5005
v -2.59671 5.44774 0.5005
v -2.62945 5.43076 0.5005
v -2.65667 5.40587 0.5005
v -2.67653 5.37479 0.5005
v -2.68766 5.33963 0.5005
v -2.68932 5.30279 0.5005
v -2.68138 5.26677 0.5005
v -2.66439 5.23404 0.5005
v -4.0252 3.90734 0.5015
v -4.05832 3.92341 0.5015
v -4.09447 3.93036 0.5015
v -4.13119 3.92771 0.5015
v -4.16598 3.91566 0.5015
v -4.19645 3.89501 0.5015
v -4.22055 3.86717 0.5015
v -4.23662 3.83405 0.5015
v -4.24356 3.7979 0.5015
v -4.24092 3.76118 0.5015
v -4.22886 3.7264 0.5015
v -4.20821 3.69592 0.5015
v -4.18038 3.67183 0.5015
v -3.58499 3.27784 0.5015
v -3.53402 3.25711 0.5015
v -3.479 3.25746 0.5015
v -3.4283 3.27885 0.5015
v -3.38964 3.31801 0.5015
v -3.36892 3.36897 0.5015
v -3.36927 3.424 0.5015
v -3.39066 3.47469 0.5015
v -3.42981 3.51335 0.5015
v 2.56369 3.30205 0.5025
v 2.58401 3.30358 0.5025
v 2.60389 3.30801 0.5025
v 2.62293 3.31525 0.5025
v 2.64073 3.32516 0.5025
v 3.23832 3.71915 0.5025
v 3.27748 3.75781 0.5025
v 3.29886 3.8085 0.5025
v 3.29922 3.86352 0.5025
v 3.27849 3.91449 0.5025
v 3.23984 3.95365 0.5025
v 3.18914 3.97504 0.5025
v 3.13411 3.97539 0.5025
v 3.08315 3.95466 0.5025
v 2.485 3.56067 0.5025
v 2.4635 3.54329 0.5025
v 2.44581 3.52204 0.5025
v 2.4326 3.49774 0.5025
v 2.4244 3.47133 0.5025
v 2.42152 3.44383 0.5025
v 2.42406 3.4163 0.5025
v 2.43194 3.38979 0.5025
v 2.44484 3.36533 0.5025
v 2.4677 3.33887 0.5025
v 2.49632 3.31877 0.5025
v 2.52897 3.30624 0.5025
v 2.19311 2.5363 0.5035
v 1.73262 3.36428 0.5035
v 1.02286 3.99185 0.5035
v 0.144723 4.34749 0.5035
v -0.801712 4.39065 0.5035
v -1.70858 4.11643 0.5035
v -2.47251 3.55607 0.5035
v -3.00646 2.77344 0.5035
v -3.24955 1.85774 0.5035
v -3.17409 0.913331 0.5035
v -2.78868 0.047849 0.5035
v -2.13724 -0.640064 0.5035
v -1.90309 -0.866199 0.5035
v -1.72696 -1.13995 0.5035
v -1.61819 -1.44675 0.5035
v -1.58257 -1.77031 0.5035
v -1.58257 -1.99702 0.5035
v 0.662521 -1.99702 0.5035
v 0.662521 -1.78847 0.5035
v 0.70364 -1.45464 0.5035
v 0.819795 -1.13898 0.5035
v 1.00487 -0.858119 0.5035
v 1.24911 -0.626858 0.5035
v 1.71224 -0.181074 0.5035
v 2.06151 0.358574 0.5035
v 2.27852 0.963652 0.5035
v 2.35184 1.60227 0.5035
v -2.12027 0.702829 0.5035
v -2.13584 0.698196 0.5035
v -2.15184 0.695353 0.5035
v -2.16805 0.694333 0.5035
v -2.20674 0.699626 0.5035
v -2.24249 0.715336 0.5035
v -2.27255 0.740256 0.5035
v -2.29461 0.772471 0.5035
v -2.38673 0.988401 0.5035
v -2.4532 1.21356 0.5035
v -2.4931 1.4449 0.5035
v -2.50591 1.67931 0.5035
v -2.50591 1.70407 0.5035
v -2.50591 1.72883 0.5035
v -2.50591 1.7536 0.5035
v -2.50591 1.77836 0.5035
v -2.49256 1.83174 0.5035
v -2.45979 1.87595 0.5035
v -2.4126 1.90426 0.5035
v -2.35817 1.91235 0.5035
v -2.30478 1.89899 0.5035
v -2.26057 1.86623 0.5035
v -2.23227 1.81903 0.5035
v -2.22418 1.7646 0.5035
v -2.22418 1.74369 0.5035
v -2.22418 1.72278 0.5035
v -2.22418 1.70146 0.5035
v -2.22418 1.67931 0.5035
v -2.21299 1.47686 0.5035
v -2.17836 1.27708 0.5035
v -2.12075 1.08267 0.5035
v -2.04094 0.896281 0.5035
v -2.02644 0.843249 0.5035
v -2.03326 0.788696 0.5035
v -2.06037 0.740867 0.5035
v -2.10367 0.706989 0.5035
v -0.978895 3.36244 0.5035
v -1.44808 3.13955 0.5035
v -1.8313 2.78889 0.5035
v -2.09487 2.34128 0.5035
v -2.11613 2.30541 0.5035
v -2.14692 2.2773 0.5035
v -2.18458 2.25939 0.5035
v -2.22583 2.25324 0.5035
v -2.23992 2.25371 0.5035
v -2.25388 2.25563 0.5035
v -2.26758 2.25897 0.5035
v -2.28086 2.26369 0.5035
v -2.30536 2.27654 0.5035
v -2.32687 2.29393 0.5035
v -2.34458 2.31518 0.5035
v -2.35779 2.33949 0.5035
v -2.36599 2.36591 0.5035
v -2.36888 2.39342 0.5035
v -2.36633 2.42097 0.5035
v -2.35844 2.44748 0.5035
v -2.05198 2.96704 0.5035
v -1.60673 3.374 0.5035
v -1.06179 3.63264 0.5035
v -0.464975 3.72025 0.5035
v -0.426705 3.71742 0.5035
v -0.390603 3.70441 0.5035
v -0.359328 3.68217 0.5035
v -0.335183 3.65235 0.5035
v -0.319946 3.61713 0.5035
v -0.31474 3.57911 0.5035
v -0.319946 3.54109 0.5035
v -0.335183 3.50587 0.5035
v -0.359328 3.47604 0.5035
v -0.390603 3.4538 0.5035
v -0.426705 3.44079 0.5035
v -0.464975 3.43796 0.5035
v 2.46108 -1.28949 0.5045
v 2.09423 -1.463 0.5045
v 1.79355 -1.73552 0.5045
v 1.58493 -2.08359 0.5045
v 1.48633 -2.47723 0.5045
v 1.50624 -2.88255 0.5045
v 1.64295 -3.26463 0.5045
v 1.88469 -3.59057 0.5045
v 2.21063 -3.83231 0.5045
v 2.59271 -3.96902 0.5045
v 2.99803 -3.98893 0.5045
v 3.39167 -3.89033 0.5045
v 3.73974 -3.6817 0.5045
v 4.01226 -3.38103 0.5045
v 4.18576 -3.01418 0.5045
v 4.24531 -2.61277 0.5045
v 4.14005 -2.08359 0.5045
v 3.84029 -1.63497 0.5045
v 3.39167 -1.33521 0.5045
v 2.86249 -1.22995 0.5045
v 2.97034 -2.72062 0.5045
v 2.97034 -3.13718 0.5045
v 2.97165 -3.16928 0.5045
v 2.96363 -3.2004 0.5045
v 2.94697 -3.22787 0.5045
v 2.92308 -3.24936 0.5045
v 2.894 -3.26304 0.5045
v 2.86221 -3.26773 0.5045
v 2.83042 -3.26304 0.5045
v 2.80135 -3.24936 0.5045
v 2.77746 -3.22787 0.5045
v 2.76079 -3.2004 0.5045
v 2.75277 -3.16928 0.5045
v 2.75409 -3.13718 0.5045
v 2.75409 -2.72062 0.5045
v 2.33753 -2.72062 0.5045
v 2.30521 -2.72233 0.5045
v 2.27379 -2.71456 0.5045
v 2.24599 -2.69798 0.5045
v 2.22421 -2.67404 0.5045
v 2.21034 -2.64479 0.5045
v 2.20558 -2.61277 0.5045
v 2.21034 -2.58075 0.5045
v 2.22421 -2.55151 0.5045
v 2.24599 -2.52756 0.5045
v 2.27379 -2.51098 0.5045
v 2.30521 -2.50321 0.5045
v 2.33753 -2.50492 0.5045
v 2.75409 -2.50492 0.5045
v 2.75409 -2.08837 0.5045
v 2.75277 -2.05626 0.5045
v 2.76079 -2.02514 0.5045
v 2.77746 -1.99767 0.5045
v 2.80135 -1.97618 0.5045
v 2.83042 -1.96251 0.5045
v 2.86221 -1.95781 0.5045
v 2.894 -1.96251 0.5045
v 2.92308 -1.97618 0.5045
v 2.94697 -1.99767 0.5045
v 2.96363 -2.02514 0.5045
v 2.97165 -2.05626 0.5045
v 2.97034 -2.08837 0.5045
v 2.97034 -2.50492 0.5045
v 3.38689 -2.50492 0.5045
v 3.41922 -2.50321 0.5045
v 3.45064 -2.51098 0.5045
v 3.47844 -2.52756 0.5045
v 3.50022 -2.55151 0.5045
v 3.51409 -2.58075 0.5045
v 3.51885 -2.61277 0.5045
v 3.51409 -2.64479 0.5045
v 3.50022 -2.67404 0.5045
v 3.47844 -2.69798 0.5045
v 3.45064 -2.71456 0.5045
v 3.41922 -2.72233 0.5045
v 3.38689 -2.72062 0.5045
vn 0 0 -1
vn -0.0814539 0.996677 0
vn -0.362321 0.932053 0
vn -0.162908 0.986641 0
vn -0.477994 0.878363 0
vn -0.681278 0.732025 0
vn -0.768892 0.639379 0
vn -0.903661 0.428248 0
vn -0.950814 0.309761 0
vn -0.997965 0.0637582 0
vn -0.997965 -0.0637575 0
vn -0.950814 -0.309761 0
vn -0.903661 -0.428249 0
vn -0.768891 -0.63938 0
vn -0.681278 -0.732025 0
vn -0.477999 -0.87836 0
vn -0.362332 -0.932049 0
vn -0.162919 -0.986639 0
vn -0.0814596 -0.996677 0
vn 0.0265726 -0.999647 0
vn 0.0531452 -0.998587 0
vn 0.169043 -0.985609 0
vn 0.257771 -0.966206 0
vn 0.426798 -0.904347 0
vn 0.507097 -0.861889 0
vn 0.653391 -0.757021 0
vn 0.719385 -0.694611 0
vn 0.832253 -0.554397 0
vn 0.879125 -0.476591 0
vn 0.950319 -0.311277 0
vn 0.974642 -0.223768 0
vn 0.998968 -0.04542 0
vn 0.998968 0.04542 0
vn 0.974642 0.223769 0
vn 0.950319 0.311278 0
vn 0.879124 0.476592 0
vn 0.832252 0.554397 0
vn 0.719385 0.694611 0
vn 0.653391 0.757021 0
vn 0.507097 0.861889 0
vn 0.426798 0.904347 0
vn 0.257765 0.966208 0
vn 0.16903 0.985611 0
vn 0.0531319 0.998587 0
vn 0.026566 0.999647 0
vn 0 0 1
vn -0.0814596 0.996677 0
vn -0.362328 0.932051 0
vn -0.162919 0.986639 0
vn -0.477992 0.878364 0
vn -0.681274 0.732028 0
vn -0.768893 0.639378 0
vn -0.903663 0.428245 0
vn -0.950814 0.309762 0
vn -0.997965 0.0637604 0
vn -0.997965 -0.0637577 0
vn -0.950814 -0.309762 0
vn -0.903661 -0.428248 0
vn -0.768892 -0.639379 0
vn -0.681278 -0.732025 0
vn -0.477998 -0.878361 0
vn -0.36233 -0.93205 0
vn -0.162917 -0.98664 0
vn -0.0814585 -0.996677 0
vn 0.0265637 -0.999647 0
vn 0.0531275 -0.998588 0
vn 0.169032 -0.985611 0
vn 0.257775 -0.966205 0
vn 0.426806 -0.904343 0
vn 0.507096 -0.86189 0
vn 0.653388 -0.757023 0
vn 0.719388 -0.694608 0
vn 0.832257 -0.55439 0
vn 0.879126 -0.476589 0
vn 0.950321 -0.311271 0
vn 0.974645 -0.223755 0
vn 0.998968 -0.0454119 0
vn 0.998968 0.0454146 0
vn 0.974646 0.223754 0
vn 0.950323 0.311266 0
vn 0.879128 0.476587 0
vn 0.832254 0.554394 0
vn 0.719385 0.694611 0
vn 0.653391 0.757021 0
vn 0.507097 0.861889 0
vn 0.426798 0.904347 0
vn 0.257764 0.966208 0
vn 0.169029 0.985611 0
vn 0.0531308 0.998588 0
vn 0.0265654 0.999647 0
vn -0.026566 0.999647 0
vn -0.16903 0.985611 0
vn -0.0531319 0.998587 0
vn -0.257764 0.966208 0
vn -0.426801 0.904345 0
vn -0.507104 0.861885 0
vn -0.653396 0.757016 0
vn -0.719387 0.69461 0
vn -0.83225 0.554401 0
vn -0.879121 0.476598 0
vn -0.95032 0.311275 0
vn -0.974645 0.223755 0
vn -0.998968 0.0454095 0
vn -0.998968 -0.0454162 0
vn -0.974645 -0.223757 0
vn -0.950321 -0.311271 0
vn -0.879125 -0.476592 0
vn -0.832251 -0.554398 0
vn -0.719383 -0.694614 0
vn -0.653388 -0.757023 0
vn -0.5071 -0.861887 0
vn -0.426808 -0.904342 0
vn -0.257776 -0.966205 0
vn -0.169036 -0.98561 0
vn -0.0531319 -0.998587 0
vn -0.026566 -0.999647 0
vn 0.0814608 -0.996677 0
vn 0.162922 -0.986639 0
vn 0.362328 -0.932051 0
vn 0.477988 -0.878367 0
vn 0.68127 -0.732033 0
vn 0.76889 -0.639381 0
vn 0.903665 -0.428241 0
vn 0.950817 -0.309752 0
vn 0.997966 -0.0637553 0
vn 0.997966 0.0637519 0
vn 0.950817 0.309752 0
vn 0.903663 0.428245 0
vn 0.768892 0.639378 0
vn 0.681281 0.732022 0
vn 0.477998 0.878361 0
vn 0.362325 0.932052 0
vn 0.16291 0.986641 0
vn 0.0814551 0.996677 0
vn 0.320726 -0.947172 0
vn 0.658777 -0.752338 0
vn 0.442973 -0.896535 0
vn 0.752336 -0.65878 0
vn 0.896534 -0.442975 0
vn 0.947172 -0.320726 0
vn 0.991433 -0.13062 0
vn 0.997865 -0.0653099 0
vn 0.99652 0.0833538 0
vn 0.986006 0.166708 0
vn 0.930152 0.367175 0
vn 0.876136 0.482064 0
vn 0.72959 0.683884 0
vn 0.63706 0.770814 0
vn 0.426504 0.904486 0
vn 0.308481 0.95123 0
vn 0.0634855 0.997983 0
vn -0.0634889 0.997983 0
vn -0.308483 0.95123 0
vn -0.426505 0.904485 0
vn -0.63706 0.770814 0
vn -0.729591 0.683884 0
vn -0.876136 0.482064 0
vn -0.930152 0.367175 0
vn -0.986006 0.166708 0
vn -0.99652 0.083354 0
vn -0.997876 -0.0651461 0
vn -0.991476 -0.130292 0
vn -0.947432 -0.319956 0
vn -0.897042 -0.441945 0
vn -0.753507 -0.657439 0
vn -0.660364 -0.750946 0
vn -0.445436 -0.895314 0
vn -0.323652 -0.946176 0
vn -0.0684512 -0.997654 0
vn 0.0650439 -0.997882 0
vn -0.656452 -0.754368 0
vn -0.465788 -0.884896 0
vn -0.585529 -0.810651 0
vn -0.419796 -0.907619 0
vn -0.324872 -0.945758 0
vn -0.275942 -0.961174 0
vn -0.176297 -0.984337 0
vn -0.125583 -0.992083 0
vn -0.0105682 -0.999944 0
vn 0.0538462 -0.998549 0
vn 0.197133 -0.980377 0
vn 0.275725 -0.961237 0
vn 0.426033 -0.904708 0
vn 0.49775 -0.86732 0
vn 0.63017 -0.776457 0
vn 0.690871 -0.722978 0
vn 0.772478 -0.635042 0
vn 0.797078 -0.603876 0
vn 0.844944 -0.534855 0
vn 0.867881 -0.496771 0
vn 0.925492 -0.378767 0
vn 0.955112 -0.296243 0
vn 0.991988 -0.126333 0
vn 0.999241 -0.0389452 0
vn 0.990882 0.134731 0
vn 0.97527 0.221019 0
vn 0.922248 0.386598 0
vn 0.884842 0.465891 0
vn 0.790772 0.61211 0
vn 0.734106 0.679035 0
vn 0.605399 0.795923 0
vn 0.53336 0.845888 0
vn 0.378779 0.925487 0
vn 0.296233 0.955116 0
vn 0.126311 0.991991 0
vn 0.0389348 0.999242 0
vn -0.134732 0.990882 0
vn -0.221022 0.975269 0
vn -0.386595 0.92225 0
vn -0.465879 0.884848 0
vn -0.612098 0.790782 0
vn -0.679028 0.734112 0
vn -0.768304 0.640085 0
vn -0.794969 0.606649 0
vn -0.856219 0.516614 0
vn -0.888678 0.458531 0
vn -0.960976 0.276633 0
vn -0.989033 0.147697 0
vn -0.993806 -0.111129 0
vn -0.970521 -0.241018 0
vn -0.876135 -0.482066 0
vn -0.805036 -0.593225 0
vn -0.781435 -0.623987 0
vn -0.594213 -0.804308 0
vn -0.738981 -0.673726 0
vn -0.48282 -0.875719 0
vn -0.241189 -0.970478 0
vn -0.110952 -0.993826 0
vn 0.148546 -0.988905 0
vn 0.277806 -0.960637 0
vn 0.515677 -0.856783 0
vn 0.624286 -0.781196 0
vn 0.804306 -0.594216 0
vn 0.875718 -0.482823 0
vn 0.970478 -0.24119 0
vn 0.993826 -0.11095 0
vn 0.988905 0.148549 0
vn 0.960636 0.277809 0
vn 0.888332 0.459202 0
vn 0.856253 0.516556 0
vn 0.794679 0.60703 0
vn 0.767123 0.641499 0
vn 0.676686 0.736272 0
vn 0.609587 0.792719 0
vn 0.463068 0.886323 0
vn 0.383649 0.923479 0
vn 0.217881 0.975975 0
vn 0.131531 0.991312 0
vn -0.0421657 0.999111 0
vn -0.129511 0.991578 0
vn -0.29929 0.954162 0
vn -0.381722 0.924277 0
vn -0.536047 0.844188 0
vn -0.607939 0.793984 0
vn -0.736275 0.676682 0
vn -0.79272 0.609586 0
vn -0.886325 0.463063 0
vn -0.923485 0.383635 0
vn -0.975977 0.217875 0
vn -0.99131 0.131544 0
vn -0.999112 -0.0421424 0
vn -0.99158 -0.129497 0
vn -0.954161 -0.299293 0
vn -0.924272 -0.381733 0
vn -0.866812 -0.498635 0
vn -0.844371 -0.535759 0
vn 0.514405 0.857547 0
vn 0.356616 0.934251 0
vn 0.475876 0.879513 0
vn 0.273401 0.9619 0
vn 0.102668 0.994716 0
vn 0.0151517 0.999885 0
vn -0.15826 0.987397 0
vn -0.244156 0.969736 0
vn -0.408447 0.912782 0
vn -0.486843 0.873489 0
vn -0.63078 0.775962 0
vn -0.696322 0.71773 0
vn -0.810111 0.586277 0
vn -0.858356 0.513054 0
vn -0.934252 0.356615 0
vn -0.961901 0.273398 0
vn -0.994717 0.102654 0
vn -0.999886 0.015127 0
vn -0.987393 -0.158288 0
vn -0.969731 -0.244176 0
vn -0.912783 -0.408446 0
vn -0.873498 -0.486827 0
vn -0.775971 -0.630768 0
vn -0.717726 -0.696325 0
vn -0.621409 -0.783486 0
vn -0.58714 -0.809485 0
vn -0.495636 -0.86853 0
vn -0.437 -0.899461 0
vn -0.253313 -0.967384 0
vn -0.123375 -0.99236 0
vn 0.136175 -0.990685 0
vn 0.265786 -0.964032 0
vn 0.504936 -0.863157 0
vn 0.614476 -0.788936 0
vn 0.796812 -0.604227 0
vn 0.869609 -0.493741 0
vn 0.967384 -0.253316 0
vn 0.99236 -0.123376 0
vn 0.990685 0.136175 0
vn 0.964032 0.265786 0
vn 0.863159 0.504931 0
vn 0.788942 0.614468 0
vn 0.655051 0.755584 0
vn 0.604613 0.796519 0
vn -0.0551458 -0.998478 0
vn 0.122894 -0.99242 0
vn 0.0101394 -0.999949 0
vn 0.170508 -0.985356 0
vn 0.264219 -0.964463 0
vn 0.310315 -0.950634 0
vn 0.400047 -0.916495 0
vn 0.443682 -0.896184 0
vn 0.507926 -0.861401 0
vn 0.529353 -0.848401 0
vn 0.60371 -0.797204 0
vn 0.654626 -0.755953 0
vn 0.788945 -0.614464 0
vn 0.863164 -0.504923 0
vn 0.964033 -0.265782 0
vn 0.990684 -0.136182 0
vn 0.992362 0.123362 0
vn 0.967387 0.253305 0
vn 0.869609 0.493741 0
vn 0.796807 0.604233 0
vn 0.614469 0.788941 0
vn 0.504934 0.863158 0
vn 0.265788 0.964031 0
vn 0.136176 0.990685 0
vn -0.123377 0.99236 0
vn -0.253318 0.967383 0
vn -0.436372 0.899766 0
vn -0.494407 0.869231 0
vn -0.576881 0.816828 0
vn -0.603102 0.797664 0
vn -0.678175 0.7349 0
vn -0.724982 0.688768 0
vn -0.808673 0.588259 0
vn -0.845558 0.533883 0
vn -0.908006 0.418956 0
vn -0.933566 0.358405 0
vn -0.972358 0.233495 0
vn -0.985592 0.169139 0
vn -0.999237 0.039054 0
vn -0.999644 -0.0266742 0
vn -0.98761 -0.156925 0
vn -0.975172 -0.221449 0
vn -0.93793 -0.346824 0
vn -0.913127 -0.407676 0
vn -0.846754 -0.531985 0
vn -0.8039 -0.594765 0
vn -0.70073 -0.713427 0
vn -0.63966 -0.768658 0
vn -0.505905 -0.862589 0
vn -0.433219 -0.901289 0
vn -0.2806 -0.959825 0
vn -0.200666 -0.97966 0
vn 0.9608 0.277243 0
vn 0.813794 0.581153 0
vn 0.923008 0.384781 0
vn 0.742372 0.669988 0
vn 0.574039 0.818828 0
vn 0.477128 0.878834 0
vn 0.268861 0.963179 0
vn 0.157504 0.987518 0
vn -0.0669613 0.997756 0
vn -0.18007 0.983654 0
vn -0.39515 0.918616 0
vn -0.497122 0.867681 0
vn -0.678305 0.734781 0
vn -0.757516 0.652816 0
vn -0.884151 0.467201 0
vn -0.931575 0.36355 0
vn -0.989229 0.146374 0
vn -0.99946 0.0328489 0
vn -0.981564 -0.191136 0
vn -0.953436 -0.301596 0
vn -0.862027 -0.506862 0
vn -0.798747 -0.601668 0
vn -0.715786 -0.69832 0
vn -0.705319 -0.70889 0
vn -0.747881 -0.663833 0
vn -0.796925 -0.604078 0
vn -0.880025 -0.474927 0
vn -0.914081 -0.405531 0
vn -0.965398 -0.260781 0
vn -0.982658 -0.185428 0
vn -0.997329 -0.0730465 0
vn -0.999333 -0.0365232 0
vn -1 0 0
vn 0 -1 0
vn 1 0 0
vn 0.999167 -0.0408178 0
vn 0.996662 -0.0816356 0
vn 0.980248 -0.197772 0
vn 0.962135 -0.272573 0
vn 0.90933 -0.416077 0
vn 0.874637 -0.484779 0
vn 0.7905 -0.612462 0
vn 0.741056 -0.671443 0
vn 0.689535 -0.724253 0
vn 0.691513 -0.722364 0
vn 0.746543 -0.665337 0
vn 0.795504 -0.605949 0
vn 0.878593 -0.477571 0
vn 0.912722 -0.408581 0
vn 0.964348 -0.264637 0
vn 0.981845 -0.189683 0
vn 0.999793 -0.0203703 0
vn 0.997233 0.0743346 0
vn -0.257165 0.966367 0
vn -0.2488 0.968555 0
vn -0.271196 0.962524 0
vn -0.212025 0.977264 0
vn -0.137791 0.990461 0
vn -0.100331 0.994954 0
vn 0.00334443 0.999994 0
vn 0.0697476 0.997565 0
vn 0.22642 0.97403 0
vn 0.316114 0.948721 0
vn 0.485114 0.874451 0
vn 0.564419 0.825488 0
vn 0.706534 0.707679 0
vn 0.769344 0.638835 0
vn 0.860328 0.509741 0
vn 0.892055 0.451927 0
vn 0.934291 0.356511 0
vn 0.94741 0.320023 0
vn 0.969328 0.245771 0
vn 0.978127 0.208006 0
vn 0.991288 0.131712 0
vn 0.995649 0.0931822 0
vn 0.999338 0.0363922 0
vn 0.999834 0.0181961 0
vn 0.996678 -0.0814395 0
vn 0.986646 -0.162879 0
vn 0.930405 -0.366534 0
vn 0.873867 -0.486165 0
vn 0.719315 -0.694684 0
vn 0.621302 -0.783571 0
vn 0.39872 -0.917073 0
vn 0.274152 -0.961686 0
vn 0.0174173 -0.999848 0
vn -0.114749 -0.993395 0
vn -0.366537 -0.930403 0
vn -0.486161 -0.873869 0
vn -0.694677 -0.719322 0
vn -0.783569 -0.621305 0
vn -0.917075 -0.398714 0
vn -0.96169 -0.274138 0
vn -0.995162 -0.098245 0
vn -0.998793 -0.0491225 0
vn -0.999831 -0.0183975 0
vn -0.999323 -0.0367949 0
vn -0.995585 -0.0938595 0
vn -0.991188 -0.132462 0
vn -0.977938 -0.208897 0
vn -0.969084 -0.24673 0
vn -0.947042 -0.321108 0
vn -0.933854 -0.357654 0
vn -0.936359 -0.351045 0
vn -0.951499 -0.307653 0
vn -0.990603 -0.13677 0
vn -0.999986 -0.0052916 0
vn -0.967904 0.251321 0
vn -0.926435 0.376455 0
vn -0.798919 0.601439 0
vn -0.712875 0.701291 0
vn -0.501546 0.865131 0
vn -0.374713 0.927141 0
vn -0.242342 0.970191 0
vn -0.516152 0.856497 0
vn -0.337844 0.941202 0
vn -0.598958 0.800781 0
vn -0.744593 0.667518 0
vn -0.807423 0.589973 0
vn -0.861231 0.508214 0
vn -0.860749 0.50903 0
vn -0.806062 0.591831 0
vn -0.743424 0.66882 0
vn -0.598418 0.801184 0
vn -0.516048 0.85656 0
vn -0.338738 0.940881 0
vn -0.243798 0.969826 0
vn -0.0874763 0.996167 0
vn -0.0270011 0.999635 0
vn 0.067622 0.997711 0
vn 0.101853 0.994799 0
vn 0.1698 0.985479 0
vn 0.203518 0.979071 0
vn 0.270118 0.962827 0
vn 0.303001 0.95299 0
vn 0.379278 0.925283 0
vn 0.422326 0.906444 0
vn 0.521301 0.853373 0
vn 0.576249 0.817274 0
vn 0.678025 0.735039 0
vn 0.724854 0.688902 0
vn 0.808592 0.58837 0
vn 0.8455 0.533975 0
vn 0.907986 0.419002 0
vn 0.933559 0.358423 0
vn 0.972366 0.233461 0
vn 0.985602 0.16908 0
vn 0.999241 0.0389429 0
vn 0.99964 -0.0268126 0
vn 0.987581 -0.157111 0
vn 0.975125 -0.221654 0
vn 0.932287 -0.36172 0
vn 0.899667 -0.436578 0
vn 0.80701 -0.590538 0
vn 0.744172 -0.667988 0
vn 0.598561 -0.801077 0
vn 0.515788 -0.856716 0
vn 0.337573 -0.941299 0
vn 0.24213 -0.970244 0
vn 0.072664 -0.997356 0
vn -0.000702761 -1 0
vn -0.163474 -0.986548 0
vn -0.252665 -0.967554 0
vn -0.422668 -0.906285 0
vn -0.503479 -0.864008 0
vn -0.650756 -0.759287 0
vn -0.717223 -0.696844 0
vn -0.830928 -0.55638 0
vn -0.878164 -0.478359 0
vn -0.949922 -0.312487 0
vn -0.974443 -0.224637 0
vn -0.99896 -0.0455955 0
vn -0.99896 0.0455946 0
vn -0.974442 0.22464 0
vn -0.949919 0.312495 0
vn -0.878163 0.478361 0
vn -0.830933 0.556373 0
vn -0.717232 0.696834 0
vn -0.650761 0.759283 0
vn -0.503479 0.864008 0
vn -0.422668 0.906285 0
vn -0.252663 0.967554 0
vn -0.16347 0.986548 0
vn -0.0976344 0.995222 0
vn -0.121559 0.992584 0
vn -0.242673 0.970108 0
vn -0.51383 0.857892 0
vn -0.33719 0.941437 0
vn -0.595954 0.803018 0
vn -0.740738 0.671794 0
vn -0.803398 0.595443 0
vn -0.903854 0.427841 0
vn -0.941651 0.336591 0
vn -0.98913 0.147046 0
vn -0.998811 0.0487507 0
vn -0.989223 -0.146417 0
vn -0.969954 -0.24329 0
vn -0.904125 -0.427268 0
vn -0.857566 -0.514374 0
vn -0.741166 -0.671322 0
vn -0.671324 -0.741164 0
vn -0.514375 -0.857566 0
vn -0.427267 -0.904125 0
vn -0.243288 -0.969954 0
vn -0.146416 -0.989223 0
vn 0.04875 -0.998811 0
vn 0.147044 -0.98913 0
vn 0.336591 -0.941651 0
vn 0.427843 -0.903853 0
vn 0.595445 -0.803396 0
vn 0.671794 -0.740738 0
vn 0.803018 -0.595955 0
vn 0.857892 -0.51383 0
vn 0.941437 -0.337189 0
vn 0.970108 -0.242672 0
vn 0.999448 -0.0332252 0
vn 0.996614 0.0822247 0
vn 0.947173 0.320722 0
vn 0.896537 0.442968 0
vn 0.752339 0.658776 0
vn 0.658776 0.752339 0
vn 0.442968 0.896537 0
vn 0.320722 0.947173 0
vn 0.082225 0.996614 0
vn -0.0332252 0.999448 0
vn -0.999907 -0.0136129 0
vn -0.999629 -0.0272258 0
vn -0.998403 0.0564937 0
vn -0.988038 0.154211 0
vn -0.939527 0.342474 0
vn -0.901384 0.433021 0
vn -0.800562 0.59925 0
vn -0.737881 0.674931 0
vn -0.593333 0.804957 0
vn -0.511468 0.859303 0
vn -0.335529 0.94203 0
vn -0.241457 0.970411 0
vn -0.0491279 0.998792 0
vn 0.049129 0.998792 0
vn 0.241458 0.970411 0
vn 0.33553 0.94203 0
vn 0.511473 0.859299 0
vn 0.593344 0.804949 0
vn 0.737884 0.674927 0
vn 0.800556 0.599258 0
vn 0.901382 0.433025 0
vn 0.939533 0.342459 0
vn 0.988042 0.154187 0
vn 0.998404 0.0564817 0
vn 0.999629 -0.0272258 0
vn 0.999907 -0.0136129 0
vn 0 1 0
vn -0.0175848 0.999845 0
vn -0.0351697 0.999381 0
vn 0.0453046 0.998973 0
vn 0.143862 0.989598 0
vn 0.333987 0.942578 0
vn 0.425555 0.904933 0
vn 0.593763 0.80464 0
vn 0.670405 0.741995 0
vn 0.802155 0.597116 0
vn 0.857261 0.514882 0
vn 0.941172 0.337929 0
vn 0.969974 0.243209 0
vn 0.998774 0.0494966 0
vn 0.998774 -0.0494966 0
vn 0.969974 -0.243209 0
vn 0.941172 -0.337929 0
vn 0.857261 -0.514882 0
vn 0.802155 -0.597116 0
vn 0.670405 -0.741995 0
vn 0.593763 -0.80464 0
vn 0.425555 -0.904933 0
vn 0.333987 -0.942578 0
vn 0.143862 -0.989598 0
vn 0.0453046 -0.998973 0
vn -0.0351697 -0.999381 0
vn -0.0175848 -0.999845 0
vn 0.999907 0.0136125 0
vn 0.999629 0.027225 0
vn 0.998404 -0.0564819 0
vn 0.988042 -0.154186 0
vn 0.939531 -0.342464 0
vn 0.901377 -0.433036 0
vn 0.800549 -0.599268 0
vn 0.737881 -0.67493 0
vn 0.593345 -0.804948 0
vn 0.511472 -0.8593 0
vn 0.335539 -0.942026 0
vn 0.241481 -0.970406 0
vn 0.0491414 -0.998792 0
vn -0.0491403 -0.998792 0
vn -0.24148 -0.970406 0
vn -0.335539 -0.942026 0
vn -0.511467 -0.859303 0
vn -0.593334 -0.804956 0
vn -0.737878 -0.674934 0
vn -0.800555 -0.599259 0
vn -0.90138 -0.433029 0
vn -0.939527 -0.342474 0
vn -0.988039 -0.154205 0
vn -0.998403 -0.0564914 0
vn -0.999629 0.027225 0
vn -0.999907 0.0136125 0
vn 0.0175847 -0.999845 0
vn 0.0351694 -0.999381 0
vn -0.0453078 -0.998973 0
vn -0.143868 -0.989597 0
vn -0.333988 -0.942577 0
vn -0.425548 -0.904936 0
vn -0.593755 -0.804646 0
vn -0.670402 -0.741998 0
vn -0.80216 -0.597109 0
vn -0.85727 -0.514867 0
vn -0.941174 -0.337921 0
vn -0.969971 -0.24322 0
vn -0.998774 -0.0495064 0
vn -0.998774 0.0495064 0
vn -0.969971 0.24322 0
vn -0.941174 0.337921 0
vn -0.85727 0.514867 0
vn -0.80216 0.597109 0
vn -0.670402 0.741998 0
vn -0.593755 0.804646 0
vn -0.425546 0.904937 0
vn -0.333982 0.942579 0
vn -0.143861 0.989598 0
vn -0.0453035 0.998973 0
vn 0.0351707 0.999381 0
vn 0.0175854 0.999845 0
vt 0.070251 0.456312
vt 0.062372 0.467257
vt 0.073525 0.443229
vt 0.051004 0.474514
vt 0.037758 0.477052
vt 0.024513 0.474514
vt 0.013145 0.467257
vt 0.005266 0.456312
vt 0.001992 0.443229
vt 0.073525 0.039701
vt 0.002763 0.03005
vt 0.006091 0.020958
vt 0.001992 0.039701
vt 0.011731 0.013089
vt 0.019273 0.007019
vt 0.028165 0.003189
vt 0.037758 0.001881
vt 0.047351 0.003189
vt 0.056243 0.007019
vt 0.063785 0.013089
vt 0.069426 0.020958
vt 0.072753 0.03005
vt 0.360905 0.424151
vt 0.360905 0.437234
vt 0.158103 0.424151
vt 0.158103 0.437234
vt 0.215861 0.683845
vt 0.207982 0.683845
vt 0.215861 0.481044
vt 0.207982 0.481044
vt 0.196614 0.683845
vt 0.196614 0.481044
vt 0.183369 0.683845
vt 0.183369 0.481044
vt 0.170124 0.683845
vt 0.170124 0.481044
vt 0.158756 0.683845
vt 0.158756 0.481044
vt 0.150876 0.683845
vt 0.150876 0.481044
vt 0.36859 0.437234
vt 0.36859 0.424151
vt 0.571392 0.437234
vt 0.571392 0.424151
vt 0.36859 0.020624
vt 0.571392 0.020624
vt 0.36859 0.010973
vt 0.571392 0.010973
vt 0.36859 0.001881
vt 0.571392 0.001881
vt 0.081406 0.481044
vt 0.087046 0.481044
vt 0.081406 0.683845
vt 0.087046 0.683845
vt 0.094588 0.481044
vt 0.094588 0.683845
vt 0.103481 0.481044
vt 0.103481 0.683845
vt 0.113073 0.481044
vt 0.113073 0.683845
vt 0.122666 0.481044
vt 0.122666 0.683845
vt 0.131559 0.481044
vt 0.131559 0.683845
vt 0.1391 0.481044
vt 0.1391 0.683845
vt 0.144741 0.481044
vt 0.144741 0.683845
vt 0.360905 0.001881
vt 0.360905 0.010973
vt 0.158103 0.001881
vt 0.158103 0.010973
vt 0.360905 0.020624
vt 0.158103 0.020624
vt 0.148404 0.456312
vt 0.140524 0.467257
vt 0.151677 0.443229
vt 0.129157 0.474514
vt 0.115911 0.477052
vt 0.102666 0.474514
vt 0.091298 0.467257
vt 0.083419 0.456312
vt 0.080145 0.443229
vt 0.151677 0.039701
vt 0.080916 0.03005
vt 0.084244 0.020958
vt 0.080145 0.039701
vt 0.089884 0.013089
vt 0.097426 0.007019
vt 0.106318 0.003189
vt 0.115911 0.001881
vt 0.125504 0.003189
vt 0.134396 0.007019
vt 0.141938 0.013089
vt 0.147579 0.020958
vt 0.150906 0.03005
vt 0.647336 0.383329
vt 0.639456 0.394274
vt 0.650609 0.370246
vt 0.628089 0.40153
vt 0.614843 0.404069
vt 0.601598 0.40153
vt 0.59023 0.394274
vt 0.582351 0.383329
vt 0.579077 0.370246
vt 0.650609 0.039701
vt 0.579848 0.03005
vt 0.583175 0.020958
vt 0.579077 0.039701
vt 0.588816 0.013089
vt 0.596358 0.007018
vt 0.60525 0.003189
vt 0.614843 0.001881
vt 0.624436 0.003189
vt 0.633328 0.007018
vt 0.64087 0.013089
vt 0.646511 0.020958
vt 0.649838 0.03005
vt 0.937795 0.351168
vt 0.937795 0.364251
vt 0.734993 0.351168
vt 0.734993 0.364251
vt 0.07527 0.683845
vt 0.067391 0.683845
vt 0.07527 0.481044
vt 0.067391 0.481044
vt 0.056023 0.683845
vt 0.056023 0.481044
vt 0.042778 0.683845
vt 0.042778 0.481044
vt 0.029533 0.683845
vt 0.029533 0.481044
vt 0.018165 0.683845
vt 0.018165 0.481044
vt 0.010286 0.683845
vt 0.010286 0.481044
vt 0.795206 0.730613
vt 0.795206 0.71753
vt 0.998008 0.730613
vt 0.998008 0.71753
vt 0.795206 0.386986
vt 0.998008 0.386986
vt 0.795206 0.377335
vt 0.998008 0.377335
vt 0.795206 0.368243
vt 0.998008 0.368243
vt 0.001992 0.687837
vt 0.007633 0.687837
vt 0.001992 0.890639
vt 0.007633 0.890639
vt 0.015175 0.687837
vt 0.015175 0.890639
vt 0.024067 0.687837
vt 0.024067 0.890639
vt 0.03366 0.687837
vt 0.03366 0.890639
vt 0.043253 0.687837
vt 0.043253 0.890639
vt 0.052145 0.687837
vt 0.052145 0.890639
vt 0.059687 0.687837
vt 0.059687 0.890639
vt 0.065327 0.687837
vt 0.065327 0.890639
vt 0.937795 0.001881
vt 0.937795 0.010973
vt 0.734993 0.001881
vt 0.734993 0.010973
vt 0.937795 0.020624
vt 0.734993 0.020624
vt 0.725294 0.383329
vt 0.717414 0.394274
vt 0.728567 0.370246
vt 0.706047 0.40153
vt 0.692801 0.404069
vt 0.679556 0.40153
vt 0.668188 0.394274
vt 0.660309 0.383329
vt 0.657035 0.370246
vt 0.728567 0.039701
vt 0.657806 0.03005
vt 0.661134 0.020958
vt 0.657035 0.039701
vt 0.666774 0.013089
vt 0.674316 0.007018
vt 0.683208 0.003189
vt 0.692801 0.001881
vt 0.702394 0.003189
vt 0.711286 0.007018
vt 0.718828 0.013089
vt 0.724469 0.020958
vt 0.727796 0.03005
vt 0.720812 0.428801
vt 0.728692 0.417856
vt 0.717539 0.441884
vt 0.740059 0.410599
vt 0.753305 0.408061
vt 0.76655 0.410599
vt 0.777918 0.417856
vt 0.785797 0.428801
vt 0.789071 0.441884
vt 0.717539 0.697548
vt 0.7883 0.707199
vt 0.784972 0.716291
vt 0.789071 0.697548
vt 0.779332 0.72416
vt 0.77179 0.730231
vt 0.762898 0.73406
vt 0.753305 0.735369
vt 0.743712 0.73406
vt 0.73482 0.730231
vt 0.727278 0.72416
vt 0.721637 0.716291
vt 0.71831 0.707199
vt 0.633735 0.709973
vt 0.633735 0.719624
vt 0.430934 0.709973
vt 0.430934 0.719624
vt 0.633735 0.728716
vt 0.430934 0.728716
vt 0.135685 0.890639
vt 0.130044 0.890639
vt 0.135685 0.687837
vt 0.130044 0.687837
vt 0.122502 0.890639
vt 0.122502 0.687837
vt 0.11361 0.890639
vt 0.11361 0.687837
vt 0.104017 0.890639
vt 0.104017 0.687837
vt 0.094424 0.890639
vt 0.094424 0.687837
vt 0.085532 0.890639
vt 0.085532 0.687837
vt 0.07799 0.890639
vt 0.07799 0.687837
vt 0.072349 0.890639
vt 0.072349 0.687837
vt 0.221997 0.728716
vt 0.221997 0.719624
vt 0.424798 0.728716
vt 0.424798 0.719624
vt 0.221997 0.709973
vt 0.424798 0.709973
vt 0.221997 0.454309
vt 0.424798 0.454309
vt 0.221997 0.441226
vt 0.424798 0.441226
vt 0.142512 0.687837
vt 0.150391 0.687837
vt 0.142512 0.890639
vt 0.150391 0.890639
vt 0.161759 0.687837
vt 0.161759 0.890639
vt 0.175004 0.687837
vt 0.175004 0.890639
vt 0.188249 0.687837
vt 0.188249 0.890639
vt 0.199617 0.687837
vt 0.199617 0.890639
vt 0.207496 0.687837
vt 0.207496 0.890639
vt 0.633735 0.441226
vt 0.633735 0.454309
vt 0.430934 0.441226
vt 0.430934 0.454309
vt 0.643144 0.428801
vt 0.651024 0.417856
vt 0.639871 0.441884
vt 0.662392 0.410599
vt 0.675637 0.408061
vt 0.688882 0.410599
vt 0.70025 0.417856
vt 0.708129 0.428801
vt 0.711403 0.441884
vt 0.639871 0.697548
vt 0.710632 0.707199
vt 0.707305 0.716291
vt 0.711403 0.697548
vt 0.701664 0.72416
vt 0.694122 0.730231
vt 0.68523 0.73406
vt 0.675637 0.735369
vt 0.666044 0.73406
vt 0.657152 0.730231
vt 0.64961 0.72416
vt 0.643969 0.716291
vt 0.640642 0.707199
vt 0.736276 0.940006
vt 0.725335 0.937791
vt 0.747251 0.937823
vt 0.716068 0.931566
vt 0.70988 0.922275
vt 0.707708 0.911326
vt 0.756556 0.931605
vt 0.762773 0.922301
vt 0.764956 0.911326
vt 0.707708 0.766252
vt 0.710377 0.755838
vt 0.716694 0.747138
vt 0.725771 0.741376
vt 0.736332 0.73936
vt 0.746893 0.741376
vt 0.755969 0.747138
vt 0.762286 0.755838
vt 0.764956 0.766252
vt 0.214623 0.732708
vt 0.22084 0.732708
vt 0.214623 0.935509
vt 0.22084 0.935509
vt 0.230144 0.732708
vt 0.230144 0.935509
vt 0.241119 0.732708
vt 0.241119 0.935509
vt 0.386193 0.732708
vt 0.386193 0.935509
vt 0.396608 0.732708
vt 0.396608 0.935509
vt 0.405307 0.732708
vt 0.405307 0.935509
vt 0.41107 0.732708
vt 0.41107 0.935509
vt 0.438435 0.935509
vt 0.427875 0.935509
vt 0.438435 0.732707
vt 0.427875 0.732707
vt 0.417314 0.935509
vt 0.417314 0.732707
vt 0.641014 0.942162
vt 0.635252 0.942162
vt 0.641014 0.73936
vt 0.635252 0.73936
vt 0.626552 0.942162
vt 0.626552 0.73936
vt 0.616138 0.942162
vt 0.616138 0.73936
vt 0.471064 0.942162
vt 0.471064 0.73936
vt 0.460114 0.942162
vt 0.460114 0.73936
vt 0.450824 0.942162
vt 0.450824 0.73936
vt 0.444599 0.942162
vt 0.444599 0.73936
vt 0.64729 0.73936
vt 0.658231 0.73936
vt 0.64729 0.942162
vt 0.658231 0.942162
vt 0.669207 0.73936
vt 0.669207 0.942162
vt 0.811567 0.741543
vt 0.820871 0.747761
vt 0.800592 0.73936
vt 0.827088 0.757065
vt 0.829272 0.76804
vt 0.78965 0.741575
vt 0.780384 0.7478
vt 0.774196 0.757091
vt 0.772023 0.76804
vt 0.829272 0.913114
vt 0.826602 0.923528
vt 0.820285 0.932228
vt 0.811208 0.93799
vt 0.800647 0.940006
vt 0.790087 0.93799
vt 0.78101 0.932228
vt 0.774693 0.923528
vt 0.772023 0.913114
vt 0.840408 0.897438
vt 0.836339 0.887045
vt 0.848136 0.90549
vt 0.836544 0.875886
vt 0.840994 0.865651
vt 0.851863 0.907703
vt 0.855885 0.909318
vt 0.860107 0.9103
vt 0.864429 0.910623
vt 0.871269 0.909812
vt 0.877715 0.907388
vt 0.883394 0.903491
vt 0.887976 0.898348
vt 0.923909 0.746802
vt 0.928927 0.741277
vt 0.935203 0.737239
vt 0.94231 0.734963
vt 0.949765 0.734605
vt 0.957058 0.736187
vt 0.963693 0.739604
vt 0.969218 0.744621
vt 0.973255 0.750898
vt 0.975531 0.758005
vt 0.97589 0.765459
vt 0.974307 0.772753
vt 0.970891 0.779388
vt 0.676525 0.73936
vt 0.680252 0.73936
vt 0.676525 0.942162
vt 0.680252 0.942162
vt 0.684273 0.73936
vt 0.684273 0.942162
vt 0.688495 0.73936
vt 0.688495 0.942162
vt 0.692817 0.73936
vt 0.692817 0.942162
vt 0.699657 0.73936
vt 0.699657 0.942162
mtllib Energieeffizienzberatung.mtl
usemtl svgBlinn3SG
f 8/1/1 7/2/1 9/3/1
f 7/2/1 6/4/1 9/3/1
f 6/4/1 5/5/1 9/3/1
f 5/5/1 4/6/1 9/3/1
f 4/6/1 3/7/1 9/3/1
f 3/7/1 2/8/1 9/3/1
f 2/8/1 1/9/1 9/3/1
f 9/3/1 1/9/1 10/10/1
f 21/11/1 20/12/1 22/13/1
f 20/12/1 19/14/1 22/13/1
f 19/14/1 18/15/1 22/13/1
f 18/15/1 17/16/1 22/13/1
f 17/16/1 16/17/1 22/13/1
f 16/17/1 15/18/1 22/13/1
f 15/18/1 14/19/1 22/13/1
f 14/19/1 13/20/1 22/13/1
f 13/20/1 12/21/1 22/13/1
f 12/21/1 11/22/1 22/13/1
f 11/22/1 10/10/1 22/13/1
f 22/13/1 10/10/1 1/9/1
f 1/23/2 2/24/3 356/25/4
f 356/25/4 2/24/3 357/26/5
f 2/27/3 3/28/6 357/29/5
f 357/29/5 3/28/6 358/30/7
f 3/28/6 4/31/8 358/30/7
f 358/30/7 4/31/8 359/32/9
f 4/31/8 5/33/10 359/32/9
f 359/32/9 5/33/10 360/34/11
f 5/33/10 6/35/12 360/34/11
f 360/34/11 6/35/12 361/36/13
f 6/35/12 7/37/14 361/36/13
f 361/36/13 7/37/14 362/38/15
f 7/37/14 8/39/16 362/38/15
f 362/38/15 8/39/16 363/40/17
f 8/41/16 9/42/18 363/43/17
f 363/43/17 9/42/18 364/44/19
f 9/42/18 10/45/20 364/44/19
f 364/44/19 10/45/20 365/46/21
f 10/45/20 11/47/22 365/46/21
f 365/46/21 11/47/22 366/48/23
f 11/47/22 12/49/24 366/48/23
f 366/48/23 12/49/24 367/50/25
f 12/51/24 13/52/26 367/53/25
f 367/53/25 13/52/26 368/54/27
f 13/52/26 14/55/28 368/54/27
f 368/54/27 14/55/28 369/56/29
f 14/55/28 15/57/30 369/56/29
f 369/56/29 15/57/30 370/58/31
f 15/57/30 16/59/32 370/58/31
f 370/58/31 16/59/32 371/60/33
f 16/59/32 17/61/34 371/60/33
f 371/60/33 17/61/34 372/62/35
f 17/61/34 18/63/36 372/62/35
f 372/62/35 18/63/36 373/64/37
f 18/63/36 19/65/38 373/64/37
f 373/64/37 19/65/38 374/66/39
f 19/65/38 20/67/40 374/66/39
f 374/66/39 20/67/40 375/68/41
f 20/69/40 21/70/42 375/71/41
f 375/71/41 21/70/42 376/72/43
f 21/70/42 22/73/44 376/72/43
f 376/72/43 22/73/44 377/74/45
f 22/73/44 1/23/2 377/74/45
f 377/74/45 1/23/2 356/25/4
f 357/75/46 358/76/46 356/77/46
f 358/76/46 359/78/46 356/77/46
f 359/78/46 360/79/46 356/77/46
f 360/79/46 361/80/46 356/77/46
f 361/80/46 362/81/46 356/77/46
f 362/81/46 363/82/46 356/77/46
f 363/82/46 364/83/46 356/77/46
f 356/77/46 364/83/46 377/84/46
f 366/85/46 367/86/46 365/87/46
f 367/86/46 368/88/46 365/87/46
f 368/88/46 369/89/46 365/87/46
f 369/89/46 370/90/46 365/87/46
f 370/90/46 371/91/46 365/87/46
f 371/91/46 372/92/46 365/87/46
f 372/92/46 373/93/46 365/87/46
f 373/93/46 374/94/46 365/87/46
f 374/94/46 375/95/46 365/87/46
f 375/95/46 376/96/46 365/87/46
f 376/96/46 377/84/46 365/87/46
f 364/83/46 365/87/46 377/84/46
f 30/97/1 29/98/1 31/99/1
f 29/98/1 28/100/1 31/99/1
f 28/100/1 27/101/1 31/99/1
f 27/101/1 26/102/1 31/99/1
f 26/102/1 25/103/1 31/99/1
f 25/103/1 24/104/1 31/99/1
f 24/104/1 23/105/1 31/99/1
f 31/99/1 23/105/1 32/106/1
f 43/107/1 42/108/1 44/109/1
f 42/108/1 41/110/1 44/109/1
f 41/110/1 40/111/1 44/109/1
f 40/111/1 39/112/1 44/109/1
f 39/112/1 38/113/1 44/109/1
f 38/113/1 37/114/1 44/109/1
f 37/114/1 36/115/1 44/109/1
f 36/115/1 35/116/1 44/109/1
f 35/116/1 34/117/1 44/109/1
f 34/117/1 33/118/1 44/109/1
f 33/118/1 32/106/1 44/109/1
f 44/109/1 32/106/1 23/105/1
f 23/119/47 24/120/48 378/121/49
f 378/121/49 24/120/48 379/122/50
f 24/123/48 25/124/51 379/125/50
f 379/125/50 25/124/51 380/126/52
f 25/124/51 26/127/53 380/126/52
f 380/126/52 26/127/53 381/128/54
f 26/127/53 27/129/55 381/128/54
f 381/128/54 27/129/55 382/130/56
f 27/129/55 28/131/57 382/130/56
f 382/130/56 28/131/57 383/132/58
f 28/131/57 29/133/59 383/132/58
f 383/132/58 29/133/59 384/134/60
f 29/133/59 30/135/61 384/134/60
f 384/134/60 30/135/61 385/136/62
f 30/137/61 31/138/63 385/139/62
f 385/139/62 31/138/63 386/140/64
f 31/138/63 32/141/65 386/140/64
f 386/140/64 32/141/65 387/142/66
f 32/141/65 33/143/67 387/142/66
f 387/142/66 33/143/67 388/144/68
f 33/143/67 34/145/69 388/144/68
f 388/144/68 34/145/69 389/146/70
f 34/147/69 35/148/71 389/149/70
f 389/149/70 35/148/71 390/150/72
f 35/148/71 36/151/73 390/150/72
f 390/150/72 36/151/73 391/152/74
f 36/151/73 37/153/75 391/152/74
f 391/152/74 37/153/75 392/154/76
f 37/153/75 38/155/77 392/154/76
f 392/154/76 38/155/77 393/156/78
f 38/155/77 39/157/79 393/156/78
f 393/156/78 39/157/79 394/158/80
f 39/157/79 40/159/81 394/158/80
f 394/158/80 40/159/81 395/160/82
f 40/159/81 41/161/83 395/160/82
f 395/160/82 41/161/83 396/162/84
f 41/161/83 42/163/85 396/162/84
f 396/162/84 42/163/85 397/164/86
f 42/165/85 43/166/87 397/167/86
f 397/167/86 43/166/87 398/168/88
f 43/166/87 44/169/89 398/168/88
f 398/168/88 44/169/89 399/170/90
f 44/169/89 23/119/47 399/170/90
f 399/170/90 23/119/47 378/121/49
f 379/171/46 380/172/46 378/173/46
f 380/172/46 381/174/46 378/173/46
f 381/174/46 382/175/46 378/173/46
f 382/175/46 383/176/46 378/173/46
f 383/176/46 384/177/46 378/173/46
f 384/177/46 385/178/46 378/173/46
f 385/178/46 386/179/46 378/173/46
f 378/173/46 386/179/46 399/180/46
f 388/181/46 389/182/46 387/183/46
f 389/182/46 390/184/46 387/183/46
f 390/184/46 391/185/46 387/183/46
f 391/185/46 392/186/46 387/183/46
f 392/186/46 393/187/46 387/183/46
f 393/187/46 394/188/46 387/183/46
f 394/188/46 395/189/46 387/183/46
f 395/189/46 396/190/46 387/183/46
f 396/190/46 397/191/46 387/183/46
f 397/191/46 398/192/46 387/183/46
f 398/192/46 399/180/46 387/183/46
f 386/179/46 387/183/46 399/180/46
f 65/193/1 64/194/1 66/195/1
f 64/194/1 63/196/1 66/195/1
f 63/196/1 62/197/1 66/195/1
f 62/197/1 61/198/1 66/195/1
f 61/198/1 60/199/1 66/195/1
f 60/199/1 59/200/1 66/195/1
f 59/200/1 58/201/1 66/195/1
f 66/195/1 58/201/1 45/202/1
f 56/203/1 55/204/1 57/205/1
f 55/204/1 54/206/1 57/205/1
f 54/206/1 53/207/1 57/205/1
f 53/207/1 52/208/1 57/205/1
f 52/208/1 51/209/1 57/205/1
f 51/209/1 50/210/1 57/205/1
f 50/210/1 49/211/1 57/205/1
f 49/211/1 48/212/1 57/205/1
f 48/212/1 47/213/1 57/205/1
f 47/213/1 46/214/1 57/205/1
f 46/214/1 45/202/1 57/205/1
f 58/201/1 57/205/1 45/202/1
f 45/215/91 46/216/92 400/217/93
f 400/217/93 46/216/92 401/218/94
f 46/216/92 47/219/95 401/218/94
f 401/218/94 47/219/95 402/220/96
f 47/221/95 48/222/97 402/223/96
f 402/223/96 48/222/97 403/224/98
f 48/222/97 49/225/99 403/224/98
f 403/224/98 49/225/99 404/226/100
f 49/225/99 50/227/101 404/226/100
f 404/226/100 50/227/101 405/228/102
f 50/227/101 51/229/103 405/228/102
f 405/228/102 51/229/103 406/230/104
f 51/229/103 52/231/105 406/230/104
f 406/230/104 52/231/105 407/232/106
f 52/231/105 53/233/107 407/232/106
f 407/232/106 53/233/107 408/234/108
f 53/233/107 54/235/109 408/234/108
f 408/234/108 54/235/109 409/236/110
f 54/235/109 55/237/111 409/236/110
f 409/236/110 55/237/111 410/238/112
f 55/239/111 56/240/113 410/241/112
f 410/241/112 56/240/113 411/242/114
f 56/240/113 57/243/115 411/242/114
f 411/242/114 57/243/115 412/244/116
f 57/243/115 58/245/117 412/244/116
f 412/244/116 58/245/117 413/246/118
f 58/245/117 59/247/119 413/246/118
f 413/246/118 59/247/119 414/248/120
f 59/249/119 60/250/121 414/251/120
f 414/251/120 60/250/121 415/252/122
f 60/250/121 61/253/123 415/252/122
f 415/252/122 61/253/123 416/254/124
f 61/253/123 62/255/125 416/254/124
f 416/254/124 62/255/125 417/256/126
f 62/255/125 63/257/127 417/256/126
f 417/256/126 63/257/127 418/258/128
f 63/257/127 64/259/129 418/258/128
f 418/258/128 64/259/129 419/260/130
f 64/259/129 65/261/131 419/260/130
f 419/260/130 65/261/131 420/262/132
f 65/263/131 66/264/133 420/265/132
f 420/265/132 66/264/133 421/266/134
f 66/264/133 45/215/91 421/266/134
f 421/266/134 45/215/91 400/217/93
f 414/267/46 415/268/46 413/269/46
f 415/268/46 416/270/46 413/269/46
f 416/270/46 417/271/46 413/269/46
f 417/271/46 418/272/46 413/269/46
f 418/272/46 419/273/46 413/269/46
f 419/273/46 420/274/46 413/269/46
f 420/274/46 421/275/46 413/269/46
f 413/269/46 421/275/46 412/276/46
f 401/277/46 402/278/46 400/279/46
f 402/278/46 403/280/46 400/279/46
f 403/280/46 404/281/46 400/279/46
f 404/281/46 405/282/46 400/279/46
f 405/282/46 406/283/46 400/279/46
f 406/283/46 407/284/46 400/279/46
f 407/284/46 408/285/46 400/279/46
f 408/285/46 409/286/46 400/279/46
f 409/286/46 410/287/46 400/279/46
f 410/287/46 411/288/46 400/279/46
f 411/288/46 412/276/46 400/279/46
f 400/279/46 412/276/46 421/275/46
f 84/289/1 83/290/1 67/291/1
f 83/290/1 82/292/1 67/291/1
f 82/292/1 81/293/1 67/291/1
f 81/293/1 80/294/1 67/291/1
f 67/291/1 80/294/1 68/295/1
f 68/295/1 80/294/1 69/296/1
f 69/296/1 80/294/1 70/297/1
f 80/294/1 79/298/1 70/297/1
f 79/298/1 78/299/1 70/297/1
f 78/299/1 77/300/1 70/297/1
f 77/300/1 76/301/1 70/297/1
f 76/301/1 75/302/1 70/297/1
f 75/302/1 74/303/1 70/297/1
f 74/303/1 73/304/1 70/297/1
f 73/304/1 72/305/1 70/297/1
f 72/305/1 71/306/1 70/297/1
f 67/307/135 68/308/136 422/309/137
f 422/309/137 68/308/136 423/310/138
f 68/308/136 69/311/139 423/310/138
f 423/310/138 69/311/139 424/312/140
f 69/311/139 70/313/141 424/312/140
f 424/312/140 70/313/141 425/314/142
f 70/313/141 71/315/143 425/314/142
f 425/314/142 71/315/143 426/316/144
f 71/315/143 72/317/145 426/316/144
f 426/316/144 72/317/145 427/318/146
f 72/317/145 73/319/147 427/318/146
f 427/318/146 73/319/147 428/320/148
f 73/319/147 74/321/149 428/320/148
f 428/320/148 74/321/149 429/322/150
f 74/323/149 75/324/151 429/325/150
f 429/325/150 75/324/151 430/326/152
f 75/324/151 76/327/153 430/326/152
f 430/326/152 76/327/153 431/328/154
f 76/329/153 77/330/155 431/331/154
f 431/331/154 77/330/155 432/332/156
f 77/330/155 78/333/157 432/332/156
f 432/332/156 78/333/157 433/334/158
f 78/333/157 79/335/159 433/334/158
f 433/334/158 79/335/159 434/336/160
f 79/335/159 80/337/161 434/336/160
f 434/336/160 80/337/161 435/338/162
f 80/337/161 81/339/163 435/338/162
f 435/338/162 81/339/163 436/340/164
f 81/339/163 82/341/165 436/340/164
f 436/340/164 82/341/165 437/342/166
f 82/341/165 83/343/167 437/342/166
f 437/342/166 83/343/167 438/344/168
f 83/345/167 84/346/169 438/347/168
f 438/347/168 84/346/169 439/348/170
f 84/346/169 67/349/135 439/348/170
f 439/348/170 67/349/135 422/350/137
f 422/351/46 423/352/46 439/353/46
f 423/352/46 424/354/46 439/353/46
f 424/354/46 425/355/46 439/353/46
f 439/353/46 425/355/46 438/356/46
f 438/356/46 425/355/46 437/357/46
f 437/357/46 425/355/46 436/358/46
f 436/358/46 425/355/46 435/359/46
f 425/355/46 426/360/46 435/359/46
f 426/360/46 427/361/46 435/359/46
f 427/361/46 428/362/46 435/359/46
f 428/362/46 429/363/46 435/359/46
f 429/363/46 430/364/46 435/359/46
f 430/364/46 431/365/46 435/359/46
f 431/365/46 432/366/46 435/359/46
f 432/366/46 433/367/46 435/359/46
f 433/367/46 434/368/46 435/359/46
f 110/369/1 109/370/1 85/371/1
f 109/370/1 108/372/1 85/371/1
f 108/372/1 107/373/1 85/371/1
f 85/371/1 107/373/1 86/374/1
f 86/374/1 107/373/1 87/375/1
f 87/375/1 107/373/1 88/376/1
f 88/376/1 107/373/1 89/377/1
f 89/377/1 107/373/1 90/378/1
f 90/378/1 107/373/1 91/379/1
f 91/379/1 107/373/1 92/380/1
f 92/380/1 107/373/1 93/381/1
f 107/373/1 106/382/1 93/381/1
f 106/382/1 105/383/1 93/381/1
f 105/383/1 104/384/1 93/381/1
f 104/384/1 103/385/1 93/381/1
f 103/385/1 102/386/1 93/381/1
f 102/386/1 101/387/1 93/381/1
f 101/387/1 100/388/1 93/381/1
f 100/388/1 99/389/1 93/381/1
f 99/389/1 98/390/1 93/381/1
f 98/390/1 97/391/1 93/381/1
f 97/391/1 96/392/1 93/381/1
f 96/392/1 95/393/1 93/381/1
f 95/393/1 94/394/1 93/381/1
f 85/395/171 86/396/172 440/397/173
f 440/397/173 86/396/172 441/398/174
f 86/396/172 87/399/175 441/398/174
f 441/398/174 87/399/175 442/400/176
f 87/399/175 88/401/177 442/400/176
f 442/400/176 88/401/177 443/402/178
f 88/401/177 89/403/179 443/402/178
f 443/402/178 89/403/179 444/404/180
f 89/403/179 90/405/181 444/404/180
f 444/404/180 90/405/181 445/406/182
f 90/378/181 91/379/183 445/406/182
f 445/406/182 91/379/183 446//184
f 91/379/183 92/380/185 446//184
f 446//184 92/380/185 447//186
f 92/380/185 93/381/187 447//186
f 447//186 93/381/187 448//188
f 93/381/187 94/394/189 448//188
f 448//188 94/394/189 449//190
f 94/394/189 95/393/191 449//190
f 449//190 95/393/191 450//192
f 95/393/191 96/392/193 450//192
f 450//192 96/392/193 451//194
f 96/392/193 97/391/195 451//194
f 451//194 97/391/195 452//196
f 97/391/195 98/390/197 452//196
f 452//196 98/390/197 453//198
f 98/390/197 99/389/199 453//198
f 453//198 99/389/199 454//200
f 99/389/199 100/388/201 454//200
f 454//200 100/388/201 455//202
f 100/388/201 101/387/203 455//202
f 455//202 101/387/203 456//204
f 101/387/203 102/386/205 456//204
f 456//204 102/386/205 457//206
f 102/386/205 103/385/207 457//206
f 457//206 103/385/207 458//208
f 103/385/207 104/384/209 458//208
f 458//208 104/384/209 459//210
f 104/384/209 105/383/211 459//210
f 459//210 105/383/211 460//212
f 105/383/211 106/382/213 460//212
f 460//212 106/382/213 461//214
f 106/382/213 107/373/215 461//214
f 461//214 107/373/215 462//216
f 107/373/215 108/372/217 462//216
f 462//216 108/372/217 463//218
f 108/372/217 109/370/219 463//218
f 463//218 109/370/219 464//220
f 109/370/219 110/369/221 464//220
f 464//220 110/369/221 465//222
f 110/369/221 85/371/171 465//222
f 465//222 85/371/171 440/397/173
f 463//46 464//46 462//46
f 464//46 465//46 462//46
f 465//46 440/397/46 462//46
f 440/397/46 441/398/46 462//46
f 441/398/46 442/400/46 462//46
f 442/400/46 443/402/46 462//46
f 443/402/46 444/404/46 462//46
f 444/404/46 445/406/46 462//46
f 445/406/46 446//46 462//46
f 446//46 447//46 462//46
f 447//46 448//46 462//46
f 462//46 448//46 461//46
f 461//46 448//46 460//46
f 460//46 448//46 459//46
f 459//46 448//46 458//46
f 458//46 448//46 457//46
f 457//46 448//46 456//46
f 456//46 448//46 455//46
f 455//46 448//46 454//46
f 454//46 448//46 453//46
f 453//46 448//46 452//46
f 452//46 448//46 451//46
f 451//46 448//46 450//46
f 448//46 449//46 450//46
f 118//1 117//1 119//1
f 117//1 116//1 119//1
f 116//1 115//1 119//1
f 115//1 114//1 119//1
f 114//1 113//1 119//1
f 113//1 112//1 119//1
f 112//1 111//1 119//1
f 119//1 111//1 120//1
f 120//1 111//1 121//1
f 121//1 111//1 122//1
f 122//1 111//1 123//1
f 123//1 111//1 124//1
f 124//1 111//1 125//1
f 125//1 111//1 126//1
f 126//1 111//1 127//1
f 127//1 111//1 128//1
f 128//1 111//1 129//1
f 129//1 111//1 130//1
f 131//1 130//1 132//1
f 132//1 130//1 111//1
f 111//223 112//224 466//225
f 466//225 112//224 467//226
f 112//224 113//227 467//226
f 467//226 113//227 468//228
f 113//227 114//229 468//228
f 468//228 114//229 469//230
f 114//229 115//231 469//230
f 469//230 115//231 470//232
f 115//231 116//233 470//232
f 470//232 116//233 471//234
f 116//233 117//235 471//234
f 471//234 117//235 472//236
f 117//235 118//237 472//236
f 472//236 118//237 473//238
f 118//237 119//239 473//238
f 473//238 119//239 474//240
f 119//239 120//241 474//240
f 474//240 120//241 475//242
f 120//241 121//243 475//242
f 475//242 121//243 476//244
f 121//243 122//245 476//244
f 476//244 122//245 477//246
f 122//245 123//247 477//246
f 477//246 123//247 478//248
f 123//247 124//249 478//248
f 478//248 124//249 479//250
f 124//249 125//251 479//250
f 479//250 125//251 480//252
f 125//251 126//253 480//252
f 480//252 126//253 481//254
f 126//253 127//255 481//254
f 481//254 127//255 482//256
f 127//255 128//257 482//256
f 482//256 128//257 483//258
f 128//257 129//259 483//258
f 483//258 129//259 484//260
f 129//259 130//261 484//260
f 484//260 130//261 485//262
f 130//261 131//263 485//262
f 485//262 131//263 486//264
f 131//263 132//265 486//264
f 486//264 132//265 487//266
f 132//265 111//223 487//266
f 487//266 111//223 466//225
f 467//46 468//46 466//46
f 468//46 469//46 466//46
f 469//46 470//46 466//46
f 470//46 471//46 466//46
f 471//46 472//46 466//46
f 472//46 473//46 466//46
f 473//46 474//46 466//46
f 474//46 475//46 466//46
f 475//46 476//46 466//46
f 476//46 477//46 466//46
f 477//46 478//46 466//46
f 478//46 479//46 466//46
f 479//46 480//46 466//46
f 480//46 481//46 466//46
f 481//46 482//46 466//46
f 482//46 483//46 466//46
f 483//46 484//46 466//46
f 484//46 485//46 466//46
f 486//46 487//46 485//46
f 466//46 485//46 487//46
f 153//1 152//1 154//1
f 152//1 151//1 154//1
f 151//1 150//1 154//1
f 150//1 149//1 154//1
f 149//1 148//1 154//1
f 148//1 147//1 154//1
f 147//1 146//1 154//1
f 146//1 145//1 154//1
f 145//1 144//1 154//1
f 144//1 143//1 154//1
f 143//1 142//1 154//1
f 142//1 141//1 154//1
f 141//1 140//1 154//1
f 140//1 139//1 154//1
f 139//1 138//1 154//1
f 138//1 137//1 154//1
f 137//1 136//1 154//1
f 136//1 135//1 154//1
f 134//1 133//1 135//1
f 154//1 135//1 133//1
f 133//267 134//268 488//269
f 488//269 134//268 489//270
f 134//268 135//271 489//270
f 489//270 135//271 490//272
f 135//271 136//273 490//272
f 490//272 136//273 491//274
f 136//273 137//275 491//274
f 491//274 137//275 492//276
f 137//275 138//277 492//276
f 492//276 138//277 493//278
f 138//277 139//279 493//278
f 493//278 139//279 494//280
f 139//279 140//281 494//280
f 494//280 140//281 495//282
f 140//281 141//283 495//282
f 495//282 141//283 496//284
f 141//283 142//285 496//284
f 496//284 142//285 497//286
f 142//285 143//287 497//286
f 497//286 143//287 498//288
f 143//287 144//289 498//288
f 498//288 144//289 499//290
f 144//289 145//291 499//290
f 499//290 145//291 500//292
f 145//291 146//293 500//292
f 500//292 146//293 501//294
f 146//293 147//295 501//294
f 501//294 147//295 502//296
f 147//295 148//297 502//296
f 502//296 148//297 503//298
f 148//297 149//299 503//298
f 503//298 149//299 504//300
f 149//299 150//301 504//300
f 504//300 150//301 505//302
f 150//301 151//303 505//302
f 505//302 151//303 506//304
f 151//303 152//305 506//304
f 506//304 152//305 507//306
f 152//305 153//307 507//306
f 507//306 153//307 508//308
f 153//307 154//309 508//308
f 508//308 154//309 509//310
f 154//309 133//267 509//310
f 509//310 133//267 488//269
f 502//46 503//46 501//46
f 503//46 504//46 501//46
f 504//46 505//46 501//46
f 505//46 506//46 501//46
f 506//46 507//46 501//46
f 507//46 508//46 501//46
f 508//46 509//46 501//46
f 501//46 509//46 500//46
f 500//46 509//46 499//46
f 499//46 509//46 498//46
f 498//46 509//46 497//46
f 497//46 509//46 496//46
f 496//46 509//46 495//46
f 495//46 509//46 494//46
f 494//46 509//46 493//46
f 493//46 509//46 492//46
f 492//46 509//46 491//46
f 491//46 509//46 490//46
f 489//46 490//46 488//46
f 488//46 490//46 509//46
f 167//1 166//1 168//1
f 166//1 165//1 168//1
f 165//1 164//1 168//1
f 164//1 163//1 168//1
f 163//1 162//1 168//1
f 162//1 161//1 168//1
f 161//1 160//1 168//1
f 168//1 160//1 169//1
f 169//1 160//1 170//1
f 170//1 160//1 171//1
f 171//1 160//1 172//1
f 172//1 160//1 173//1
f 173//1 160//1 174//1
f 174//1 160//1 175//1
f 175//1 160//1 176//1
f 176//1 160//1 177//1
f 177//1 160//1 178//1
f 178//1 160//1 179//1
f 179//1 160//1 180//1
f 180//1 160//1 155//1
f 155//1 160//1 156//1
f 156//1 160//1 157//1
f 157//1 160//1 158//1
f 160//1 159//1 158//1
f 155//311 156//312 510//313
f 510//313 156//312 511//314
f 156//312 157//315 511//314
f 511//314 157//315 512//316
f 157//315 158//317 512//316
f 512//316 158//317 513//318
f 158//317 159//319 513//318
f 513//318 159//319 514//320
f 159//319 160//321 514//320
f 514//320 160//321 515//322
f 160//321 161//323 515//322
f 515//322 161//323 516//324
f 161//323 162//325 516//324
f 516//324 162//325 517//326
f 162//325 163//327 517//326
f 517//326 163//327 518//328
f 163//327 164//329 518//328
f 518//328 164//329 519//330
f 164//329 165//331 519//330
f 519//330 165//331 520//332
f 165//331 166//333 520//332
f 520//332 166//333 521//334
f 166//333 167//335 521//334
f 521//334 167//335 522//336
f 167//335 168//337 522//336
f 522//336 168//337 523//338
f 168//337 169//339 523//338
f 523//338 169//339 524//340
f 169//339 170//341 524//340
f 524//340 170//341 525//342
f 170//341 171//343 525//342
f 525//342 171//343 526//344
f 171//343 172//345 526//344
f 526//344 172//345 527//346
f 172//345 173//347 527//346
f 527//346 173//347 528//348
f 173//347 174//349 528//348
f 528//348 174//349 529//350
f 174//349 175//351 529//350
f 529//350 175//351 530//352
f 175//351 176//353 530//352
f 530//352 176//353 531//354
f 176//353 177//355 531//354
f 531//354 177//355 532//356
f 177//355 178//357 532//356
f 532//356 178//357 533//358
f 178//357 179//359 533//358
f 533//358 179//359 534//360
f 179//359 180//361 534//360
f 534//360 180//361 535//362
f 180//361 155//311 535//362
f 535//362 155//311 510//313
f 516//46 517//46 515//46
f 517//46 518//46 515//46
f 518//46 519//46 515//46
f 519//46 520//46 515//46
f 520//46 521//46 515//46
f 521//46 522//46 515//46
f 522//46 523//46 515//46
f 515//46 523//46 514//46
f 514//46 523//46 513//46
f 513//46 523//46 512//46
f 512//46 523//46 511//46
f 511//46 523//46 510//46
f 510//46 523//46 535//46
f 535//46 523//46 534//46
f 534//46 523//46 533//46
f 533//46 523//46 532//46
f 532//46 523//46 531//46
f 531//46 523//46 530//46
f 530//46 523//46 529//46
f 529//46 523//46 528//46
f 528//46 523//46 527//46
f 527//46 523//46 526//46
f 524//46 525//46 523//46
f 523//46 525//46 526//46
f 198//1 197//1 199//1
f 197//1 196//1 199//1
f 199//1 196//1 200//1
f 196//1 195//1 200//1
f 200//1 195//1 201//1
f 195//1 194//1 201//1
f 201//1 194//1 202//1
f 194//1 193//1 202//1
f 207//1 206//1 181//1
f 191//1 190//1 192//1
f 189//1 188//1 190//1
f 187//1 186//1 188//1
f 185//1 184//1 186//1
f 183//1 182//1 184//1
f 205//1 204//1 206//1
f 203//1 202//1 204//1
f 193//1 192//1 202//1
f 192//1 190//1 202//1
f 214//1 190//1 215//1
f 215//1 190//1 216//1
f 216//1 190//1 217//1
f 190//1 188//1 217//1
f 217//1 188//1 218//1
f 218//1 188//1 219//1
f 219//1 188//1 220//1
f 220//1 188//1 221//1
f 221//1 188//1 222//1
f 222//1 188//1 223//1
f 223//1 188//1 224//1
f 224//1 188//1 225//1
f 225//1 188//1 226//1
f 188//1 186//1 263//1
f 263//1 186//1 264//1
f 264//1 186//1 265//1
f 265//1 186//1 266//1
f 186//1 184//1 266//1
f 266//1 184//1 267//1
f 267//1 184//1 268//1
f 268//1 184//1 269//1
f 269//1 184//1 270//1
f 184//1 182//1 270//1
f 270//1 182//1 271//1
f 271//1 182//1 272//1
f 272//1 182//1 273//1
f 273//1 182//1 274//1
f 263//1 262//1 188//1
f 274//1 182//1 275//1
f 202//1 190//1 204//1
f 262//1 261//1 188//1
f 188//1 261//1 226//1
f 261//1 260//1 226//1
f 260//1 259//1 226//1
f 259//1 258//1 226//1
f 258//1 257//1 226//1
f 257//1 256//1 226//1
f 226//1 256//1 227//1
f 256//1 255//1 227//1
f 255//1 254//1 227//1
f 227//1 254//1 228//1
f 254//1 253//1 228//1
f 253//1 252//1 228//1
f 252//1 251//1 228//1
f 251//1 250//1 228//1
f 228//1 250//1 229//1
f 182//1 181//1 275//1
f 275//1 181//1 276//1
f 181//1 206//1 276//1
f 276//1 206//1 277//1
f 206//1 204//1 277//1
f 277//1 204//1 278//1
f 278//1 204//1 279//1
f 279//1 204//1 244//1
f 244//1 204//1 245//1
f 245//1 204//1 246//1
f 246//1 204//1 247//1
f 247//1 204//1 248//1
f 248//1 204//1 249//1
f 249//1 204//1 250//1
f 250//1 204//1 229//1
f 229//1 204//1 230//1
f 230//1 204//1 231//1
f 231//1 204//1 232//1
f 232//1 204//1 233//1
f 233//1 204//1 234//1
f 234//1 204//1 235//1
f 235//1 204//1 236//1
f 236//1 204//1 237//1
f 237//1 204//1 238//1
f 238//1 204//1 239//1
f 239//1 204//1 240//1
f 240//1 204//1 241//1
f 241//1 204//1 242//1
f 242//1 204//1 243//1
f 214//1 213//1 190//1
f 243//1 204//1 208//1
f 208//1 204//1 209//1
f 209//1 204//1 210//1
f 213//1 212//1 190//1
f 190//1 212//1 204//1
f 212//1 211//1 204//1
f 204//1 211//1 210//1
f 181//363 182//364 536//365
f 536//365 182//364 537//366
f 182//364 183//367 537//366
f 537//366 183//367 538//368
f 183//367 184//369 538//368
f 538//368 184//369 539//370
f 184//369 185//371 539//370
f 539//370 185//371 540//372
f 185//371 186//373 540//372
f 540//372 186//373 541//374
f 186//373 187//375 541//374
f 541//374 187//375 542//376
f 187//375 188//377 542//376
f 542//376 188//377 543//378
f 188//377 189//379 543//378
f 543//378 189//379 544//380
f 189//379 190//381 544//380
f 544//380 190//381 545//382
f 190//381 191//383 545//382
f 545//382 191//383 546//384
f 191//383 192//385 546//384
f 546//384 192//385 547//386
f 192//385 193//387 547//386
f 547//386 193//387 548//388
f 193//387 194//389 548//388
f 548//388 194//389 549//390
f 194//389 195//391 549//390
f 549//390 195//391 550//392
f 195//391 196//393 550//392
f 550//392 196//393 551//394
f 196//393 197//395 551//394
f 551//394 197//395 552//395
f 197//396 198//396 552//396
f 552//396 198//396 553//396
f 198//397 199//398 553//397
f 553//397 199//398 554//399
f 199//398 200//400 554//399
f 554//399 200//400 555//401
f 200//400 201//402 555//401
f 555//401 201//402 556//403
f 201//402 202//404 556//403
f 556//403 202//404 557//405
f 202//404 203//406 557//405
f 557//405 203//406 558//407
f 203//406 204//408 558//407
f 558//407 204//408 559//409
f 204//408 205//410 559//409
f 559//409 205//410 560//411
f 205//410 206//412 560//411
f 560//411 206//412 561//413
f 206//412 207//414 561//413
f 561//413 207//414 562//415
f 207//414 181//363 562//415
f 562//415 181//363 536//365
f 208//416 209//417 563//418
f 563//418 209//417 564//419
f 209//417 210//420 564//419
f 564//419 210//420 565//421
f 210//420 211//422 565//421
f 565//421 211//422 566//423
f 211//422 212//424 566//423
f 566//423 212//424 567//425
f 212//424 213//426 567//425
f 567//425 213//426 568//427
f 213//426 214//428 568//427
f 568//427 214//428 569//429
f 214//428 215//430 569//429
f 569//429 215//430 570//431
f 215//430 216//432 570//431
f 570//431 216//432 571//433
f 216//432 217//434 571//433
f 571//433 217//434 572//435
f 217//434 218//436 572//435
f 572//435 218//436 573//437
f 218//436 219//438 573//437
f 573//437 219//438 574//439
f 219//438 220//397 574//439
f 574//439 220//397 575//397
f 220//397 221//397 575//397
f 575//397 221//397 576//397
f 221//397 222//397 576//397
f 576//397 222//397 577//397
f 222//397 223//440 577//397
f 577//397 223//440 578//441
f 223//440 224//442 578//441
f 578//441 224//442 579//443
f 224//442 225//444 579//443
f 579//443 225//444 580//445
f 225//444 226//446 580//445
f 580//445 226//446 581//447
f 226//446 227//448 581//447
f 581//447 227//448 582//449
f 227//448 228//450 582//449
f 582//449 228//450 583//451
f 228//450 229//452 583//451
f 583//451 229//452 584//453
f 229//452 230//454 584//453
f 584//453 230//454 585//455
f 230//454 231//456 585//455
f 585//455 231//456 586//457
f 231//456 232//395 586//457
f 586//457 232//395 587//395
f 232//395 233//395 587//395
f 587//395 233//395 588//395
f 233//395 234//395 588//395
f 588//395 234//395 589//395
f 234//395 235//458 589//395
f 589//395 235//458 590//459
f 235//458 236//460 590//459
f 590//459 236//460 591//461
f 236//460 237//462 591//461
f 591//461 237//462 592//463
f 237//462 238//464 592//463
f 592//463 238//464 593//465
f 238//464 239//466 593//465
f 593//465 239//466 594//467
f 239//466 240//468 594//467
f 594//467 240//468 595//469
f 240//468 241//470 595//469
f 595//469 241//470 596//471
f 241//470 242//472 596//471
f 596//471 242//472 597//473
f 242//472 243//474 597//473
f 597//473 243//474 598//475
f 243//474 208//416 598//475
f 598//475 208//416 563//418
f 244//476 245//477 599//478
f 599//478 245//477 600//479
f 245//477 246//480 600//479
f 600//479 246//480 601//481
f 246//480 247//482 601//481
f 601//481 247//482 602//483
f 247//482 248//484 602//483
f 602//483 248//484 603//485
f 248//484 249//486 603//485
f 603//485 249//486 604//487
f 249//486 250//488 604//487
f 604//487 250//488 605//489
f 250//488 251//490 605//489
f 605//489 251//490 606//491
f 251//490 252//492 606//491
f 606//491 252//492 607//493
f 252//492 253//494 607//493
f 607//493 253//494 608//495
f 253//494 254//496 608//495
f 608//495 254//496 609//497
f 254//496 255//498 609//497
f 609//497 255//498 610//499
f 255//498 256//500 610//499
f 610//499 256//500 611//501
f 256//500 257//502 611//501
f 611//501 257//502 612//503
f 257//502 258//504 612//503
f 612//503 258//504 613//505
f 258//504 259//506 613//505
f 613//505 259//506 614//507
f 259//506 260//508 614//507
f 614//507 260//508 615//509
f 260//508 261//510 615//509
f 615//509 261//510 616//511
f 261//510 262//512 616//511
f 616//511 262//512 617//513
f 262//512 263//514 617//513
f 617//513 263//514 618//515
f 263//514 264//516 618//515
f 618//515 264//516 619//517
f 264//516 265//518 619//517
f 619//517 265//518 620//519
f 265//518 266//520 620//519
f 620//519 266//520 621//521
f 266//520 267//522 621//521
f 621//521 267//522 622//523
f 267//522 268//524 622//523
f 622//523 268//524 623//525
f 268//524 269//526 623//525
f 623//525 269//526 624//527
f 269//526 270//528 624//527
f 624//527 270//528 625//529
f 270//528 271//530 625//529
f 625//529 271//530 626//531
f 271//530 272//532 626//531
f 626//531 272//532 627//533
f 272//532 273//534 627//533
f 627//533 273//534 628//535
f 273//534 274//536 628//535
f 628//535 274//536 629//537
f 274//536 275//538 629//537
f 629//537 275//538 630//539
f 275//538 276//540 630//539
f 630//539 276//540 631//541
f 276//540 277//542 631//541
f 631//541 277//542 632//543
f 277//542 278//544 632//543
f 632//543 278//544 633//545
f 278//544 279//546 633//545
f 633//545 279//546 634//547
f 279//546 244//476 634//547
f 634//547 244//476 599//478
f 552//46 553//46 551//46
f 553//46 554//46 551//46
f 551//46 554//46 550//46
f 554//46 555//46 550//46
f 550//46 555//46 549//46
f 555//46 556//46 549//46
f 549//46 556//46 548//46
f 556//46 557//46 548//46
f 536//46 537//46 562//46
f 538//46 539//46 537//46
f 540//46 541//46 539//46
f 542//46 543//46 541//46
f 544//46 545//46 543//46
f 546//46 547//46 545//46
f 558//46 559//46 557//46
f 560//46 561//46 559//46
f 548//46 557//46 547//46
f 547//46 557//46 545//46
f 569//46 570//46 545//46
f 570//46 571//46 545//46
f 571//46 572//46 545//46
f 545//46 572//46 543//46
f 572//46 573//46 543//46
f 573//46 574//46 543//46
f 574//46 575//46 543//46
f 575//46 576//46 543//46
f 576//46 577//46 543//46
f 577//46 578//46 543//46
f 578//46 579//46 543//46
f 579//46 580//46 543//46
f 580//46 581//46 543//46
f 543//46 618//46 541//46
f 618//46 619//46 541//46
f 619//46 620//46 541//46
f 620//46 621//46 541//46
f 541//46 621//46 539//46
f 621//46 622//46 539//46
f 622//46 623//46 539//46
f 623//46 624//46 539//46
f 624//46 625//46 539//46
f 539//46 625//46 537//46
f 625//46 626//46 537//46
f 626//46 627//46 537//46
f 627//46 628//46 537//46
f 628//46 629//46 537//46
f 618//46 543//46 617//46
f 629//46 630//46 537//46
f 537//46 630//46 562//46
f 630//46 631//46 562//46
f 631//46 632//46 562//46
f 617//46 543//46 616//46
f 543//46 581//46 616//46
f 616//46 581//46 615//46
f 615//46 581//46 614//46
f 614//46 581//46 613//46
f 613//46 581//46 612//46
f 612//46 581//46 611//46
f 581//46 582//46 611//46
f 611//46 582//46 610//46
f 610//46 582//46 609//46
f 582//46 583//46 609//46
f 609//46 583//46 608//46
f 608//46 583//46 607//46
f 607//46 583//46 606//46
f 606//46 583//46 605//46
f 583//46 584//46 605//46
f 557//46 559//46 545//46
f 562//46 632//46 561//46
f 561//46 632//46 559//46
f 632//46 633//46 559//46
f 633//46 634//46 559//46
f 634//46 599//46 559//46
f 599//46 600//46 559//46
f 600//46 601//46 559//46
f 601//46 602//46 559//46
f 602//46 603//46 559//46
f 603//46 604//46 559//46
f 604//46 605//46 559//46
f 605//46 584//46 559//46
f 584//46 585//46 559//46
f 585//46 586//46 559//46
f 586//46 587//46 559//46
f 587//46 588//46 559//46
f 588//46 589//46 559//46
f 589//46 590//46 559//46
f 590//46 591//46 559//46
f 591//46 592//46 559//46
f 592//46 593//46 559//46
f 593//46 594//46 559//46
f 594//46 595//46 559//46
f 595//46 596//46 559//46
f 596//46 597//46 559//46
f 597//46 598//46 559//46
f 598//46 563//46 559//46
f 563//46 564//46 559//46
f 569//46 545//46 568//46
f 564//46 565//46 559//46
f 568//46 545//46 567//46
f 545//46 559//46 567//46
f 567//46 559//46 566//46
f 565//46 566//46 559//46
f 298//1 297//1 299//1
f 297//1 296//1 299//1
f 296//1 295//1 299//1
f 299//1 295//1 280//1
f 295//1 294//1 280//1
f 294//1 347//1 280//1
f 347//1 346//1 280//1
f 346//1 345//1 280//1
f 347//1 294//1 348//1
f 345//1 344//1 280//1
f 348//1 294//1 349//1
f 344//1 343//1 280//1
f 349//1 294//1 350//1
f 350//1 294//1 351//1
f 342//1 341//1 343//1
f 328//1 327//1 329//1
f 314//1 313//1 315//1
f 300//1 355//1 301//1
f 294//1 293//1 351//1
f 351//1 293//1 352//1
f 352//1 293//1 353//1
f 293//1 292//1 353//1
f 353//1 292//1 354//1
f 292//1 291//1 354//1
f 354//1 291//1 355//1
f 355//1 291//1 301//1
f 301//1 291//1 302//1
f 302//1 291//1 303//1
f 303//1 291//1 304//1
f 291//1 290//1 304//1
f 304//1 290//1 305//1
f 305//1 290//1 306//1
f 290//1 289//1 306//1
f 306//1 289//1 307//1
f 307//1 289//1 308//1
f 289//1 288//1 308//1
f 308//1 288//1 309//1
f 309//1 288//1 310//1
f 288//1 287//1 310//1
f 310//1 287//1 311//1
f 311//1 287//1 312//1
f 287//1 286//1 312//1
f 312//1 286//1 313//1
f 313//1 286//1 315//1
f 315//1 286//1 316//1
f 316//1 286//1 317//1
f 286//1 285//1 317//1
f 317//1 285//1 318//1
f 318//1 285//1 319//1
f 285//1 284//1 319//1
f 319//1 284//1 320//1
f 320//1 284//1 321//1
f 321//1 284//1 322//1
f 284//1 283//1 322//1
f 322//1 283//1 323//1
f 283//1 282//1 323//1
f 323//1 282//1 324//1
f 324//1 282//1 325//1
f 282//1 281//1 325//1
f 325//1 281//1 326//1
f 281//1 280//1 326//1
f 326//1 280//1 327//1
f 327//1 280//1 329//1
f 329//1 280//1 330//1
f 330//1 280//1 331//1
f 331//1 280//1 332//1
f 332//1 280//1 333//1
f 333//1 280//1 334//1
f 334//1 280//1 335//1
f 335//1 280//1 336//1
f 341//1 340//1 343//1
f 336//1 280//1 337//1
f 340//1 339//1 343//1
f 339//1 338//1 343//1
f 337//1 280//1 338//1
f 343//1 338//1 280//1
f 280//548 281//549 635//550
f 635//550 281//549 636//551
f 281//549 282//552 636//551
f 636//551 282//552 637//553
f 282//552 283//554 637//553
f 637//553 283//554 638//555
f 283//554 284//556 638//555
f 638//555 284//556 639//557
f 284//556 285//558 639//557
f 639//557 285//558 640//559
f 285//558 286//560 640//559
f 640//559 286//560 641//561
f 286//560 287//562 641//561
f 641//561 287//562 642//563
f 287//562 288//564 642//563
f 642//563 288//564 643//565
f 288//564 289//566 643//565
f 643//565 289//566 644//567
f 289//566 290//568 644//567
f 644//567 290//568 645//569
f 290//568 291//570 645//569
f 645//569 291//570 646//571
f 291//570 292//572 646//571
f 646//571 292//572 647//573
f 292//572 293//574 647//573
f 647//573 293//574 648//575
f 293//574 294//576 648//575
f 648//575 294//576 649//577
f 294//576 295//578 649//577
f 649//577 295//578 650//579
f 295//578 296//580 650//579
f 650//579 296//580 651//581
f 296//580 297//582 651//581
f 651//581 297//582 652//583
f 297//582 298//584 652//583
f 652//583 298//584 653//585
f 298//584 299//586 653//585
f 653//585 299//586 654//587
f 299//586 280//548 654//587
f 654//587 280//548 635//550
f 300//395 301//588 655//395
f 655//395 301//588 656//589
f 301//588 302//590 656//589
f 656//589 302//590 657//591
f 302//590 303//592 657//591
f 657//591 303//592 658//593
f 303//592 304//594 658//593
f 658//593 304//594 659//595
f 304//594 305//596 659//595
f 659//595 305//596 660//597
f 305//596 306//598 660//597
f 660//597 306//598 661//599
f 306//598 307//600 661//599
f 661//599 307//600 662//601
f 307//600 308//602 662//601
f 662//601 308//602 663//603
f 308//602 309//604 663//603
f 663//603 309//604 664//605
f 309//604 310//606 664//605
f 664//605 310//606 665//607
f 310//606 311//608 665//607
f 665//607 311//608 666//609
f 311//608 312//610 666//609
f 666//609 312//610 667//611
f 312//610 313//612 667//611
f 667//611 313//612 668//613
f 313//612 314//397 668//613
f 668//613 314//397 669//397
f 314//614 315//615 669//614
f 669//614 315//615 670//616
f 315//615 316//617 670//616
f 670//616 316//617 671//618
f 316//617 317//619 671//618
f 671//618 317//619 672//620
f 317//619 318//621 672//620
f 672//620 318//621 673//622
f 318//621 319//623 673//622
f 673//622 319//623 674//624
f 319//623 320//625 674//624
f 674//624 320//625 675//626
f 320//625 321//627 675//626
f 675//626 321//627 676//628
f 321//627 322//629 676//628
f 676//628 322//629 677//630
f 322//629 323//631 677//630
f 677//630 323//631 678//632
f 323//631 324//633 678//632
f 678//632 324//633 679//634
f 324//633 325//635 679//634
f 679//634 325//635 680//636
f 325//635 326//637 680//636
f 680//636 326//637 681//638
f 326//637 327//639 681//638
f 681//638 327//639 682//640
f 327//639 328//396 682//640
f 682//640 328//396 683//396
f 328//397 329//641 683//397
f 683//397 329//641 684//642
f 329//641 330//643 684//642
f 684//642 330//643 685//644
f 330//643 331//645 685//644
f 685//644 331//645 686//646
f 331//645 332//647 686//646
f 686//646 332//647 687//648
f 332//647 333//649 687//648
f 687//648 333//649 688//650
f 333//649 334//651 688//650
f 688//650 334//651 689//652
f 334//651 335//653 689//652
f 689//652 335//653 690//654
f 335//653 336//655 690//654
f 690//654 336//655 691//656
f 336//655 337//657 691//656
f 691//656 337//657 692//658
f 337//657 338//659 692//658
f 692//658 338//659 693//660
f 338//659 339//661 693//660
f 693//660 339//661 694//662
f 339//661 340//663 694//662
f 694//662 340//663 695//664
f 340//663 341//665 695//664
f 695//664 341//665 696//666
f 341//665 342//395 696//666
f 696//666 342//395 697//395
f 342//396 343//667 697//396
f 697//396 343//667 698//668
f 343//667 344//669 698//668
f 698//668 344//669 699//670
f 344//669 345//671 699//670
f 699//670 345//671 700//672
f 345//671 346//673 700//672
f 700//672 346//673 701//674
f 346//673 347//675 701//674
f 701//674 347//675 702//676
f 347//675 348//677 702//676
f 702//676 348//677 703//678
f 348//677 349//679 703//678
f 703//678 349//679 704//680
f 349//679 350//681 704//680
f 704//680 350//681 705//682
f 350//681 351//683 705//682
f 705//682 351//683 706//684
f 351//683 352//685 706//684
f 706//684 352//685 707//686
f 352//685 353//687 707//686
f 707//686 353//687 708//688
f 353//687 354//689 708//688
f 708//688 354//689 709//690
f 354//689 355//691 709//690
f 709//690 355//691 710//692
f 355//691 300//614 710//692
f 710//692 300//614 655//614
f 651//46 652//46 650//46
f 652//46 653//46 650//46
f 653//46 654//46 650//46
f 650//46 654//46 649//46
f 649//46 654//46 648//46
f 703//46 704//46 648//46
f 704//46 705//46 648//46
f 705//46 706//46 648//46
f 706//46 707//46 648//46
f 655//46 656//46 710//46
f 669//46 670//46 668//46
f 683//46 684//46 682//46
f 697//46 698//46 696//46
f 707//46 708//46 648//46
f 648//46 708//46 647//46
f 708//46 709//46 647//46
f 647//46 709//46 646//46
f 709//46 710//46 646//46
f 710//46 656//46 646//46
f 656//46 657//46 646//46
f 657//46 658//46 646//46
f 658//46 659//46 646//46
f 646//46 659//46 645//46
f 659//46 660//46 645//46
f 660//46 661//46 645//46
f 645//46 661//46 644//46
f 661//46 662//46 644//46
f 662//46 663//46 644//46
f 644//46 663//46 643//46
f 663//46 664//46 643//46
f 664//46 665//46 643//46
f 643//46 665//46 642//46
f 665//46 666//46 642//46
f 666//46 667//46 642//46
f 642//46 667//46 641//46
f 667//46 668//46 641//46
f 668//46 670//46 641//46
f 670//46 671//46 641//46
f 671//46 672//46 641//46
f 641//46 672//46 640//46
f 672//46 673//46 640//46
f 673//46 674//46 640//46
f 640//46 674//46 639//46
f 674//46 675//46 639//46
f 675//46 676//46 639//46
f 639//46 676//46 638//46
f 676//46 677//46 638//46
f 677//46 678//46 638//46
f 638//46 678//46 637//46
f 678//46 679//46 637//46
f 679//46 680//46 637//46
f 637//46 680//46 636//46
f 680//46 681//46 636//46
f 636//46 681//46 635//46
f 681//46 682//46 635//46
f 682//46 684//46 635//46
f 684//46 685//46 635//46
f 685//46 686//46 635//46
f 686//46 687//46 635//46
f 687//46 688//46 635//46
f 635//46 688//46 654//46
f 688//46 689//46 654//46
f 689//46 690//46 654//46
f 690//46 691//46 654//46
f 691//46 692//46 654//46
f 696//46 698//46 695//46
f 698//46 699//46 695//46
f 692//46 693//46 654//46
f 695//46 699//46 694//46
f 699//46 700//46 694//46
f 693//46 694//46 654//46
f 694//46 700//46 654//46
f 700//46 701//46 654//46
f 701//46 702//46 654//46
f 703//46 648//46 702//46
f 702//46 648//46 654//46
