# OBJ written from D:\Projects\Visionate\MedienTruck\Geometries\EntryLevel\Sonepar\Icons_SoneparLevel\Starke_IT.obj
# Units	meters

o Starke_IT
v 0.044312 3.58572 -0.5035
v 1.63346 3.58572 -0.5035
v 1.66793 3.59077 -0.5035
v 1.69611 3.60459 -0.5035
v 1.71511 3.62517 -0.5035
v 1.72208 3.65051 -0.5035
v 1.72208 3.78009 -0.5035
v 1.71511 3.80517 -0.5035
v 1.69611 3.82577 -0.5035
v 1.66793 3.83974 -0.5035
v 1.63346 3.84488 -0.5035
v 0.044312 3.84488 -0.5035
v 0.01019 3.83974 -0.5035
v -0.017801 3.82577 -0.5035
v -0.036739 3.80517 -0.5035
v -0.043702 3.78009 -0.5035
v -0.043702 3.65051 -0.5035
v -0.036739 3.62595 -0.5035
v -0.017801 3.60528 -0.5035
v 0.01019 3.59103 -0.5035
v -1.63651 -1.74953 -0.5025
v -0.047369 -1.74953 -0.5025
v -0.012988 -1.74447 -0.5025
v 0.014975 -1.73065 -0.5025
v 0.033769 -1.71008 -0.5025
v 0.040646 -1.68474 -0.5025
v 0.040646 -1.55516 -0.5025
v 0.033769 -1.53008 -0.5025
v 0.014975 -1.50947 -0.5025
v -0.012988 -1.49551 -0.5025
v -0.047369 -1.49037 -0.5025
v -1.63651 -1.49037 -0.5025
v -1.67099 -1.49551 -0.5025
v -1.69916 -1.50947 -0.5025
v -1.71817 -1.53008 -0.5025
v -1.72514 -1.55516 -0.5025
v -1.72514 -1.68474 -0.5025
v -1.71817 -1.71008 -0.5025
v -1.69916 -1.73065 -0.5025
v -1.67099 -1.74447 -0.5025
v 2.92739 2.48738 -0.5015
v 2.9016 2.48085 -0.5015
v 2.88025 2.46498 -0.5015
v 2.86656 2.44217 -0.5015
v 2.8626 2.41587 -0.5015
v 2.8626 1.13233 -0.5015
v 2.86319 1.11894 -0.5015
v 2.86639 1.10594 -0.5015
v 2.87209 1.09381 -0.5015
v 2.88006 1.08304 -0.5015
v 2.88999 1.07405 -0.5015
v 2.9015 1.06719 -0.5015
v 2.91413 1.06272 -0.5015
v 2.92739 1.06081 -0.5015
v 3.05696 1.06081 -0.5015
v 3.08275 1.06735 -0.5015
v 3.1041 1.08321 -0.5015
v 3.11779 1.10602 -0.5015
v 3.12175 1.13233 -0.5015
v 3.12175 2.41587 -0.5015
v 3.11763 2.44209 -0.5015
v 3.10392 2.46481 -0.5015
v 3.08265 2.48069 -0.5015
v 3.05696 2.48738 -0.5015
v -3.07102 1.03453 -0.5005
v -3.09671 1.02785 -0.5005
v -3.11798 1.01197 -0.5005
v -3.13169 0.989241 -0.5005
v -3.13581 0.963022 -0.5005
v -3.13581 -0.320518 -0.5005
v -3.13185 -0.346823 -0.5005
v -3.11816 -0.369631 -0.5005
v -3.09681 -0.385498 -0.5005
v -3.07102 -0.39203 -0.5005
v -2.94145 -0.39203 -0.5005
v -2.92818 -0.390128 -0.5005
v -2.91556 -0.385658 -0.5005
v -2.90405 -0.378793 -0.5005
v -2.89412 -0.369801 -0.5005
v -2.88615 -0.359034 -0.5005
v -2.88045 -0.34691 -0.5005
v -2.87724 -0.333902 -0.5005
v -2.87666 -0.320518 -0.5005
v -2.87666 0.963022 -0.5005
v -2.88062 0.989326 -0.5005
v -2.89431 1.01213 -0.5005
v -2.91566 1.028 -0.5005
v -2.94145 1.03453 -0.5005
v -0.400037 2.3089 -0.4995
v -0.400037 5.74085 -0.4995
v -0.405074 5.79171 -0.4995
v -0.419995 5.84059 -0.4995
v -0.444219 5.88559 -0.4995
v -0.476803 5.92497 -0.4995
v -0.516481 5.95718 -0.4995
v -0.56171 5.98098 -0.4995
v -0.61073 5.99544 -0.4995
v -0.661634 6 -0.4995
v -5.35328 6 -0.4995
v -5.45245 5.98027 -0.4995
v -5.53653 5.9241 -0.4995
v -5.5927 5.84002 -0.4995
v -5.61243 5.74085 -0.4995
v -5.61243 2.3089 -0.4995
v -5.5927 2.20973 -0.4995
v -5.53653 2.12566 -0.4995
v -5.45245 2.06948 -0.4995
v -5.35328 2.04975 -0.4995
v -3.13581 2.04975 -0.4995
v -3.13581 1.53817 -0.4995
v -4.05263 1.53817 -0.4995
v -4.06535 1.53703 -0.4995
v -4.07761 1.53341 -0.4995
v -4.08891 1.52746 -0.4995
v -4.09883 1.51941 -0.4995
v -4.10698 1.50957 -0.4995
v -4.11304 1.49832 -0.4995
v -4.11677 1.4861 -0.4995
v -4.11802 1.47338 -0.4995
v -4.11802 1.3438 -0.4995
v -4.11287 1.31897 -0.4995
v -4.09866 1.29796 -0.4995
v -4.07751 1.28394 -0.4995
v -4.05263 1.27902 -0.4995
v -1.95862 1.27902 -0.4995
v -1.93392 1.28411 -0.4995
v -1.91298 1.29817 -0.4995
v -1.89892 1.31911 -0.4995
v -1.89383 1.3438 -0.4995
v -1.89383 1.47277 -0.4995
v -1.89497 1.4855 -0.4995
v -1.89859 1.49775 -0.4995
v -1.90454 1.50906 -0.4995
v -1.91259 1.51898 -0.4995
v -1.92244 1.52712 -0.4995
v -1.93369 1.53318 -0.4995
v -1.94591 1.53691 -0.4995
v -1.95862 1.53817 -0.4995
v -2.87544 1.53817 -0.4995
v -2.87544 2.04975 -0.4995
v -0.661634 2.04975 -0.4995
v -0.61073 2.05431 -0.4995
v -0.56171 2.06877 -0.4995
v -0.516481 2.09257 -0.4995
v -0.476803 2.12479 -0.4995
v -0.444219 2.16416 -0.4995
v -0.419995 2.20916 -0.4995
v -0.405074 2.25805 -0.4995
v -3.88495 2.86589 -0.4995
v -3.93303 2.88776 -0.4995
v -3.97263 2.92271 -0.4995
v -4.00032 2.96768 -0.4995
v -4.01369 3.01878 -0.4995
v -4.01156 3.07156 -0.4995
v -3.99414 3.12142 -0.4995
v -3.96293 3.16403 -0.4995
v -3.92064 3.19568 -0.4995
v -3.87097 3.21362 -0.4995
v -3.81822 3.21629 -0.4995
v -3.76698 3.20345 -0.4995
v -3.72172 3.17623 -0.4995
v -3.68637 3.13699 -0.4995
v -3.664 3.08915 -0.4995
v -3.65656 3.03686 -0.4995
v -3.67007 2.96921 -0.4995
v -3.70814 2.91168 -0.4995
v -3.76514 2.87282 -0.4995
v -3.83259 2.85838 -0.4995
v -3.04909 2.86672 -0.4995
v -3.09662 2.88922 -0.4995
v -3.13557 2.92456 -0.4995
v -3.16258 2.96969 -0.4995
v -3.17531 3.02072 -0.4995
v -3.17266 3.07324 -0.4995
v -3.15488 3.12274 -0.4995
v -3.12348 3.16493 -0.4995
v -3.08118 3.19618 -0.4995
v -3.03163 3.2138 -0.4995
v -2.97909 3.21626 -0.4995
v -2.92811 3.20336 -0.4995
v -2.88307 3.1762 -0.4995
v -2.84787 3.13713 -0.4995
v -2.82553 3.08951 -0.4995
v -2.81798 3.03747 -0.4995
v -2.83161 2.96894 -0.4995
v -2.87043 2.91084 -0.4995
v -2.92853 2.87201 -0.4995
v -2.99707 2.85838 -0.4995
v -2.21295 2.86672 -0.4995
v -2.26049 2.88922 -0.4995
v -2.29944 2.92456 -0.4995
v -2.32644 2.96969 -0.4995
v -2.33917 3.02072 -0.4995
v -2.33653 3.07324 -0.4995
v -2.31874 3.12274 -0.4995
v -2.28735 3.16493 -0.4995
v -2.24505 3.19618 -0.4995
v -2.19549 3.2138 -0.4995
v -2.14296 3.21626 -0.4995
v -2.09197 3.20336 -0.4995
v -2.04694 3.1762 -0.4995
v -2.01173 3.13713 -0.4995
v -1.98939 3.08951 -0.4995
v -1.98185 3.03747 -0.4995
v -1.99548 2.96894 -0.4995
v -2.0343 2.91084 -0.4995
v -2.0924 2.87201 -0.4995
v -2.16093 2.85838 -0.4995
v 0.65919 0.720983 -0.4985
v 0.560016 0.701256 -0.4985
v 0.475941 0.645079 -0.4985
v 0.419764 0.561004 -0.4985
v 0.400037 0.46183 -0.4985
v 0.400037 -2.97011 -0.4985
v 0.419764 -3.06928 -0.4985
v 0.475941 -3.15336 -0.4985
v 0.560016 -3.20954 -0.4985
v 0.65919 -3.22926 -0.4985
v 2.91089 -3.22926 -0.4985
v 2.91089 -3.74085 -0.4985
v 1.96657 -3.74085 -0.4985
v 1.94177 -3.74578 -0.4985
v 1.92075 -3.75982 -0.4985
v 1.90671 -3.78084 -0.4985
v 1.90178 -3.80563 -0.4985
v 1.90178 -3.93521 -0.4985
v 1.90292 -3.94789 -0.4985
v 1.90654 -3.9601 -0.4985
v 1.91251 -3.97135 -0.4985
v 1.92057 -3.98121 -0.4985
v 1.93043 -3.98927 -0.4985
v 1.94168 -3.99523 -0.4985
v 1.95388 -3.99886 -0.4985
v 1.96657 -4 -0.4985
v 4.06301 -4 -0.4985
v 4.0757 -3.99886 -0.4985
v 4.0879 -3.99523 -0.4985
v 4.09916 -3.98927 -0.4985
v 4.10901 -3.98121 -0.4985
v 4.11708 -3.97135 -0.4985
v 4.12304 -3.9601 -0.4985
v 4.12666 -3.94789 -0.4985
v 4.1278 -3.93521 -0.4985
v 4.1278 -3.80563 -0.4985
v 4.12287 -3.78084 -0.4985
v 4.10883 -3.75982 -0.4985
v 4.08781 -3.74578 -0.4985
v 4.06301 -3.74085 -0.4985
v 3.17004 -3.74085 -0.4985
v 3.17004 -3.22926 -0.4985
v 5.35328 -3.22926 -0.4985
v 5.45245 -3.20954 -0.4985
v 5.53653 -3.15336 -0.4985
v 5.5927 -3.06928 -0.4985
v 5.61243 -2.97011 -0.4985
v 5.61243 0.46183 -0.4985
v 5.60755 0.512431 -0.4985
v 5.59287 0.561099 -0.4985
v 5.56894 0.605953 -0.4985
v 5.53671 0.645258 -0.4985
v 5.4974 0.677496 -0.4985
v 5.45255 0.70142 -0.4985
v 5.40388 0.716105 -0.4985
v 5.35328 0.720983 -0.4985
v 2.17988 -2.42063 -0.4985
v 2.12789 -2.41292 -0.4985
v 2.08038 -2.39045 -0.4985
v 2.04145 -2.35516 -0.4985
v 2.01443 -2.31008 -0.4985
v 2.00166 -2.2591 -0.4985
v 2.00424 -2.20661 -0.4985
v 2.02194 -2.15713 -0.4985
v 2.05325 -2.11492 -0.4985
v 2.09546 -2.08361 -0.4985
v 2.14494 -2.06591 -0.4985
v 2.19743 -2.06333 -0.4985
v 2.24841 -2.0761 -0.4985
v 2.29349 -2.10312 -0.4985
v 2.32878 -2.14206 -0.4985
v 2.35125 -2.18956 -0.4985
v 2.35896 -2.24155 -0.4985
v 2.34533 -2.31008 -0.4985
v 2.30651 -2.36818 -0.4985
v 2.24841 -2.407 -0.4985
v 3.0154 -2.42063 -0.4985
v 2.96342 -2.41292 -0.4985
v 2.91591 -2.39045 -0.4985
v 2.87697 -2.35516 -0.4985
v 2.84995 -2.31008 -0.4985
v 2.83718 -2.2591 -0.4985
v 2.83976 -2.20661 -0.4985
v 2.85746 -2.15713 -0.4985
v 2.88877 -2.11492 -0.4985
v 2.93098 -2.08361 -0.4985
v 2.98046 -2.06591 -0.4985
v 3.03296 -2.06333 -0.4985
v 3.08394 -2.0761 -0.4985
v 3.12901 -2.10312 -0.4985
v 3.16431 -2.14206 -0.4985
v 3.18678 -2.18956 -0.4985
v 3.19449 -2.24155 -0.4985
v 3.18086 -2.31008 -0.4985
v 3.14203 -2.36818 -0.4985
v 3.08394 -2.407 -0.4985
v 3.85154 -2.42063 -0.4985
v 3.79955 -2.41292 -0.4985
v 3.75204 -2.39045 -0.4985
v 3.7131 -2.35516 -0.4985
v 3.68608 -2.31008 -0.4985
v 3.67332 -2.2591 -0.4985
v 3.67589 -2.20661 -0.4985
v 3.6936 -2.15713 -0.4985
v 3.72491 -2.11492 -0.4985
v 3.76712 -2.08361 -0.4985
v 3.8166 -2.06591 -0.4985
v 3.86909 -2.06333 -0.4985
v 3.92007 -2.0761 -0.4985
v 3.96515 -2.10312 -0.4985
v 4.00044 -2.14206 -0.4985
v 4.02291 -2.18956 -0.4985
v 4.03062 -2.24155 -0.4985
v 4.01699 -2.31008 -0.4985
v 3.97817 -2.36818 -0.4985
v 3.92007 -2.407 -0.4985
v 3.25518 2.81808 -0.4975
v 3.50391 2.93572 -0.4975
v 3.70778 3.12049 -0.4975
v 3.84923 3.3565 -0.4975
v 3.91609 3.6234 -0.4975
v 3.90259 3.89821 -0.4975
v 3.80989 4.15728 -0.4975
v 3.64599 4.37828 -0.4975
v 3.42499 4.54218 -0.4975
v 3.16593 4.63488 -0.4975
v 2.89111 4.64838 -0.4975
v 2.62421 4.58152 -0.4975
v 2.3882 4.44007 -0.4975
v 2.20343 4.2362 -0.4975
v 2.08578 3.98747 -0.4975
v 2.04541 3.7153 -0.4975
v 2.11711 3.35669 -0.4975
v 2.32038 3.05268 -0.4975
v 2.6244 2.8494 -0.4975
v 2.98301 2.7777 -0.4975
v 3.17995 4.36453 -0.4975
v 3.35993 4.2794 -0.4975
v 3.50745 4.1457 -0.4975
v 3.60981 3.97493 -0.4975
v 3.65819 3.7818 -0.4975
v 3.64842 3.58294 -0.4975
v 3.58134 3.39548 -0.4975
v 3.46274 3.23557 -0.4975
v 3.30282 3.11697 -0.4975
v 3.11537 3.04989 -0.4975
v 2.91651 3.04012 -0.4975
v 2.72338 3.0885 -0.4975
v 2.55261 3.19086 -0.4975
v 2.4189 3.33838 -0.4975
v 2.33378 3.51836 -0.4975
v 2.30457 3.7153 -0.4975
v 2.35637 3.97483 -0.4975
v 2.50346 4.19485 -0.4975
v 2.72347 4.34193 -0.4975
v 2.98301 4.39374 -0.4975
v -3.26924 -0.722727 -0.4965
v -3.51797 -0.840368 -0.4965
v -3.72184 -1.02515 -0.4965
v -3.86329 -1.26115 -0.4965
v -3.93015 -1.52805 -0.4965
v -3.91665 -1.80287 -0.4965
v -3.82395 -2.06193 -0.4965
v -3.66005 -2.28293 -0.4965
v -3.43905 -2.44684 -0.4965
v -3.17998 -2.53953 -0.4965
v -2.90517 -2.55303 -0.4965
v -2.63826 -2.48618 -0.4965
v -2.40226 -2.34472 -0.4965
v -2.21748 -2.14085 -0.4965
v -2.09984 -1.89212 -0.4965
v -2.05947 -1.61995 -0.4965
v -2.13117 -1.26134 -0.4965
v -2.33444 -0.957327 -0.4965
v -2.63845 -0.754051 -0.4965
v -2.99707 -0.682354 -0.4965
v -3.19401 -2.26918 -0.4965
v -3.37399 -2.18405 -0.4965
v -3.52151 -2.05035 -0.4965
v -3.62387 -1.87958 -0.4965
v -3.67224 -1.68645 -0.4965
v -3.66247 -1.48759 -0.4965
v -3.5954 -1.30013 -0.4965
v -3.4768 -1.14022 -0.4965
v -3.31688 -1.02162 -0.4965
v -3.12942 -0.954543 -0.4965
v -2.93057 -0.944774 -0.4965
v -2.73744 -0.993151 -0.4965
v -2.56667 -1.09551 -0.4965
v -2.43296 -1.24303 -0.4965
v -2.34784 -1.42301 -0.4965
v -2.31862 -1.61995 -0.4965
v -2.37043 -1.87948 -0.4965
v -2.51751 -2.0995 -0.4965
v -2.73753 -2.24659 -0.4965
v -2.99707 -2.29839 -0.4965
v 0.044312 3.58572 0.4965
v 1.63346 3.58572 0.4965
v 1.66793 3.59077 0.4965
v 1.69611 3.60459 0.4965
v 1.71511 3.62517 0.4965
v 1.72208 3.65051 0.4965
v 1.72208 3.78009 0.4965
v 1.71511 3.80517 0.4965
v 1.69611 3.82577 0.4965
v 1.66793 3.83974 0.4965
v 1.63346 3.84488 0.4965
v 0.044312 3.84488 0.4965
v 0.01019 3.83974 0.4965
v -0.017801 3.82577 0.4965
v -0.036739 3.80517 0.4965
v -0.043702 3.78009 0.4965
v -0.043702 3.65051 0.4965
v -0.036739 3.62595 0.4965
v -0.017801 3.60528 0.4965
v 0.01019 3.59103 0.4965
v -1.63651 -1.74953 0.4975
v -0.047369 -1.74953 0.4975
v -0.012988 -1.74447 0.4975
v 0.014975 -1.73065 0.4975
v 0.033769 -1.71008 0.4975
v 0.040646 -1.68474 0.4975
v 0.040646 -1.55516 0.4975
v 0.033769 -1.53008 0.4975
v 0.014975 -1.50947 0.4975
v -0.012988 -1.49551 0.4975
v -0.047369 -1.49037 0.4975
v -1.63651 -1.49037 0.4975
v -1.67099 -1.49551 0.4975
v -1.69916 -1.50947 0.4975
v -1.71817 -1.53008 0.4975
v -1.72514 -1.55516 0.4975
v -1.72514 -1.68474 0.4975
v -1.71817 -1.71008 0.4975
v -1.69916 -1.73065 0.4975
v -1.67099 -1.74447 0.4975
v 2.92739 2.48738 0.4985
v 2.9016 2.48085 0.4985
v 2.88025 2.46498 0.4985
v 2.86656 2.44217 0.4985
v 2.8626 2.41587 0.4985
v 2.8626 1.13233 0.4985
v 2.86319 1.11894 0.4985
v 2.86639 1.10594 0.4985
v 2.87209 1.09381 0.4985
v 2.88006 1.08304 0.4985
v 2.88999 1.07405 0.4985
v 2.9015 1.06719 0.4985
v 2.91413 1.06272 0.4985
v 2.92739 1.06081 0.4985
v 3.05696 1.06081 0.4985
v 3.08275 1.06735 0.4985
v 3.1041 1.08321 0.4985
v 3.11779 1.10602 0.4985
v 3.12175 1.13233 0.4985
v 3.12175 2.41587 0.4985
v 3.11763 2.44209 0.4985
v 3.10392 2.46481 0.4985
v 3.08265 2.48069 0.4985
v 3.05696 2.48738 0.4985
v -3.07102 1.03453 0.4995
v -3.09671 1.02785 0.4995
v -3.11798 1.01197 0.4995
v -3.13169 0.989241 0.4995
v -3.13581 0.963022 0.4995
v -3.13581 -0.320518 0.4995
v -3.13185 -0.346823 0.4995
v -3.11816 -0.369631 0.4995
v -3.09681 -0.385498 0.4995
v -3.07102 -0.39203 0.4995
v -2.94145 -0.39203 0.4995
v -2.92818 -0.390128 0.4995
v -2.91556 -0.385658 0.4995
v -2.90405 -0.378793 0.4995
v -2.89412 -0.369801 0.4995
v -2.88615 -0.359034 0.4995
v -2.88045 -0.34691 0.4995
v -2.87724 -0.333902 0.4995
v -2.87666 -0.320518 0.4995
v -2.87666 0.963022 0.4995
v -2.88062 0.989326 0.4995
v -2.89431 1.01213 0.4995
v -2.91566 1.028 0.4995
v -2.94145 1.03453 0.4995
v -0.400037 2.3089 0.5005
v -0.400037 5.74085 0.5005
v -0.405074 5.79171 0.5005
v -0.419995 5.84059 0.5005
v -0.444219 5.88559 0.5005
v -0.476803 5.92497 0.5005
v -0.516481 5.95718 0.5005
v -0.56171 5.98098 0.5005
v -0.61073 5.99544 0.5005
v -0.661634 6 0.5005
v -5.35328 6 0.5005
v -5.45245 5.98027 0.5005
v -5.53653 5.9241 0.5005
v -5.5927 5.84002 0.5005
v -5.61243 5.74085 0.5005
v -5.61243 2.3089 0.5005
v -5.5927 2.20973 0.5005
v -5.53653 2.12566 0.5005
v -5.45245 2.06948 0.5005
v -5.35328 2.04975 0.5005
v -3.13581 2.04975 0.5005
v -3.13581 1.53817 0.5005
v -4.05263 1.53817 0.5005
v -4.06535 1.53703 0.5005
v -4.07761 1.53341 0.5005
v -4.08891 1.52746 0.5005
v -4.09883 1.51941 0.5005
v -4.10698 1.50957 0.5005
v -4.11304 1.49832 0.5005
v -4.11677 1.4861 0.5005
v -4.11802 1.47338 0.5005
v -4.11802 1.3438 0.5005
v -4.11287 1.31897 0.5005
v -4.09866 1.29796 0.5005
v -4.07751 1.28394 0.5005
v -4.05263 1.27902 0.5005
v -1.95862 1.27902 0.5005
v -1.93392 1.28411 0.5005
v -1.91298 1.29817 0.5005
v -1.89892 1.31911 0.5005
v -1.89383 1.3438 0.5005
v -1.89383 1.47277 0.5005
v -1.89497 1.4855 0.5005
v -1.89859 1.49775 0.5005
v -1.90454 1.50906 0.5005
v -1.91259 1.51898 0.5005
v -1.92244 1.52712 0.5005
v -1.93369 1.53318 0.5005
v -1.94591 1.53691 0.5005
v -1.95862 1.53817 0.5005
v -2.87544 1.53817 0.5005
v -2.87544 2.04975 0.5005
v -0.661634 2.04975 0.5005
v -0.61073 2.05431 0.5005
v -0.56171 2.06877 0.5005
v -0.516481 2.09257 0.5005
v -0.476803 2.12479 0.5005
v -0.444219 2.16416 0.5005
v -0.419995 2.20916 0.5005
v -0.405074 2.25805 0.5005
v -3.88495 2.86589 0.5005
v -3.93303 2.88776 0.5005
v -3.97263 2.92271 0.5005
v -4.00032 2.96768 0.5005
v -4.01369 3.01878 0.5005
v -4.01156 3.07156 0.5005
v -3.99414 3.12142 0.5005
v -3.96293 3.16403 0.5005
v -3.92064 3.19568 0.5005
v -3.87097 3.21362 0.5005
v -3.81822 3.21629 0.5005
v -3.76698 3.20345 0.5005
v -3.72172 3.17623 0.5005
v -3.68637 3.13699 0.5005
v -3.664 3.08915 0.5005
v -3.65656 3.03686 0.5005
v -3.67007 2.96921 0.5005
v -3.70814 2.91168 0.5005
v -3.76514 2.87282 0.5005
v -3.83259 2.85838 0.5005
v -3.04909 2.86672 0.5005
v -3.09662 2.88922 0.5005
v -3.13557 2.92456 0.5005
v -3.16258 2.96969 0.5005
v -3.17531 3.02072 0.5005
v -3.17266 3.07324 0.5005
v -3.15488 3.12274 0.5005
v -3.12348 3.16493 0.5005
v -3.08118 3.19618 0.5005
v -3.03163 3.2138 0.5005
v -2.97909 3.21626 0.5005
v -2.92811 3.20336 0.5005
v -2.88307 3.1762 0.5005
v -2.84787 3.13713 0.5005
v -2.82553 3.08951 0.5005
v -2.81798 3.03747 0.5005
v -2.83161 2.96894 0.5005
v -2.87043 2.91084 0.5005
v -2.92853 2.87201 0.5005
v -2.99707 2.85838 0.5005
v -2.21295 2.86672 0.5005
v -2.26049 2.88922 0.5005
v -2.29944 2.92456 0.5005
v -2.32644 2.96969 0.5005
v -2.33917 3.02072 0.5005
v -2.33653 3.07324 0.5005
v -2.31874 3.12274 0.5005
v -2.28735 3.16493 0.5005
v -2.24505 3.19618 0.5005
v -2.19549 3.2138 0.5005
v -2.14296 3.21626 0.5005
v -2.09197 3.20336 0.5005
v -2.04694 3.1762 0.5005
v -2.01173 3.13713 0.5005
v -1.98939 3.08951 0.5005
v -1.98185 3.03747 0.5005
v -1.99548 2.96894 0.5005
v -2.0343 2.91084 0.5005
v -2.0924 2.87201 0.5005
v -2.16093 2.85838 0.5005
v 0.65919 0.720983 0.5015
v 0.560016 0.701256 0.5015
v 0.475941 0.645079 0.5015
v 0.419764 0.561004 0.5015
v 0.400037 0.46183 0.5015
v 0.400037 -2.97011 0.5015
v 0.419764 -3.06928 0.5015
v 0.475941 -3.15336 0.5015
v 0.560016 -3.20954 0.5015
v 0.65919 -3.22926 0.5015
v 2.91089 -3.22926 0.5015
v 2.91089 -3.74085 0.5015
v 1.96657 -3.74085 0.5015
v 1.94177 -3.74578 0.5015
v 1.92075 -3.75982 0.5015
v 1.90671 -3.78084 0.5015
v 1.90178 -3.80563 0.5015
v 1.90178 -3.93521 0.5015
v 1.90292 -3.94789 0.5015
v 1.90654 -3.9601 0.5015
v 1.91251 -3.97135 0.5015
v 1.92057 -3.98121 0.5015
v 1.93043 -3.98927 0.5015
v 1.94168 -3.99523 0.5015
v 1.95388 -3.99886 0.5015
v 1.96657 -4 0.5015
v 4.06301 -4 0.5015
v 4.0757 -3.99886 0.5015
v 4.0879 -3.99523 0.5015
v 4.09916 -3.98927 0.5015
v 4.10901 -3.98121 0.5015
v 4.11708 -3.97135 0.5015
v 4.12304 -3.9601 0.5015
v 4.12666 -3.94789 0.5015
v 4.1278 -3.93521 0.5015
v 4.1278 -3.80563 0.5015
v 4.12287 -3.78084 0.5015
v 4.10883 -3.75982 0.5015
v 4.08781 -3.74578 0.5015
v 4.06301 -3.74085 0.5015
v 3.17004 -3.74085 0.5015
v 3.17004 -3.22926 0.5015
v 5.35328 -3.22926 0.5015
v 5.45245 -3.20954 0.5015
v 5.53653 -3.15336 0.5015
v 5.5927 -3.06928 0.5015
v 5.61243 -2.97011 0.5015
v 5.61243 0.46183 0.5015
v 5.60755 0.512431 0.5015
v 5.59287 0.561099 0.5015
v 5.56894 0.605953 0.5015
v 5.53671 0.645258 0.5015
v 5.4974 0.677496 0.5015
v 5.45255 0.70142 0.5015
v 5.40388 0.716105 0.5015
v 5.35328 0.720983 0.5015
v 2.17988 -2.42063 0.5015
v 2.12789 -2.41292 0.5015
v 2.08038 -2.39045 0.5015
v 2.04145 -2.35516 0.5015
v 2.01443 -2.31008 0.5015
v 2.00166 -2.2591 0.5015
v 2.00424 -2.20661 0.5015
v 2.02194 -2.15713 0.5015
v 2.05325 -2.11492 0.5015
v 2.09546 -2.08361 0.5015
v 2.14494 -2.06591 0.5015
v 2.19743 -2.06333 0.5015
v 2.24841 -2.0761 0.5015
v 2.29349 -2.10312 0.5015
v 2.32878 -2.14206 0.5015
v 2.35125 -2.18956 0.5015
v 2.35896 -2.24155 0.5015
v 2.34533 -2.31008 0.5015
v 2.30651 -2.36818 0.5015
v 2.24841 -2.407 0.5015
v 3.0154 -2.42063 0.5015
v 2.96342 -2.41292 0.5015
v 2.91591 -2.39045 0.5015
v 2.87697 -2.35516 0.5015
v 2.84995 -2.31008 0.5015
v 2.83718 -2.2591 0.5015
v 2.83976 -2.20661 0.5015
v 2.85746 -2.15713 0.5015
v 2.88877 -2.11492 0.5015
v 2.93098 -2.08361 0.5015
v 2.98046 -2.06591 0.5015
v 3.03296 -2.06333 0.5015
v 3.08394 -2.0761 0.5015
v 3.12901 -2.10312 0.5015
v 3.16431 -2.14206 0.5015
v 3.18678 -2.18956 0.5015
v 3.19449 -2.24155 0.5015
v 3.18086 -2.31008 0.5015
v 3.14203 -2.36818 0.5015
v 3.08394 -2.407 0.5015
v 3.85154 -2.42063 0.5015
v 3.79955 -2.41292 0.5015
v 3.75204 -2.39045 0.5015
v 3.7131 -2.35516 0.5015
v 3.68608 -2.31008 0.5015
v 3.67332 -2.2591 0.5015
v 3.67589 -2.20661 0.5015
v 3.6936 -2.15713 0.5015
v 3.72491 -2.11492 0.5015
v 3.76712 -2.08361 0.5015
v 3.8166 -2.06591 0.5015
v 3.86909 -2.06333 0.5015
v 3.92007 -2.0761 0.5015
v 3.96515 -2.10312 0.5015
v 4.00044 -2.14206 0.5015
v 4.02291 -2.18956 0.5015
v 4.03062 -2.24155 0.5015
v 4.01699 -2.31008 0.5015
v 3.97817 -2.36818 0.5015
v 3.92007 -2.407 0.5015
v 3.25518 2.81808 0.5025
v 3.50391 2.93572 0.5025
v 3.70778 3.12049 0.5025
v 3.84923 3.3565 0.5025
v 3.91609 3.6234 0.5025
v 3.90259 3.89821 0.5025
v 3.80989 4.15728 0.5025
v 3.64599 4.37828 0.5025
v 3.42499 4.54218 0.5025
v 3.16593 4.63488 0.5025
v 2.89111 4.64838 0.5025
v 2.62421 4.58152 0.5025
v 2.3882 4.44007 0.5025
v 2.20343 4.2362 0.5025
v 2.08578 3.98747 0.5025
v 2.04541 3.7153 0.5025
v 2.11711 3.35669 0.5025
v 2.32038 3.05268 0.5025
v 2.6244 2.8494 0.5025
v 2.98301 2.7777 0.5025
v 3.17995 4.36453 0.5025
v 3.35993 4.2794 0.5025
v 3.50745 4.1457 0.5025
v 3.60981 3.97493 0.5025
v 3.65819 3.7818 0.5025
v 3.64842 3.58294 0.5025
v 3.58134 3.39548 0.5025
v 3.46274 3.23557 0.5025
v 3.30282 3.11697 0.5025
v 3.11537 3.04989 0.5025
v 2.91651 3.04012 0.5025
v 2.72338 3.0885 0.5025
v 2.55261 3.19086 0.5025
v 2.4189 3.33838 0.5025
v 2.33378 3.51836 0.5025
v 2.30457 3.7153 0.5025
v 2.35637 3.97483 0.5025
v 2.50346 4.19485 0.5025
v 2.72347 4.34193 0.5025
v 2.98301 4.39374 0.5025
v -3.26924 -0.722727 0.5035
v -3.51797 -0.840368 0.5035
v -3.72184 -1.02515 0.5035
v -3.86329 -1.26115 0.5035
v -3.93015 -1.52805 0.5035
v -3.91665 -1.80287 0.5035
v -3.82395 -2.06193 0.5035
v -3.66005 -2.28293 0.5035
v -3.43905 -2.44684 0.5035
v -3.17998 -2.53953 0.5035
v -2.90517 -2.55303 0.5035
v -2.63826 -2.48618 0.5035
v -2.40226 -2.34472 0.5035
v -2.21748 -2.14085 0.5035
v -2.09984 -1.89212 0.5035
v -2.05947 -1.61995 0.5035
v -2.13117 -1.26134 0.5035
v -2.33444 -0.957327 0.5035
v -2.63845 -0.754051 0.5035
v -2.99707 -0.682354 0.5035
v -3.19401 -2.26918 0.5035
v -3.37399 -2.18405 0.5035
v -3.52151 -2.05035 0.5035
v -3.62387 -1.87958 0.5035
v -3.67224 -1.68645 0.5035
v -3.66247 -1.48759 0.5035
v -3.5954 -1.30013 0.5035
v -3.4768 -1.14022 0.5035
v -3.31688 -1.02162 0.5035
v -3.12942 -0.954543 0.5035
v -2.93057 -0.944774 0.5035
v -2.73744 -0.993151 0.5035
v -2.56667 -1.09551 0.5035
v -2.43296 -1.24303 0.5035
v -2.34784 -1.42301 0.5035
v -2.31862 -1.61995 0.5035
v -2.37043 -1.87948 0.5035
v -2.51751 -2.0995 0.5035
v -2.73753 -2.24659 0.5035
v -2.99707 -2.29839 0.5035
vn 0 0 -1
vn -0.102785 -0.994704 0
vn 0.0484456 -0.998826 0
vn -0.0513923 -0.998679 0
vn 0.0968912 -0.995295 0
vn 0.246086 -0.969248 0
vn 0.345612 -0.938378 0
vn 0.546726 -0.837311 0
vn 0.646327 -0.763061 0
vn 0.83208 -0.554656 0
vn 0.910547 -0.413406 0
vn 0.983975 -0.178304 0
vn 0.996018 -0.089152 0
vn 0.99594 0.0900178 0
vn 0.98366 0.180036 0
vn 0.909905 0.414816 0
vn 0.831867 0.554974 0
vn 0.647707 0.76189 0
vn 0.549213 0.835682 0
vn 0.348935 0.937147 0
vn 0.248978 0.968509 0
vn 0.0985141 0.995136 0
vn 0.0492571 0.998786 0
vn -0.0497578 0.998761 0
vn -0.0995157 0.995036 0
vn -0.250781 0.968044 0
vn -0.351022 0.936367 0
vn -0.551145 0.834409 0
vn -0.649253 0.760572 0
vn -0.832587 0.553895 0
vn -0.910235 0.414092 0
vn -0.9837 0.179817 0
vn -0.99595 0.0899087 0
vn -0.995788 -0.091685 0
vn -0.983044 -0.18337 0
vn -0.908904 -0.417006 0
vn -0.832121 -0.554595 0
vn -0.651982 -0.758234 0
vn -0.556089 -0.831123 0
vn -0.357666 -0.933849 0
vn -0.256581 -0.966523 0
vn 0 0 1
vn -0.096886 -0.995295 0
vn 0.0485747 -0.99882 0
vn -0.048443 -0.998826 0
vn 0.0971494 -0.99527 0
vn 0.247287 -0.968942 0
vn 0.347598 -0.937644 0
vn 0.549913 -0.835222 0
vn 0.649902 -0.760018 0
vn 0.834774 -0.550593 0
vn 0.912258 -0.409615 0
vn 0.98439 -0.176001 0
vn 0.99612 -0.0880003 0
vn 0.996044 0.0888562 0
vn 0.984082 0.177712 0
vn 0.911632 0.411008 0
vn 0.834569 0.550903 0
vn 0.651281 0.758837 0
vn 0.552404 0.833577 0
vn 0.350938 0.936399 0
vn 0.250204 0.968193 0
vn 0.0987946 0.995108 0
vn 0.0493973 0.998779 0
vn -0.0492634 0.998786 0
vn -0.0985269 0.995134 0
vn -0.24899 0.968506 0
vn -0.34894 0.937145 0
vn -0.549207 0.835686 0
vn -0.647695 0.7619 0
vn -0.831867 0.554975 0
vn -0.909915 0.414795 0
vn -0.983666 0.180006 0
vn -0.995942 0.090003 0
vn -0.996019 -0.0891373 0
vn -0.983981 -0.178275 0
vn -0.910556 -0.413387 0
vn -0.832078 -0.554659 0
vn -0.646315 -0.763071 0
vn -0.546721 -0.837315 0
vn -0.345611 -0.938378 0
vn -0.246082 -0.969249 0
vn -0.0824126 0.996598 0
vn -0.368778 0.929518 0
vn -0.164825 0.986323 0
vn -0.487779 0.872967 0
vn -0.695248 0.71877 0
vn -0.783714 0.621122 0
vn -0.916741 0.399482 0
vn -0.961304 0.275491 0
vn -0.995034 0.0995377 0
vn -0.998761 0.0497689 0
vn -0.999893 -0.0146082 0
vn -0.999573 -0.0292164 0
vn -0.993989 -0.109483 0
vn -0.984576 -0.174959 0
vn -0.953084 -0.302705 0
vn -0.931016 -0.364978 0
vn -0.875053 -0.484027 0
vn -0.841151 -0.5408 0
vn -0.762883 -0.646536 0
vn -0.718522 -0.695504 0
vn -0.620984 -0.783823 0
vn -0.5678 -0.823167 0
vn -0.454803 -0.890592 0
vn -0.394995 -0.918683 0
vn -0.270988 -0.962583 0
vn -0.206786 -0.978386 0
vn -0.0948575 -0.995491 0
vn -0.0474288 -0.998875 0
vn 0.0824105 -0.996598 0
vn 0.164821 -0.986324 0
vn 0.368775 -0.929519 0
vn 0.48778 -0.872966 0
vn 0.695251 -0.718767 0
vn 0.783716 -0.621119 0
vn 0.916741 -0.399483 0
vn 0.961302 -0.275496 0
vn 0.995033 -0.0995436 0
vn 0.998761 -0.0497718 0
vn 0.99865 0.0519448 0
vn 0.994589 0.10389 0
vn 0.959879 0.280414 0
vn 0.915288 0.402801 0
vn 0.783241 0.621718 0
vn 0.695785 0.71825 0
vn 0.49093 0.871199 0
vn 0.373531 0.927618 0
vn 0.169145 0.985591 0
vn 0.0845727 0.996417 0
vn -0.0845757 0.996417 0
vn -0.373543 0.927613 0
vn -0.169151 0.98559 0
vn -0.490946 0.87119 0
vn -0.695796 0.718239 0
vn -0.783246 0.621713 0
vn -0.915282 0.402814 0
vn -0.959871 0.280443 0
vn -0.994586 0.103919 0
vn -0.998649 0.0519593 0
vn -0.998761 -0.0497699 0
vn -0.995034 -0.0995398 0
vn -0.961301 -0.275501 0
vn -0.916733 -0.3995 0
vn -0.783696 -0.621144 0
vn -0.695227 -0.71879 0
vn -0.487765 -0.872975 0
vn -0.368776 -0.929518 0
vn -0.164833 -0.986322 0
vn -0.0824163 -0.996598 0
vn 0.047432 -0.998874 0
vn 0.094864 -0.99549 0
vn 0.206768 -0.97839 0
vn 0.270942 -0.962596 0
vn 0.394972 -0.918693 0
vn 0.454825 -0.890581 0
vn 0.567824 -0.82315 0
vn 0.62097 -0.783834 0
vn 0.718499 -0.695528 0
vn 0.762882 -0.646537 0
vn 0.841147 -0.540806 0
vn 0.875031 -0.484067 0
vn 0.931007 -0.365002 0
vn 0.953094 -0.302675 0
vn 0.984586 -0.174901 0
vn 0.993992 -0.109453 0
vn 0.999573 -0.0292163 0
vn 0.999893 -0.0146082 0
vn 0.998761 0.0497718 0
vn 0.995033 0.0995436 0
vn 0.9613 0.275505 0
vn 0.916732 0.399502 0
vn 0.783708 0.621129 0
vn 0.695256 0.718762 0
vn 0.487796 0.872957 0
vn 0.368786 0.929514 0
vn 0.164824 0.986323 0
vn 0.0824119 0.996598 0
vn 0.997834 -0.0657756 0
vn 0.999459 0.0328878 0
vn 0.999459 -0.0328878 0
vn 0.997834 0.0657756 0
vn 0.986505 0.163729 0
vn 0.97355 0.228473 0
vn 0.935186 0.354156 0
vn 0.909778 0.415095 0
vn 0.847498 0.530798 0
vn 0.810628 0.585562 0
vn 0.726851 0.686795 0
vn 0.679945 0.733263 0
vn 0.577925 0.81609 0
vn 0.522811 0.852449 0
vn 0.406524 0.91364 0
vn 0.345351 0.938473 0
vn 0.219323 0.975652 0
vn 0.154467 0.987998 0
vn 0.0595347 0.998226 0
vn 0.0297674 0.999557 0
vn -0.0653105 0.997865 0
vn -0.130621 0.991432 0
vn -0.320723 0.947173 0
vn -0.442966 0.896538 0
vn -0.658777 0.752339 0
vn -0.752342 0.658773 0
vn -0.896539 0.442964 0
vn -0.947173 0.320724 0
vn -0.991432 0.130623 0
vn -0.997865 0.0653117 0
vn -0.997865 -0.0653113 0
vn -0.991432 -0.130623 0
vn -0.947173 -0.320724 0
vn -0.896538 -0.442967 0
vn -0.752342 -0.658772 0
vn -0.658781 -0.752335 0
vn -0.442973 -0.896535 0
vn -0.320725 -0.947172 0
vn -0.130619 -0.991433 0
vn -0.0653097 -0.997865 0
vn 0 -1 0
vn -1 0 0
vn 0 1 0
vn -0.0297678 0.999557 0
vn -0.0595356 0.998226 0
vn -0.15446 0.987999 0
vn -0.219308 0.975656 0
vn -0.345343 0.938477 0
vn -0.406529 0.913638 0
vn -0.522807 0.852451 0
vn -0.577901 0.816107 0
vn -0.679929 0.733278 0
vn -0.726858 0.686788 0
vn -0.810641 0.585543 0
vn -0.847501 0.530794 0
vn -0.909777 0.415097 0
vn -0.93519 0.354147 0
vn -0.97355 0.228473 0
vn -0.986502 0.163749 0
vn -0.997833 0.0658029 0
vn -0.999459 0.0329015 0
vn -0.997684 -0.0680226 0
vn -0.990703 -0.136045 0
vn -0.944766 -0.327747 0
vn -0.893587 -0.44889 0
vn -0.74897 -0.662603 0
vn -0.655528 -0.75517 0
vn -0.440477 -0.897764 0
vn -0.318873 -0.947798 0
vn -0.129844 -0.991534 0
vn -0.0649222 -0.99789 0
vn 0.0676253 -0.997711 0
vn 0.135251 -0.990811 0
vn 0.325898 -0.945405 0
vn 0.44643 -0.894818 0
vn 0.659384 -0.751807 0
vn 0.751807 -0.659384 0
vn 0.894823 -0.44642 0
vn 0.945412 -0.325877 0
vn 0.990814 -0.135229 0
vn 0.997712 -0.0676143 0
vn 0.999557 0.0297675 0
vn 0.998226 0.059535 0
vn 0.987999 0.154459 0
vn 0.975656 0.219306 0
vn 0.938477 0.345341 0
vn 0.913639 0.406527 0
vn 0.852451 0.522808 0
vn 0.816105 0.577904 0
vn 0.733266 0.679942 0
vn 0.686765 0.726879 0
vn 0.585531 0.81065 0
vn 0.530805 0.847494 0
vn 0.415127 0.909763 0
vn 0.354171 0.935181 0
vn 0.228463 0.973553 0
vn 0.163712 0.986508 0
vn 0.0657597 0.997836 0
vn 0.0328798 0.999459 0
vn 1 0 0
vn 0.0297674 -0.999557 0
vn 0.0595347 -0.998226 0
vn 0.154467 -0.987998 0
vn 0.219323 -0.975652 0
vn 0.345351 -0.938473 0
vn 0.406524 -0.91364 0
vn 0.522815 -0.852446 0
vn 0.577932 -0.816085 0
vn 0.679952 -0.733257 0
vn 0.726855 -0.686791 0
vn 0.810628 -0.585562 0
vn 0.847498 -0.530798 0
vn 0.909778 -0.415095 0
vn 0.935186 -0.354156 0
vn 0.97355 -0.228473 0
vn 0.986505 -0.163729 0
vn 0.234763 0.972053 0
vn 0.501483 0.865168 0
vn 0.32631 0.945263 0
vn 0.584798 0.811179 0
vn 0.73205 0.681251 0
vn 0.795989 0.605311 0
vn 0.898932 0.438089 0
vn 0.937937 0.346807 0
vn 0.987627 0.156818 0
vn 0.99831 0.0581108 0
vn 0.990417 -0.138112 0
vn 0.971843 -0.235628 0
vn 0.907058 -0.421006 0
vn 0.860845 -0.508867 0
vn 0.7448 -0.667288 0
vn 0.674967 -0.737848 0
vn 0.51776 -0.855526 0
vn 0.430385 -0.902645 0
vn 0.245683 -0.96935 0
vn 0.148355 -0.988934 0
vn -0.0477667 -0.998859 0
vn -0.14656 -0.989202 0
vn -0.337053 -0.941486 0
vn -0.428753 -0.903422 0
vn -0.597044 -0.802208 0
vn -0.673637 -0.739062 0
vn -0.805078 -0.593169 0
vn -0.859925 -0.510421 0
vn -0.943093 -0.33253 0
vn -0.971415 -0.237389 0
vn -0.999579 -0.0290104 0
vn -0.99641 0.0846555 0
vn -0.947473 0.319835 0
vn -0.897726 0.440555 0
vn -0.756291 0.654235 0
vn -0.664604 0.747196 0
vn -0.452892 0.891566 0
vn -0.332865 0.942974 0
vn -0.0935156 0.995618 0
vn 0.0252018 0.999682 0
vn 0.2503 0.968168 0
vn 0.514168 0.85769 0
vn 0.340992 0.940066 0
vn 0.596331 0.802739 0
vn 0.741146 0.671344 0
vn 0.803798 0.594902 0
vn 0.9042 0.427109 0
vn 0.941949 0.335756 0
vn 0.989282 0.146021 0
vn 0.998865 0.0476373 0
vn 0.989039 -0.147654 0
vn 0.969633 -0.244563 0
vn 0.903504 -0.428579 0
vn 0.856777 -0.515686 0
vn 0.740038 -0.672565 0
vn 0.670026 -0.742338 0
vn 0.512754 -0.858536 0
vn 0.425494 -0.904961 0
vn 0.241252 -0.970462 0
vn 0.144271 -0.989538 0
vn -0.0510559 -0.998696 0
vn -0.149401 -0.988777 0
vn -0.338969 -0.940798 0
vn -0.430191 -0.902738 0
vn -0.597643 -0.801762 0
vn -0.673873 -0.738847 0
vn -0.804771 -0.593585 0
vn -0.859439 -0.511238 0
vn -0.942499 -0.334208 0
vn -0.970891 -0.239524 0
vn -0.999519 -0.0309965 0
vn -0.996523 0.0833156 0
vn -0.947174 0.32072 0
vn -0.896541 0.44296 0
vn -0.752342 0.658773 0
vn -0.658773 0.752342 0
vn -0.44296 0.896541 0
vn -0.32072 0.947174 0
vn -0.0784285 0.99692 0
vn 0.0410001 0.999159 0
vn 0.250299 0.968169 0
vn 0.514163 0.857692 0
vn 0.340988 0.940068 0
vn 0.596329 0.80274 0
vn 0.904203 0.427102 0
vn 0.941954 0.335742 0
vn 0.989283 0.146013 0
vn 0.998864 0.0476452 0
vn 0.98904 -0.147645 0
vn 0.969633 -0.244567 0
vn 0.903501 -0.428586 0
vn 0.856778 -0.515685 0
vn 0.74004 -0.672563 0
vn 0.670023 -0.74234 0
vn 0.512748 -0.858539 0
vn 0.425492 -0.904962 0
vn 0.241254 -0.970462 0
vn 0.144272 -0.989538 0
vn -0.0510539 -0.998696 0
vn -0.149398 -0.988777 0
vn -0.338966 -0.940799 0
vn -0.43019 -0.902738 0
vn -0.597646 -0.80176 0
vn -0.673878 -0.738842 0
vn -0.804776 -0.593578 0
vn -0.859442 -0.511233 0
vn -0.942498 -0.334211 0
vn -0.970888 -0.239534 0
vn -0.999519 -0.0310091 0
vn -0.996524 0.0833086 0
vn -0.947173 0.320723 0
vn -0.896538 0.442968 0
vn -0.752338 0.658777 0
vn -0.658774 0.752341 0
vn -0.442965 0.896539 0
vn -0.320721 0.947174 0
vn -0.0784254 0.99692 0
vn 0.0410031 0.999159 0
vn -0.0653099 0.997865 0
vn -0.320723 0.947173 0
vn -0.13062 0.991433 0
vn -0.442967 0.896538 0
vn -0.658776 0.752339 0
vn -0.752339 0.658776 0
vn -0.896538 0.442967 0
vn -0.947173 0.320722 0
vn -0.991433 0.13062 0
vn -0.997865 0.0653099 0
vn -0.997865 -0.0653106 0
vn -0.991432 -0.130621 0
vn -0.947173 -0.320724 0
vn -0.896537 -0.442968 0
vn -0.752341 -0.658774 0
vn -0.658781 -0.752335 0
vn -0.0653108 0.997865 0
vn -0.130622 0.991432 0
vn -0.32072 0.947174 0
vn -0.44296 0.896542 0
vn -0.658773 0.752342 0
vn -0.752343 0.658772 0
vn -0.896546 0.44295 0
vn -0.94718 0.320701 0
vn -0.991435 0.130603 0
vn -0.997866 0.0653013 0
vn -0.999552 -0.0299192 0
vn -0.998208 -0.0598384 0
vn -0.987867 -0.155302 0
vn -0.97538 -0.220531 0
vn -0.937764 -0.347273 0
vn -0.912631 -0.408784 0
vn -0.850716 -0.525626 0
vn -0.813933 -0.580958 0
vn -0.730181 -0.683254 0
vn -0.683212 -0.73022 0
vn -0.580925 -0.813957 0
vn -0.525606 -0.850728 0
vn -0.408801 -0.912624 0
vn -0.347316 -0.937748 0
vn -0.220582 -0.975369 0
vn -0.155332 -0.987862 0
vn -0.0598452 -0.998208 0
vn -0.0299226 -0.999552 0
vn 0.0299206 -0.999552 0
vn 0.0598413 -0.998208 0
vn 0.155335 -0.987862 0
vn 0.220594 -0.975366 0
vn 0.347318 -0.937747 0
vn 0.408786 -0.91263 0
vn 0.525581 -0.850744 0
vn 0.580906 -0.813971 0
vn 0.683223 -0.73021 0
vn 0.730213 -0.683219 0
vn 0.813953 -0.58093 0
vn 0.850709 -0.525637 0
vn 0.912615 -0.408819 0
vn 0.937757 -0.347291 0
vn 0.975379 -0.220534 0
vn 0.987866 -0.155308 0
vn 0.998208 -0.0598447 0
vn 0.999552 -0.0299223 0
vn 0.997865 0.0653136 0
vn 0.991432 0.130627 0
vn 0.947173 0.320723 0
vn 0.896542 0.442959 0
vn 0.752345 0.658769 0
vn 0.658775 0.75234 0
vn 0.442961 0.896541 0
vn 0.32072 0.947174 0
vn 0.130621 0.991432 0
vn 0.0653105 0.997865 0
vn 0.065311 -0.997865 0
vn 0.130622 -0.991432 0
vn 0.320726 -0.947172 0
vn 0.442971 -0.896536 0
vn 0.658779 -0.752337 0
vn 0.752341 -0.658774 0
vn 0.896538 -0.442967 0
vn 0.947173 -0.320724 0
vn 0.991432 -0.130623 0
vn 0.997865 -0.0653113 0
vn 0.999487 0.0320186 0
vn 0.997948 0.0640372 0
vn 0.986961 0.160957 0
vn 0.974234 0.225542 0
vn 0.936388 0.350967 0
vn 0.91127 0.411808 0
vn 0.849614 0.527405 0
vn 0.813075 0.58216 0
vn 0.729995 0.683453 0
vn 0.683456 0.729992 0
vn 0.582162 0.813073 0
vn 0.527406 0.849613 0
vn 0.411808 0.911271 0
vn 0.350965 0.936388 0
vn 0.22554 0.974234 0
vn 0.160957 0.986961 0
vn 0.0640384 0.997947 0
vn 0.0320192 0.999487 0
vn -0.0822281 0.996614 0
vn 0.242669 0.970109 0
vn 0.0332188 0.999448 0
vn 0.33719 0.941436 0
vn 0.513834 0.85789 0
vn 0.595956 0.803017 0
vn 0.740738 0.671794 0
vn 0.803397 0.595443 0
vn 0.903853 0.427842 0
vn 0.941651 0.336592 0
vn 0.98913 0.147045 0
vn 0.998811 0.048748 0
vn 0.989223 -0.146419 0
vn 0.969954 -0.24329 0
vn 0.904126 -0.427265 0
vn 0.857568 -0.51437 0
vn 0.741166 -0.671321 0
vn 0.671321 -0.741166 0
vn 0.51437 -0.857568 0
vn 0.427265 -0.904126 0
vn 0.243289 -0.969954 0
vn 0.146419 -0.989223 0
vn -0.0487442 -0.998811 0
vn -0.147037 -0.989131 0
vn -0.336588 -0.941652 0
vn -0.427848 -0.903851 0
vn -0.595452 -0.803391 0
vn -0.671798 -0.740735 0
vn -0.803019 -0.595954 0
vn -0.857892 -0.51383 0
vn -0.941438 -0.337186 0
vn -0.970109 -0.242668 0
vn -0.999448 -0.0332206 0
vn -0.996614 0.0822272 0
vn -0.947174 0.32072 0
vn -0.896539 0.442964 0
vn -0.75234 0.658775 0
vn -0.658775 0.75234 0
vn -0.442964 0.896539 0
vn -0.32072 0.947174 0
vn -0.0822272 0.996614 0
vn 0.242668 0.970109 0
vn 0.0332206 0.999448 0
vn 0.337186 0.941438 0
vn 0.513829 0.857893 0
vn 0.595952 0.80302 0
vn 0.740737 0.671795 0
vn 0.803398 0.595442 0
vn 0.903857 0.427835 0
vn 0.941655 0.33658 0
vn 0.989131 0.147039 0
vn 0.998811 0.0487543 0
vn 0.989224 -0.146407 0
vn 0.969955 -0.243284 0
vn 0.904124 -0.42727 0
vn 0.857563 -0.514379 0
vn 0.74116 -0.671329 0
vn 0.671318 -0.74117 0
vn 0.514373 -0.857567 0
vn 0.42727 -0.904124 0
vn 0.243294 -0.969952 0
vn 0.146421 -0.989222 0
vn -0.0487439 -0.998811 0
vn -0.147036 -0.989131 0
vn -0.336585 -0.941653 0
vn -0.427842 -0.903854 0
vn -0.595448 -0.803394 0
vn -0.671797 -0.740735 0
vn -0.80302 -0.595952 0
vn -0.857893 -0.513829 0
vn -0.941437 -0.337188 0
vn -0.970109 -0.242671 0
vn -0.999448 -0.0332236 0
vn -0.996614 0.0822258 0
vn -0.947173 0.320724 0
vn -0.896536 0.442971 0
vn -0.752335 0.65878 0
vn -0.658772 0.752343 0
vn 0.903856 0.427837 0
vn 0.941655 0.336581 0
vn 0.514371 -0.857568 0
vn 0.427266 -0.904126 0
vn 0.24329 -0.969953 0
vn 0.146419 -0.989223 0
vn -0.0487444 -0.998811 0
vn -0.147037 -0.989131 0
vn -0.803015 -0.595958 0
vn -0.857887 -0.513839 0
vn -0.941434 -0.337197 0
vn -0.970108 -0.242673 0
vn -0.999448 -0.0332173 0
vn -0.996613 0.082234 0
vn -0.947171 0.320728 0
vn -0.896537 0.442969 0
vn -0.752339 0.658776 0
vn -0.658774 0.752341 0
vn 0.242673 -0.970108 0
vn 0.51383 -0.857892 0
vn 0.33719 -0.941437 0
vn 0.595955 -0.803018 0
vn 0.740737 -0.671795 0
vn 0.803396 -0.595446 0
vn 0.903852 -0.427844 0
vn 0.94165 -0.336593 0
vn 0.98913 -0.147044 0
vn 0.998811 -0.0487478 0
vn 0.989223 0.146418 0
vn 0.969954 0.243288 0
vn 0.904126 0.427267 0
vn 0.857565 0.514375 0
vn 0.741163 0.671325 0
vn 0.671322 0.741166 0
vn 0.514374 0.857566 0
vn 0.427268 0.904125 0
vn 0.243289 0.969954 0
vn 0.146416 0.989223 0
vn -0.0487502 0.998811 0
vn -0.147044 0.98913 0
vn -0.33659 0.941651 0
vn -0.427843 0.903853 0
vn -0.595445 0.803396 0
vn -0.671795 0.740737 0
vn -0.803018 0.595955 0
vn -0.857891 0.513831 0
vn -0.941437 0.337189 0
vn -0.970109 0.242671 0
vn -0.999459 0.0329023 0
vn -0.99656 -0.0828785 0
vn -0.946929 -0.321444 0
vn -0.896299 -0.44345 0
vn -0.752265 -0.658861 0
vn -0.65886 -0.752266 0
vn -0.44345 -0.896299 0
vn -0.321445 -0.946928 0
vn -0.0828791 -0.99656 0
vn 0.0329037 -0.999459 0
vn -0.242673 -0.970108 0
vn -0.513831 -0.857891 0
vn -0.33719 -0.941437 0
vn -0.595955 -0.803018 0
vn -0.740739 -0.671793 0
vn -0.803399 -0.595441 0
vn -0.903854 -0.427841 0
vn -0.94165 -0.336593 0
vn -0.989129 -0.147048 0
vn -0.998811 -0.0487501 0
vn -0.989223 0.146419 0
vn -0.969953 0.243291 0
vn -0.904124 0.42727 0
vn -0.857564 0.514377 0
vn -0.741164 0.671324 0
vn -0.671323 0.741165 0
vn -0.514376 0.857565 0
vn -0.427269 0.904124 0
vn -0.243289 0.969954 0
vn -0.146416 0.989223 0
vn 0.0487525 0.998811 0
vn 0.147048 0.989129 0
vn 0.336593 0.94165 0
vn 0.427843 0.903853 0
vn 0.595443 0.803398 0
vn 0.671793 0.740739 0
vn 0.803017 0.595956 0
vn 0.857891 0.513832 0
vn 0.941437 0.337189 0
vn 0.970109 0.242671 0
vn 0.999455 0.0330021 0
vn 0.996576 -0.0826761 0
vn 0.947004 -0.321222 0
vn 0.896372 -0.443303 0
vn 0.752287 -0.658836 0
vn 0.658834 -0.752288 0
vn 0.443304 -0.896371 0
vn 0.321225 -0.947003 0
vn 0.0826792 -0.996576 0
vn -0.0330023 -0.999455 0
vn -0.242673 0.970108 0
vn -0.513831 0.857891 0
vn -0.33719 0.941436 0
vn -0.595955 0.803018 0
vn -0.740737 0.671795 0
vn -0.803396 0.595445 0
vn -0.903853 0.427844 0
vn -0.941651 0.336591 0
vn -0.98913 0.147044 0
vn -0.998811 0.0487499 0
vn -0.989223 -0.146416 0
vn -0.969954 -0.243288 0
vn -0.904125 -0.427268 0
vn -0.857565 -0.514376 0
vn -0.741164 -0.671324 0
vn -0.671324 -0.741164 0
vn -0.514376 -0.857565 0
vn -0.427269 -0.904125 0
vn -0.243288 -0.969954 0
vn -0.146415 -0.989223 0
vn 0.0487519 -0.998811 0
vn 0.147045 -0.98913 0
vn 0.336589 -0.941652 0
vn 0.427841 -0.903854 0
vn 0.595444 -0.803397 0
vn 0.671794 -0.740738 0
vn 0.803018 -0.595955 0
vn 0.857892 -0.51383 0
vn 0.941437 -0.337189 0
vn 0.970109 -0.242671 0
vn 0.999459 -0.0329034 0
vn 0.99656 0.0828776 0
vn 0.946929 0.321444 0
vn 0.896299 0.44345 0
vn 0.752265 0.658861 0
vn 0.658861 0.752265 0
vn 0.443451 0.896299 0
vn 0.321446 0.946928 0
vn 0.0828785 0.99656 0
vn -0.0329043 0.999458 0
vn 0.242674 0.970108 0
vn 0.513832 0.857891 0
vn 0.337191 0.941436 0
vn 0.595957 0.803017 0
vn 0.803395 0.595447 0
vn 0.903852 0.427845 0
vn 0.941651 0.336591 0
vn 0.98913 0.147043 0
vn 0.998811 0.0487501 0
vn 0.989223 -0.146416 0
vn 0.969954 -0.243289 0
vn 0.904125 -0.427268 0
vn 0.857566 -0.514374 0
vn 0.741165 -0.671323 0
vn 0.671322 -0.741165 0
vn 0.514374 -0.857566 0
vn 0.427268 -0.904125 0
vn 0.24329 -0.969954 0
vn 0.146416 -0.989223 0
vn -0.0487518 -0.998811 0
vn -0.147047 -0.98913 0
vn -0.336593 -0.94165 0
vn -0.427844 -0.903853 0
vn -0.595444 -0.803397 0
vn -0.671793 -0.740739 0
vn -0.803017 -0.595957 0
vn -0.857891 -0.513832 0
vn -0.941437 -0.337189 0
vn -0.970109 -0.24267 0
vn -0.999455 -0.0330015 0
vn -0.996576 0.082676 0
vn -0.947004 0.321221 0
vn -0.896372 0.443302 0
vn -0.752287 0.658835 0
vn -0.658835 0.752288 0
vn -0.443302 0.896372 0
vn -0.321223 0.947004 0
vn -0.0826768 0.996576 0
vn 0.0330035 0.999455 0
vt 0.745623 0.218274
vt 0.742602 0.21913
vt 0.748164 0.215945
vt 0.749916 0.212503
vt 0.726668 0.21913
vt 0.750569 0.208307
vt 0.750569 0.01289
vt 0.723584 0.218274
vt 0.72105 0.215945
vt 0.719333 0.212503
vt 0.718701 0.208307
vt 0.723584 0.002849
vt 0.726668 0.001992
vt 0.72105 0.005186
vt 0.719333 0.008651
vt 0.742602 0.001992
vt 0.718701 0.01289
vt 0.745718 0.002849
vt 0.748249 0.005186
vt 0.749948 0.008651
vt 0.546435 0.849786
vt 0.546435 0.654369
vt 0.669404 0.849786
vt 0.669404 0.654369
vt 0.546435 0.65013
vt 0.669404 0.65013
vt 0.546435 0.646665
vt 0.669404 0.646665
vt 0.260828 0.825796
vt 0.263359 0.825796
vt 0.260828 0.948766
vt 0.263359 0.948766
vt 0.266475 0.825796
vt 0.266475 0.948766
vt 0.282409 0.825796
vt 0.282409 0.948766
vt 0.285493 0.825796
vt 0.285493 0.948766
vt 0.288027 0.825796
vt 0.288027 0.948766
vt 0.540738 0.646665
vt 0.540738 0.65013
vt 0.417768 0.646665
vt 0.417768 0.65013
vt 0.540738 0.654369
vt 0.417768 0.654369
vt 0.540738 0.849786
vt 0.417768 0.849786
vt 0.540738 0.853982
vt 0.417768 0.853982
vt 0.540738 0.857424
vt 0.417768 0.857424
vt 0.322328 0.948766
vt 0.319794 0.948766
vt 0.322328 0.825796
vt 0.319794 0.825796
vt 0.31671 0.948766
vt 0.31671 0.825796
vt 0.300776 0.948766
vt 0.300776 0.825796
vt 0.297756 0.948766
vt 0.297756 0.825796
vt 0.295214 0.948766
vt 0.295214 0.825796
vt 0.546435 0.857424
vt 0.546435 0.853982
vt 0.669404 0.857424
vt 0.669404 0.853982
vt 0.761558 0.002849
vt 0.764674 0.001992
vt 0.759027 0.005186
vt 0.757328 0.008651
vt 0.780607 0.001992
vt 0.756706 0.01289
vt 0.756706 0.208307
vt 0.783691 0.002849
vt 0.786226 0.005186
vt 0.787943 0.008651
vt 0.788575 0.01289
vt 0.783691 0.218274
vt 0.780607 0.21913
vt 0.786226 0.215945
vt 0.787943 0.212503
vt 0.764674 0.21913
vt 0.788575 0.208307
vt 0.761653 0.218274
vt 0.759112 0.215945
vt 0.75736 0.212503
vt 0.821728 0.218273
vt 0.818613 0.21913
vt 0.824259 0.215936
vt 0.825958 0.212471
vt 0.802679 0.21913
vt 0.82658 0.208232
vt 0.82658 0.012815
vt 0.799595 0.218273
vt 0.797061 0.215936
vt 0.795344 0.212471
vt 0.794712 0.208232
vt 0.799595 0.002838
vt 0.802679 0.001992
vt 0.797061 0.005149
vt 0.795344 0.008587
vt 0.818613 0.001992
vt 0.794712 0.012815
vt 0.821728 0.002838
vt 0.824259 0.005149
vt 0.825958 0.008587
vt 0.803769 0.42592
vt 0.803769 0.230503
vt 0.926738 0.42592
vt 0.926738 0.230503
vt 0.803769 0.226275
vt 0.926738 0.226275
vt 0.803769 0.222837
vt 0.926738 0.222837
vt 0.3296 0.825796
vt 0.332131 0.825796
vt 0.3296 0.948766
vt 0.332131 0.948766
vt 0.335246 0.825796
vt 0.335246 0.948766
vt 0.35118 0.825796
vt 0.35118 0.948766
vt 0.354264 0.825796
vt 0.354264 0.948766
vt 0.356798 0.825796
vt 0.356798 0.948766
vt 0.798071 0.427724
vt 0.798071 0.431162
vt 0.675102 0.427724
vt 0.675102 0.431162
vt 0.798071 0.43539
vt 0.675102 0.43539
vt 0.798071 0.630807
vt 0.675102 0.630807
vt 0.798071 0.635046
vt 0.675102 0.635046
vt 0.798071 0.638511
vt 0.675102 0.638511
vt 0.391184 0.948766
vt 0.38865 0.948766
vt 0.391184 0.825796
vt 0.38865 0.825796
vt 0.385566 0.948766
vt 0.385566 0.825796
vt 0.369632 0.948766
vt 0.369632 0.825796
vt 0.366516 0.948766
vt 0.366516 0.825796
vt 0.363986 0.948766
vt 0.363986 0.825796
vt 0.803769 0.433624
vt 0.803769 0.430159
vt 0.926738 0.433624
vt 0.926738 0.430159
vt 0.837568 0.002838
vt 0.840684 0.001992
vt 0.835038 0.005149
vt 0.833338 0.008587
vt 0.856618 0.001992
vt 0.832717 0.012815
vt 0.832717 0.208232
vt 0.859702 0.002838
vt 0.862236 0.005149
vt 0.863953 0.008587
vt 0.864585 0.012815
vt 0.859702 0.218273
vt 0.856618 0.21913
vt 0.862236 0.215936
vt 0.863953 0.212471
vt 0.840684 0.21913
vt 0.864585 0.208232
vt 0.837568 0.218273
vt 0.835038 0.215936
vt 0.833338 0.212471
vt 0.407262 0.647488
vt 0.409877 0.64944
vt 0.404104 0.646665
vt 0.411563 0.652235
vt 0.412071 0.655459
vt 0.38817 0.646665
vt 0.412071 0.813296
vt 0.384999 0.647469
vt 0.382373 0.64942
vt 0.38069 0.652225
vt 0.380203 0.655459
vt 0.411583 0.81653
vt 0.4099 0.819335
vt 0.407275 0.821286
vt 0.404104 0.82209
vt 0.38817 0.82209
vt 0.386539 0.821856
vt 0.384986 0.821306
vt 0.383571 0.820462
vt 0.38235 0.819356
vt 0.38137 0.818032
vt 0.380669 0.816541
vt 0.380275 0.814942
vt 0.380203 0.813296
vt 0.401542 0.9841
vt 0.398371 0.9841
vt 0.401542 0.861131
vt 0.398371 0.861131
vt 0.13884 0.820503
vt 0.13884 0.818552
vt 0.26181 0.820503
vt 0.26181 0.818552
vt 0.13884 0.815747
vt 0.26181 0.815747
vt 0.13884 0.812512
vt 0.26181 0.812512
vt 0.13884 0.654676
vt 0.26181 0.654676
vt 0.13884 0.65303
vt 0.26181 0.65303
vt 0.13884 0.65143
vt 0.26181 0.65143
vt 0.13884 0.649939
vt 0.26181 0.649939
vt 0.13884 0.648615
vt 0.26181 0.648615
vt 0.13884 0.64751
vt 0.26181 0.64751
vt 0.13884 0.646665
vt 0.26181 0.646665
vt 0.427328 0.861131
vt 0.428881 0.861131
vt 0.427328 0.9841
vt 0.428881 0.9841
vt 0.430511 0.861131
vt 0.430511 0.9841
vt 0.446445 0.861131
vt 0.446445 0.9841
vt 0.449616 0.861131
vt 0.449616 0.9841
vt 0.12482 0.824209
vt 0.12482 0.82616
vt 0.00185 0.824209
vt 0.00185 0.82616
vt 0.12482 0.828965
vt 0.00185 0.828965
vt 0.12482 0.8322
vt 0.00185 0.8322
vt 0.12482 0.990036
vt 0.00185 0.990036
vt 0.12482 0.993261
vt 0.00185 0.993261
vt 0.12482 0.996055
vt 0.00185 0.996055
vt 0.12482 0.998008
vt 0.00185 0.998008
vt 0.420635 0.9841
vt 0.417476 0.9841
vt 0.420635 0.861131
vt 0.417476 0.861131
vt 0.347433 0.821286
vt 0.344808 0.819335
vt 0.350604 0.82209
vt 0.343125 0.81653
vt 0.342637 0.813296
vt 0.366538 0.82209
vt 0.342637 0.655459
vt 0.369697 0.821267
vt 0.372312 0.819315
vt 0.373998 0.81652
vt 0.374505 0.813296
vt 0.369709 0.647469
vt 0.372335 0.64942
vt 0.366538 0.646665
vt 0.374018 0.652225
vt 0.374505 0.655459
vt 0.350604 0.646665
vt 0.348973 0.646899
vt 0.347421 0.647449
vt 0.346006 0.648293
vt 0.344785 0.649399
vt 0.343805 0.650723
vt 0.343104 0.652214
vt 0.342709 0.653813
vt 0.332144 0.647469
vt 0.334769 0.64942
vt 0.328973 0.646665
vt 0.336453 0.652225
vt 0.33694 0.655459
vt 0.313039 0.646665
vt 0.33694 0.813296
vt 0.30988 0.647488
vt 0.307265 0.64944
vt 0.305579 0.652235
vt 0.305072 0.655459
vt 0.309868 0.821286
vt 0.307243 0.819335
vt 0.313039 0.82209
vt 0.305559 0.81653
vt 0.305072 0.813296
vt 0.328973 0.82209
vt 0.330604 0.821856
vt 0.332157 0.821306
vt 0.333571 0.820462
vt 0.334793 0.819356
vt 0.335773 0.818032
vt 0.336474 0.816541
vt 0.336868 0.814942
vt 0.459443 0.9841
vt 0.456284 0.9841
vt 0.459443 0.861131
vt 0.456284 0.861131
vt 0.130525 0.998008
vt 0.130525 0.996055
vt 0.253494 0.998008
vt 0.253494 0.996055
vt 0.130525 0.993261
vt 0.253494 0.993261
vt 0.130525 0.990036
vt 0.253494 0.990036
vt 0.130525 0.8322
vt 0.253494 0.8322
vt 0.130525 0.828965
vt 0.253494 0.828965
vt 0.130525 0.82616
vt 0.253494 0.82616
vt 0.130525 0.824209
vt 0.253494 0.824209
vt 0.48524 0.861131
vt 0.488411 0.861131
vt 0.48524 0.9841
vt 0.488411 0.9841
vt 0.504345 0.861131
vt 0.504345 0.9841
vt 0.505976 0.861131
vt 0.505976 0.9841
vt 0.507529 0.861131
vt 0.507529 0.9841
vt 0.133143 0.646665
vt 0.133143 0.64751
vt 0.010173 0.646665
vt 0.010173 0.64751
vt 0.133143 0.648615
vt 0.010173 0.648615
vt 0.133143 0.649939
vt 0.010173 0.649939
vt 0.133143 0.65143
vt 0.010173 0.65143
vt 0.133143 0.65303
vt 0.010173 0.65303
vt 0.133143 0.654676
vt 0.010173 0.654676
vt 0.133143 0.812512
vt 0.010173 0.812512
vt 0.133143 0.815747
vt 0.010173 0.815747
vt 0.133143 0.818552
vt 0.010173 0.818552
vt 0.133143 0.820503
vt 0.010173 0.820503
vt 0.478548 0.9841
vt 0.475377 0.9841
vt 0.478548 0.861131
vt 0.475377 0.861131
vt 0.272315 0.821267
vt 0.2697 0.819315
vt 0.275474 0.82209
vt 0.268014 0.81652
vt 0.267507 0.813296
vt 0.291408 0.82209
vt 0.267507 0.655459
vt 0.294579 0.821286
vt 0.297204 0.819335
vt 0.298888 0.81653
vt 0.299375 0.813296
vt 0.267994 0.652225
vt 0.269678 0.64942
vt 0.272303 0.647469
vt 0.275474 0.646665
vt 0.291408 0.646665
vt 0.293039 0.646899
vt 0.294592 0.647449
vt 0.296006 0.648293
vt 0.297227 0.649399
vt 0.298208 0.650723
vt 0.298908 0.652214
vt 0.299303 0.653813
vt 0.299375 0.655459
vt 0.577458 0.18631
vt 0.580033 0.188039
vt 0.574421 0.185684
vt 0.581762 0.190613
vt 0.582388 0.193651
vt 0.558562 0.185684
vt 0.582388 0.45115
vt 0.556997 0.185824
vt 0.55549 0.186269
vt 0.5541 0.187
vt 0.55288 0.18799
vt 0.551878 0.189201
vt 0.551134 0.190584
vt 0.550675 0.192087
vt 0.55052 0.193651
vt 0.55052 0.306391
vt 0.581783 0.45421
vt 0.580059 0.45681
vt 0.577475 0.458558
vt 0.574421 0.459192
vt 0.558487 0.459192
vt 0.556923 0.459037
vt 0.555421 0.458579
vt 0.554037 0.457834
vt 0.552827 0.456832
vt 0.551836 0.455612
vt 0.551105 0.454222
vt 0.55066 0.452715
vt 0.485185 0.623286
vt 0.478277 0.633625
vt 0.487611 0.611091
vt 0.467938 0.640533
vt 0.455743 0.642959
vt 0.487611 0.33841
vt 0.380264 0.441313
vt 0.384561 0.436443
vt 0.38725 0.430532
vt 0.388174 0.424092
vt 0.386398 0.415797
vt 0.374733 0.444718
vt 0.033718 0.642959
vt 0.368449 0.446362
vt 0.36196 0.446101
vt 0.355828 0.443958
vt 0.350589 0.44012
vt 0.346697 0.43492
vt 0.381619 0.408789
vt 0.344491 0.428812
vt 0.374545 0.404107
vt 0.344162 0.422325
vt 0.021522 0.640533
vt 0.011184 0.633625
vt 0.004276 0.623286
vt 0.00185 0.611091
vt 0.00185 0.034161
vt 0.34574 0.416025
vt 0.349088 0.410459
vt 0.353913 0.406112
vt 0.359797 0.403361
vt 0.366227 0.402446
vt 0.00241 0.027901
vt 0.004189 0.021873
vt 0.007115 0.016311
vt 0.011077 0.011432
vt 0.015919 0.007425
vt 0.021453 0.004446
vt 0.027464 0.002611
vt 0.033718 0.001992
vt 0.344166 0.216319
vt 0.345753 0.210049
vt 0.455743 0.001992
vt 0.349092 0.204511
vt 0.353897 0.200182
vt 0.359751 0.197435
vt 0.366152 0.196507
vt 0.374579 0.198183
vt 0.381724 0.202957
vt 0.461997 0.002611
vt 0.468008 0.004446
vt 0.473542 0.007425
vt 0.478384 0.011432
vt 0.482345 0.016311
vt 0.485272 0.021873
vt 0.48705 0.027901
vt 0.487611 0.034161
vt 0.487611 0.306391
vt 0.386497 0.210101
vt 0.388174 0.218529
vt 0.387149 0.224926
vt 0.384382 0.230771
vt 0.380036 0.235561
vt 0.374487 0.238882
vt 0.344469 0.222779
vt 0.344469 0.325598
vt 0.346635 0.331692
vt 0.350478 0.336893
vt 0.355666 0.340754
vt 0.344166 0.319138
vt 0.345753 0.312868
vt 0.346635 0.228872
vt 0.349092 0.30733
vt 0.350478 0.234074
vt 0.353897 0.303001
vt 0.355666 0.237935
vt 0.361753 0.342941
vt 0.359751 0.300254
vt 0.361753 0.240122
vt 0.366152 0.299326
vt 0.368212 0.343266
vt 0.368212 0.240447
vt 0.374487 0.341701
vt 0.380036 0.33838
vt 0.384382 0.333591
vt 0.387149 0.327745
vt 0.388174 0.321348
vt 0.374579 0.301002
vt 0.381724 0.305776
vt 0.386497 0.312921
vt 0.55052 0.45115
vt 0.55052 0.33841
vt 0.711367 0.001992
vt 0.711367 0.424017
vt 0.588398 0.001992
vt 0.588398 0.424017
mtllib Starke_IT.mtl
usemtl svgBlinn3SG
f 18/1/1 17/2/1 19/3/1
f 19/3/1 17/2/1 20/4/1
f 17/2/1 16/5/1 20/4/1
f 20/4/1 16/5/1 1/6/1
f 1/6/1 16/5/1 2/7/1
f 16/5/1 15/8/1 2/7/1
f 15/8/1 14/9/1 2/7/1
f 14/9/1 13/10/1 2/7/1
f 13/10/1 12/11/1 2/7/1
f 8/12/1 7/13/1 9/14/1
f 9/14/1 7/13/1 10/15/1
f 7/13/1 6/16/1 10/15/1
f 10/15/1 6/16/1 11/17/1
f 11/17/1 6/16/1 12/11/1
f 6/16/1 5/18/1 12/11/1
f 5/18/1 4/19/1 12/11/1
f 4/19/1 3/20/1 12/11/1
f 12/11/1 3/20/1 2/7/1
f 1/21/2 2/22/3 405/23/4
f 405/23/4 2/22/3 406/24/5
f 2/22/3 3/25/6 406/24/5
f 406/24/5 3/25/6 407/26/7
f 3/25/6 4/27/8 407/26/7
f 407/26/7 4/27/8 408/28/9
f 4/29/8 5/30/10 408/31/9
f 408/31/9 5/30/10 409/32/11
f 5/30/10 6/33/12 409/32/11
f 409/32/11 6/33/12 410/34/13
f 6/33/12 7/35/14 410/34/13
f 410/34/13 7/35/14 411/36/15
f 7/35/14 8/37/16 411/36/15
f 411/36/15 8/37/16 412/38/17
f 8/37/16 9/39/18 412/38/17
f 412/38/17 9/39/18 413/40/19
f 9/41/18 10/42/20 413/43/19
f 413/43/19 10/42/20 414/44/21
f 10/42/20 11/45/22 414/44/21
f 414/44/21 11/45/22 415/46/23
f 11/45/22 12/47/24 415/46/23
f 415/46/23 12/47/24 416/48/25
f 12/47/24 13/49/26 416/48/25
f 416/48/25 13/49/26 417/50/27
f 13/49/26 14/51/28 417/50/27
f 417/50/27 14/51/28 418/52/29
f 14/53/28 15/54/30 418/55/29
f 418/55/29 15/54/30 419/56/31
f 15/54/30 16/57/32 419/56/31
f 419/56/31 16/57/32 420/58/33
f 16/57/32 17/59/34 420/58/33
f 420/58/33 17/59/34 421/60/35
f 17/59/34 18/61/36 421/60/35
f 421/60/35 18/61/36 422/62/37
f 18/61/36 19/63/38 422/62/37
f 422/62/37 19/63/38 423/64/39
f 19/65/38 20/66/40 423/67/39
f 423/67/39 20/66/40 424/68/41
f 20/66/40 1/21/2 424/68/41
f 424/68/41 1/21/2 405/23/4
f 409/69/42 410/70/42 408/71/42
f 408/71/42 410/70/42 407/72/42
f 410/70/42 411/73/42 407/72/42
f 407/72/42 411/73/42 406/74/42
f 406/74/42 411/73/42 405/75/42
f 411/73/42 412/76/42 405/75/42
f 412/76/42 413/77/42 405/75/42
f 413/77/42 414/78/42 405/75/42
f 414/78/42 415/79/42 405/75/42
f 419/80/42 420/81/42 418/82/42
f 418/82/42 420/81/42 417/83/42
f 420/81/42 421/84/42 417/83/42
f 417/83/42 421/84/42 416/85/42
f 416/85/42 421/84/42 415/79/42
f 421/84/42 422/86/42 415/79/42
f 422/86/42 423/87/42 415/79/42
f 423/87/42 424/88/42 415/79/42
f 405/75/42 415/79/42 424/88/42
f 38/89/1 37/90/1 39/91/1
f 39/91/1 37/90/1 40/92/1
f 37/90/1 36/93/1 40/92/1
f 40/92/1 36/93/1 21/94/1
f 21/94/1 36/93/1 22/95/1
f 36/93/1 35/96/1 22/95/1
f 35/96/1 34/97/1 22/95/1
f 34/97/1 33/98/1 22/95/1
f 33/98/1 32/99/1 22/95/1
f 28/100/1 27/101/1 29/102/1
f 29/102/1 27/101/1 30/103/1
f 27/101/1 26/104/1 30/103/1
f 30/103/1 26/104/1 31/105/1
f 31/105/1 26/104/1 32/99/1
f 26/104/1 25/106/1 32/99/1
f 25/106/1 24/107/1 32/99/1
f 24/107/1 23/108/1 32/99/1
f 32/99/1 23/108/1 22/95/1
f 21/109/43 22/110/44 425/111/45
f 425/111/45 22/110/44 426/112/46
f 22/110/44 23/113/47 426/112/46
f 426/112/46 23/113/47 427/114/48
f 23/113/47 24/115/49 427/114/48
f 427/114/48 24/115/49 428/116/50
f 24/117/49 25/118/51 428/119/50
f 428/119/50 25/118/51 429/120/52
f 25/118/51 26/121/53 429/120/52
f 429/120/52 26/121/53 430/122/54
f 26/121/53 27/123/55 430/122/54
f 430/122/54 27/123/55 431/124/56
f 27/123/55 28/125/57 431/124/56
f 431/124/56 28/125/57 432/126/58
f 28/125/57 29/127/59 432/126/58
f 432/126/58 29/127/59 433/128/60
f 29/129/59 30/130/61 433/131/60
f 433/131/60 30/130/61 434/132/62
f 30/130/61 31/133/63 434/132/62
f 434/132/62 31/133/63 435/134/64
f 31/133/63 32/135/65 435/134/64
f 435/134/64 32/135/65 436/136/66
f 32/135/65 33/137/67 436/136/66
f 436/136/66 33/137/67 437/138/68
f 33/137/67 34/139/69 437/138/68
f 437/138/68 34/139/69 438/140/70
f 34/141/69 35/142/71 438/143/70
f 438/143/70 35/142/71 439/144/72
f 35/142/71 36/145/73 439/144/72
f 439/144/72 36/145/73 440/146/74
f 36/145/73 37/147/75 440/146/74
f 440/146/74 37/147/75 441/148/76
f 37/147/75 38/149/77 441/148/76
f 441/148/76 38/149/77 442/150/78
f 38/149/77 39/151/79 442/150/78
f 442/150/78 39/151/79 443/152/80
f 39/153/79 40/154/81 443/155/80
f 443/155/80 40/154/81 444/156/82
f 40/154/81 21/109/43 444/156/82
f 444/156/82 21/109/43 425/111/45
f 429/157/42 430/158/42 428/159/42
f 428/159/42 430/158/42 427/160/42
f 430/158/42 431/161/42 427/160/42
f 427/160/42 431/161/42 426/162/42
f 426/162/42 431/161/42 425/163/42
f 431/161/42 432/164/42 425/163/42
f 432/164/42 433/165/42 425/163/42
f 433/165/42 434/166/42 425/163/42
f 434/166/42 435/167/42 425/163/42
f 439/168/42 440/169/42 438/170/42
f 438/170/42 440/169/42 437/171/42
f 440/169/42 441/172/42 437/171/42
f 437/171/42 441/172/42 436/173/42
f 436/173/42 441/172/42 435/167/42
f 441/172/42 442/174/42 435/167/42
f 442/174/42 443/175/42 435/167/42
f 443/175/42 444/176/42 435/167/42
f 425/163/42 435/167/42 444/176/42
f 63/177/1 62/178/1 64/179/1
f 62/178/1 61/180/1 64/179/1
f 61/180/1 60/181/1 64/179/1
f 64/179/1 60/181/1 41/182/1
f 60/181/1 59/183/1 41/182/1
f 41/182/1 59/183/1 42/184/1
f 42/184/1 59/183/1 43/185/1
f 43/185/1 59/183/1 44/186/1
f 44/186/1 59/183/1 45/187/1
f 58/188/1 57/189/1 59/183/1
f 57/189/1 56/190/1 59/183/1
f 56/190/1 55/191/1 59/183/1
f 59/183/1 55/191/1 45/187/1
f 55/191/1 54/192/1 45/187/1
f 54/192/1 53/193/1 45/187/1
f 53/193/1 52/194/1 45/187/1
f 52/194/1 51/195/1 45/187/1
f 51/195/1 50/196/1 45/187/1
f 50/196/1 49/197/1 45/187/1
f 49/197/1 48/198/1 45/187/1
f 47/199/1 46/200/1 48/198/1
f 48/198/1 46/200/1 45/187/1
f 41/201/83 42/202/84 445/203/85
f 445/203/85 42/202/84 446/204/86
f 42/205/84 43/206/87 446/207/86
f 446/207/86 43/206/87 447/208/88
f 43/206/87 44/209/89 447/208/88
f 447/208/88 44/209/89 448/210/90
f 44/209/89 45/211/91 448/210/90
f 448/210/90 45/211/91 449/212/92
f 45/211/91 46/213/93 449/212/92
f 449/212/92 46/213/93 450/214/94
f 46/213/93 47/215/95 450/214/94
f 450/214/94 47/215/95 451/216/96
f 47/215/95 48/217/97 451/216/96
f 451/216/96 48/217/97 452/218/98
f 48/217/97 49/219/99 452/218/98
f 452/218/98 49/219/99 453/220/100
f 49/219/99 50/221/101 453/220/100
f 453/220/100 50/221/101 454/222/102
f 50/221/101 51/223/103 454/222/102
f 454/222/102 51/223/103 455/224/104
f 51/223/103 52/225/105 455/224/104
f 455/224/104 52/225/105 456/226/106
f 52/227/105 53/228/107 456/229/106
f 456/229/106 53/228/107 457/230/108
f 53/228/107 54/231/109 457/230/108
f 457/230/108 54/231/109 458/232/110
f 54/231/109 55/233/111 458/232/110
f 458/232/110 55/233/111 459/234/112
f 55/233/111 56/235/113 459/234/112
f 459/234/112 56/235/113 460/236/114
f 56/237/113 57/238/115 460/239/114
f 460/239/114 57/238/115 461/240/116
f 57/238/115 58/241/117 461/240/116
f 461/240/116 58/241/117 462/242/118
f 58/241/117 59/243/119 462/242/118
f 462/242/118 59/243/119 463/244/120
f 59/243/119 60/245/121 463/244/120
f 463/244/120 60/245/121 464/246/122
f 60/245/121 61/247/123 464/246/122
f 464/246/122 61/247/123 465/248/124
f 61/247/123 62/249/125 465/248/124
f 465/248/124 62/249/125 466/250/126
f 62/249/125 63/251/127 466/250/126
f 466/250/126 63/251/127 467/252/128
f 63/253/127 64/254/129 467/255/128
f 467/255/128 64/254/129 468/256/130
f 64/254/129 41/201/83 468/256/130
f 468/256/130 41/201/83 445/203/85
f 446/257/42 447/258/42 445/259/42
f 447/258/42 448/260/42 445/259/42
f 448/260/42 449/261/42 445/259/42
f 445/259/42 449/261/42 468/262/42
f 449/261/42 450/263/42 468/262/42
f 468/262/42 450/263/42 467/264/42
f 467/264/42 450/263/42 466/265/42
f 466/265/42 450/263/42 465/266/42
f 465/266/42 450/263/42 464/267/42
f 460/268/42 461/269/42 459/270/42
f 461/269/42 462/271/42 459/270/42
f 462/271/42 463/272/42 459/270/42
f 459/270/42 463/272/42 458/273/42
f 463/272/42 464/267/42 458/273/42
f 458/273/42 464/267/42 457/274/42
f 457/274/42 464/267/42 456/275/42
f 456/275/42 464/267/42 455/276/42
f 455/276/42 464/267/42 454/277/42
f 454/277/42 464/267/42 453/278/42
f 453/278/42 464/267/42 452/279/42
f 452/279/42 464/267/42 451/280/42
f 450/263/42 451/280/42 464/267/42
f 87/281/1 86/282/1 88/283/1
f 86/282/1 85/284/1 88/283/1
f 85/284/1 84/285/1 88/283/1
f 88/283/1 84/285/1 65/286/1
f 84/285/1 83/287/1 65/286/1
f 65/286/1 83/287/1 66/288/1
f 66/288/1 83/287/1 67/289/1
f 67/289/1 83/287/1 68/290/1
f 68/290/1 83/287/1 69/291/1
f 73/292/1 72/293/1 74/294/1
f 72/293/1 71/295/1 74/294/1
f 71/295/1 70/296/1 74/294/1
f 74/294/1 70/296/1 75/297/1
f 70/296/1 69/291/1 75/297/1
f 75/297/1 69/291/1 76/298/1
f 76/298/1 69/291/1 77/299/1
f 77/299/1 69/291/1 78/300/1
f 78/300/1 69/291/1 79/301/1
f 79/301/1 69/291/1 80/302/1
f 80/302/1 69/291/1 81/303/1
f 81/303/1 69/291/1 82/304/1
f 83/287/1 82/304/1 69/291/1
f 65/305/131 66/306/132 469/307/133
f 469/307/133 66/306/132 470/308/134
f 66/309/132 67/310/135 470/311/134
f 470/311/134 67/310/135 471/312/136
f 67/310/135 68/313/137 471/312/136
f 471/312/136 68/313/137 472/314/138
f 68/313/137 69/315/139 472/314/138
f 472/314/138 69/315/139 473/316/140
f 69/315/139 70/317/141 473/316/140
f 473/316/140 70/317/141 474/318/142
f 70/317/141 71/319/143 474/318/142
f 474/318/142 71/319/143 475/320/144
f 71/319/143 72/321/145 475/320/144
f 475/320/144 72/321/145 476/322/146
f 72/321/145 73/323/147 476/322/146
f 476/322/146 73/323/147 477/324/148
f 73/325/147 74/326/149 477/327/148
f 477/327/148 74/326/149 478/328/150
f 74/326/149 75/329/151 478/328/150
f 478/328/150 75/329/151 479/330/152
f 75/329/151 76/331/153 479/330/152
f 479/330/152 76/331/153 480/332/154
f 76/331/153 77/333/155 480/332/154
f 480/332/154 77/333/155 481/334/156
f 77/335/155 78/336/157 481/337/156
f 481/337/156 78/336/157 482/338/158
f 78/336/157 79/339/159 482/338/158
f 482/338/158 79/339/159 483/340/160
f 79/339/159 80/341/161 483/340/160
f 483/340/160 80/341/161 484/342/162
f 80/341/161 81/343/163 484/342/162
f 484/342/162 81/343/163 485/344/164
f 81/343/163 82/345/165 485/344/164
f 485/344/164 82/345/165 486/346/166
f 82/345/165 83/347/167 486/346/166
f 486/346/166 83/347/167 487/348/168
f 83/347/167 84/349/169 487/348/168
f 487/348/168 84/349/169 488/350/170
f 84/349/169 85/351/171 488/350/170
f 488/350/170 85/351/171 489/352/172
f 85/351/171 86/353/173 489/352/172
f 489/352/172 86/353/173 490/354/174
f 86/353/173 87/355/175 490/354/174
f 490/354/174 87/355/175 491/356/176
f 87/357/175 88/358/177 491/359/176
f 491/359/176 88/358/177 492/360/178
f 88/358/177 65/305/131 492/360/178
f 492/360/178 65/305/131 469/307/133
f 470/361/42 471/362/42 469/363/42
f 471/362/42 472/364/42 469/363/42
f 472/364/42 473/365/42 469/363/42
f 469/363/42 473/365/42 492/366/42
f 473/365/42 474/367/42 492/366/42
f 492/366/42 474/367/42 491/368/42
f 491/368/42 474/367/42 490/369/42
f 490/369/42 474/367/42 489/370/42
f 489/370/42 474/367/42 488/371/42
f 475/372/42 476/373/42 474/367/42
f 476/373/42 477/374/42 474/367/42
f 477/374/42 478/375/42 474/367/42
f 474/367/42 478/375/42 488/371/42
f 478/375/42 479/376/42 488/371/42
f 479/376/42 480/377/42 488/371/42
f 480/377/42 481/378/42 488/371/42
f 481/378/42 482/379/42 488/371/42
f 482/379/42 483/380/42 488/371/42
f 483/380/42 484/381/42 488/371/42
f 484/381/42 485/382/42 488/371/42
f 486/383/42 487/384/42 485/382/42
f 485/382/42 487/384/42 488/371/42
f 128/385/1 127/386/1 129/387/1
f 127/386/1 126/388/1 129/387/1
f 126/388/1 125/389/1 129/387/1
f 129/387/1 125/389/1 130/390/1
f 125/389/1 124/391/1 130/390/1
f 130/390/1 124/391/1 131/392/1
f 131/392/1 124/391/1 132/393/1
f 132/393/1 124/391/1 133/394/1
f 133/394/1 124/391/1 134/395/1
f 134/395/1 124/391/1 135/396/1
f 135/396/1 124/391/1 136/397/1
f 136/397/1 124/391/1 137/398/1
f 137/398/1 124/391/1 138/399/1
f 138/399/1 124/391/1 139/400/1
f 124/391/1 123/401/1 139/400/1
f 123/401/1 122/402/1 139/400/1
f 122/402/1 121/403/1 139/400/1
f 121/403/1 120/404/1 139/400/1
f 120/404/1 119/405/1 139/400/1
f 119/405/1 118/406/1 139/400/1
f 118/406/1 117/407/1 139/400/1
f 117/407/1 116/408/1 139/400/1
f 116/408/1 115/409/1 139/400/1
f 115/409/1 114/410/1 139/400/1
f 114/410/1 113/411/1 139/400/1
f 113/411/1 112/412/1 139/400/1
f 107/413/1 106/414/1 108/415/1
f 106/414/1 105/416/1 108/415/1
f 105/416/1 104/417/1 108/415/1
f 108/415/1 104/417/1 109/418/1
f 104/417/1 151/419/1 109/418/1
f 151/419/1 150/420/1 109/418/1
f 150/420/1 149/421/1 109/418/1
f 149/421/1 168/422/1 109/418/1
f 168/422/1 167/423/1 109/418/1
f 151/419/1 104/417/1 152/424/1
f 104/417/1 103/425/1 152/424/1
f 152/424/1 103/425/1 153/426/1
f 153/426/1 103/425/1 154/427/1
f 154/427/1 103/425/1 155/428/1
f 155/428/1 103/425/1 156/429/1
f 156/429/1 103/425/1 157/430/1
f 167/423/1 166/431/1 109/418/1
f 157/430/1 103/425/1 158/432/1
f 166/431/1 165/433/1 109/418/1
f 158/432/1 103/425/1 159/434/1
f 103/425/1 102/435/1 159/434/1
f 102/435/1 101/436/1 159/434/1
f 101/436/1 100/437/1 159/434/1
f 100/437/1 99/438/1 159/434/1
f 99/438/1 98/439/1 159/434/1
f 159/434/1 98/439/1 160/440/1
f 160/440/1 98/439/1 161/441/1
f 161/441/1 98/439/1 162/442/1
f 162/442/1 98/439/1 163/443/1
f 163/443/1 98/439/1 164/444/1
f 98/439/1 97/445/1 164/444/1
f 97/445/1 96/446/1 164/444/1
f 96/446/1 95/447/1 164/444/1
f 95/447/1 94/448/1 164/444/1
f 94/448/1 93/449/1 164/444/1
f 93/449/1 92/450/1 164/444/1
f 92/450/1 91/451/1 164/444/1
f 91/451/1 90/452/1 164/444/1
f 199/453/1 90/452/1 200/454/1
f 90/452/1 89/455/1 200/454/1
f 200/454/1 89/455/1 201/456/1
f 201/456/1 89/455/1 202/457/1
f 202/457/1 89/455/1 203/458/1
f 203/458/1 89/455/1 204/459/1
f 204/459/1 89/455/1 205/460/1
f 205/460/1 89/455/1 206/461/1
f 89/455/1 148/462/1 206/461/1
f 148/462/1 147/463/1 206/461/1
f 147/463/1 146/464/1 206/461/1
f 146/464/1 145/465/1 206/461/1
f 145/465/1 144/466/1 206/461/1
f 144/466/1 143/467/1 206/461/1
f 143/467/1 142/468/1 206/461/1
f 142/468/1 141/469/1 206/461/1
f 141/469/1 140/470/1 206/461/1
f 206/461/1 140/470/1 207/471/1
f 207/471/1 140/470/1 208/472/1
f 208/472/1 140/470/1 189/473/1
f 189/473/1 140/470/1 190/474/1
f 190/474/1 140/470/1 191/475/1
f 191/475/1 140/470/1 192/476/1
f 199/453/1 198/477/1 90/452/1
f 90/452/1 178/478/1 164/444/1
f 178/478/1 177/479/1 164/444/1
f 177/479/1 176/480/1 164/444/1
f 176/480/1 175/481/1 164/444/1
f 178/478/1 90/452/1 179/482/1
f 90/452/1 198/477/1 179/482/1
f 179/482/1 198/477/1 180/483/1
f 198/477/1 197/484/1 180/483/1
f 180/483/1 197/484/1 181/485/1
f 197/484/1 196/486/1 181/485/1
f 181/485/1 196/486/1 182/487/1
f 196/486/1 195/488/1 182/487/1
f 175/481/1 174/489/1 164/444/1
f 182/487/1 195/488/1 183/490/1
f 195/488/1 194/491/1 183/490/1
f 183/490/1 194/491/1 184/492/1
f 174/489/1 173/493/1 164/444/1
f 194/491/1 193/494/1 184/492/1
f 164/444/1 173/493/1 165/433/1
f 165/433/1 173/493/1 109/418/1
f 173/493/1 172/495/1 109/418/1
f 172/495/1 171/496/1 109/418/1
f 171/496/1 170/497/1 109/418/1
f 170/497/1 169/498/1 109/418/1
f 169/498/1 188/499/1 109/418/1
f 184/492/1 193/494/1 185/500/1
f 193/494/1 192/476/1 185/500/1
f 192/476/1 140/470/1 185/500/1
f 185/500/1 140/470/1 186/501/1
f 186/501/1 140/470/1 187/502/1
f 187/502/1 140/470/1 188/499/1
f 188/499/1 140/470/1 109/418/1
f 140/470/1 139/400/1 109/418/1
f 111/503/1 110/504/1 112/412/1
f 112/412/1 110/504/1 139/400/1
f 139/400/1 110/504/1 109/418/1
f 89/505/179 90/506/180 493/507/181
f 493/507/181 90/506/180 494/508/182
f 90/452/180 91/451/183 494/508/182
f 494/508/182 91/451/183 495//184
f 91/451/183 92/450/185 495//184
f 495//184 92/450/185 496//186
f 92/450/185 93/449/187 496//186
f 496//186 93/449/187 497//188
f 93/449/187 94/448/189 497//188
f 497//188 94/448/189 498//190
f 94/448/189 95/447/191 498//190
f 498//190 95/447/191 499//192
f 95/447/191 96/446/193 499//192
f 499//192 96/446/193 500//194
f 96/446/193 97/445/195 500//194
f 500//194 97/445/195 501//196
f 97/445/195 98/439/197 501//196
f 501//196 98/439/197 502//198
f 98/439/197 99/438/199 502//198
f 502//198 99/438/199 503//200
f 99/438/199 100/437/201 503//200
f 503//200 100/437/201 504//202
f 100/437/201 101/436/203 504//202
f 504//202 101/436/203 505//204
f 101/436/203 102/435/205 505//204
f 505//204 102/435/205 506//206
f 102/435/205 103/425/207 506//206
f 506//206 103/425/207 507//208
f 103/425/207 104/417/209 507//208
f 507//208 104/417/209 508//210
f 104/417/209 105/416/211 508//210
f 508//210 105/416/211 509//212
f 105/416/211 106/414/213 509//212
f 509//212 106/414/213 510//214
f 106/414/213 107/413/215 510//214
f 510//214 107/413/215 511//216
f 107/413/215 108/415/217 511//216
f 511//216 108/415/217 512//218
f 108/415/217 109/418/219 512//218
f 512//218 109/418/219 513//219
f 109/418/220 110/504/220 513//220
f 513//220 110/504/220 514//220
f 110/504/221 111/503/222 514//221
f 514//221 111/503/222 515//223
f 111/503/222 112/412/224 515//223
f 515//223 112/412/224 516//225
f 112/412/224 113/411/226 516//225
f 516//225 113/411/226 517//227
f 113/411/226 114/410/228 517//227
f 517//227 114/410/228 518//229
f 114/410/228 115/409/230 518//229
f 518//229 115/409/230 519//231
f 115/409/230 116/408/232 519//231
f 519//231 116/408/232 520//233
f 116/408/232 117/407/234 520//233
f 520//233 117/407/234 521//235
f 117/407/234 118/406/236 521//235
f 521//235 118/406/236 522//237
f 118/406/236 119/405/238 522//237
f 522//237 119/405/238 523//239
f 119/405/238 120/404/240 523//239
f 523//239 120/404/240 524//241
f 120/404/240 121/403/242 524//241
f 524//241 121/403/242 525//243
f 121/403/242 122/402/244 525//243
f 525//243 122/402/244 526//245
f 122/402/244 123/401/246 526//245
f 526//245 123/401/246 527//247
f 123/401/246 124/391/248 527//247
f 527//247 124/391/248 528//249
f 124/391/248 125/389/250 528//249
f 528//249 125/389/250 529//251
f 125/389/250 126/388/252 529//251
f 529//251 126/388/252 530//253
f 126/388/252 127/386/254 530//253
f 530//253 127/386/254 531//255
f 127/386/254 128/385/256 531//255
f 531//255 128/385/256 532//257
f 128/385/256 129/387/258 532//257
f 532//257 129/387/258 533//259
f 129/387/258 130/390/260 533//259
f 533//259 130/390/260 534//261
f 130/390/260 131/392/262 534//261
f 534//261 131/392/262 535//263
f 131/392/262 132/393/264 535//263
f 535//263 132/393/264 536//265
f 132/393/264 133/394/266 536//265
f 536//265 133/394/266 537//267
f 133/394/266 134/395/268 537//267
f 537//267 134/395/268 538//269
f 134/395/268 135/396/270 538//269
f 538//269 135/396/270 539//271
f 135/396/270 136/397/272 539//271
f 539//271 136/397/272 540//273
f 136/397/272 137/398/274 540//273
f 540//273 137/398/274 541//275
f 137/398/274 138/399/276 541//275
f 541//275 138/399/276 542//277
f 138/399/276 139/400/221 542//277
f 542//277 139/400/221 543//221
f 139/400/278 140/470/278 543//278
f 543//278 140/470/278 544//278
f 140/470/219 141/469/279 544//219
f 544//219 141/469/279 545//280
f 141/469/279 142/468/281 545//280
f 545//280 142/468/281 546//282
f 142/468/281 143/467/283 546//282
f 546//282 143/467/283 547//284
f 143/467/283 144/466/285 547//284
f 547//284 144/466/285 548//286
f 144/466/285 145/465/287 548//286
f 548//286 145/465/287 549//288
f 145/465/287 146/464/289 549//288
f 549//288 146/464/289 550//290
f 146/464/289 147/463/291 550//290
f 550//290 147/463/291 551//292
f 147/463/291 148/462/293 551//292
f 551//292 148/462/293 552//294
f 148/462/293 89/455/179 552//294
f 552//294 89/455/179 493/507/181
f 149/421/295 150/420/296 553//297
f 553//297 150/420/296 554//298
f 150/420/296 151/419/299 554//298
f 554//298 151/419/299 555//300
f 151/419/299 152/424/301 555//300
f 555//300 152/424/301 556//302
f 152/424/301 153/426/303 556//302
f 556//302 153/426/303 557//304
f 153/426/303 154/427/305 557//304
f 557//304 154/427/305 558//306
f 154/427/305 155/428/307 558//306
f 558//306 155/428/307 559//308
f 155/428/307 156/429/309 559//308
f 559//308 156/429/309 560//310
f 156/429/309 157/430/311 560//310
f 560//310 157/430/311 561//312
f 157/430/311 158/432/313 561//312
f 561//312 158/432/313 562//314
f 158/432/313 159/434/315 562//314
f 562//314 159/434/315 563//316
f 159/434/315 160/440/317 563//316
f 563//316 160/440/317 564//318
f 160/440/317 161/441/319 564//318
f 564//318 161/441/319 565//320
f 161/441/319 162/442/321 565//320
f 565//320 162/442/321 566//322
f 162/442/321 163/443/323 566//322
f 566//322 163/443/323 567//324
f 163/443/323 164/444/325 567//324
f 567//324 164/444/325 568//326
f 164/444/325 165/433/327 568//326
f 568//326 165/433/327 569//328
f 165/433/327 166/431/329 569//328
f 569//328 166/431/329 570//330
f 166/431/329 167/423/331 570//330
f 570//330 167/423/331 571//332
f 167/423/331 168/422/333 571//332
f 571//332 168/422/333 572//334
f 168/422/333 149/421/295 572//334
f 572//334 149/421/295 553//297
f 169/498/335 170/497/336 573//337
f 573//337 170/497/336 574//338
f 170/497/336 171/496/339 574//338
f 574//338 171/496/339 575//340
f 171/496/339 172/495/341 575//340
f 575//340 172/495/341 576//342
f 172/495/341 173/493/343 576//342
f 576//342 173/493/343 577//344
f 173/493/343 174/489/345 577//344
f 577//344 174/489/345 578//346
f 174/489/345 175/481/347 578//346
f 578//346 175/481/347 579//348
f 175/481/347 176/480/349 579//348
f 579//348 176/480/349 580//350
f 176/480/349 177/479/351 580//350
f 580//350 177/479/351 581//352
f 177/479/351 178/478/353 581//352
f 581//352 178/478/353 582//354
f 178/478/353 179/482/355 582//354
f 582//354 179/482/355 583//356
f 179/482/355 180/483/357 583//356
f 583//356 180/483/357 584//358
f 180/483/357 181/485/359 584//358
f 584//358 181/485/359 585//360
f 181/485/359 182/487/361 585//360
f 585//360 182/487/361 586//362
f 182/487/361 183/490/363 586//362
f 586//362 183/490/363 587//364
f 183/490/363 184/492/365 587//364
f 587//364 184/492/365 588//366
f 184/492/365 185/500/367 588//366
f 588//366 185/500/367 589//368
f 185/500/367 186/501/369 589//368
f 589//368 186/501/369 590//370
f 186/501/369 187/502/371 590//370
f 590//370 187/502/371 591//372
f 187/502/371 188/499/373 591//372
f 591//372 188/499/373 592//374
f 188/499/373 169/498/335 592//374
f 592//374 169/498/335 573//337
f 189/473/375 190/474/376 593//377
f 593//377 190/474/376 594//378
f 190/474/376 191/475/339 594//378
f 594//378 191/475/339 595//340
f 191/475/339 192/476/379 595//340
f 595//340 192/476/379 596//380
f 192/476/379 193/494/381 596//380
f 596//380 193/494/381 597//382
f 193/494/381 194/491/383 597//382
f 597//382 194/491/383 598//384
f 194/491/383 195/488/385 598//384
f 598//384 195/488/385 599//386
f 195/488/385 196/486/387 599//386
f 599//386 196/486/387 600//388
f 196/486/387 197/484/389 600//388
f 600//388 197/484/389 601//390
f 197/484/389 198/477/391 601//390
f 601//390 198/477/391 602//392
f 198/477/391 199/453/393 602//392
f 602//392 199/453/393 603//394
f 199/453/393 200/454/395 603//394
f 603//394 200/454/395 604//396
f 200/454/395 201/456/397 604//396
f 604//396 201/456/397 605//398
f 201/456/397 202/457/399 605//398
f 605//398 202/457/399 606//400
f 202/457/399 203/458/401 606//400
f 606//400 203/458/401 607//402
f 203/458/401 204/459/403 607//402
f 607//402 204/459/403 608//404
f 204/459/403 205/460/405 608//404
f 608//404 205/460/405 609//406
f 205/460/405 206/461/407 609//406
f 609//406 206/461/407 610//408
f 206/461/407 207/471/409 610//408
f 610//408 207/471/409 611//410
f 207/471/409 208/472/411 611//410
f 611//410 208/472/411 612//412
f 208/472/411 189/473/375 612//412
f 612//412 189/473/375 593//377
f 504//42 505//42 503//42
f 505//42 506//42 503//42
f 506//42 507//42 503//42
f 503//42 507//42 502//42
f 507//42 508//42 502//42
f 508//42 509//42 502//42
f 509//42 510//42 502//42
f 510//42 511//42 502//42
f 511//42 512//42 502//42
f 559//42 512//42 558//42
f 558//42 512//42 557//42
f 557//42 512//42 556//42
f 556//42 512//42 555//42
f 512//42 513//42 555//42
f 555//42 513//42 554//42
f 554//42 513//42 553//42
f 553//42 513//42 572//42
f 572//42 513//42 571//42
f 571//42 513//42 570//42
f 570//42 513//42 569//42
f 502//42 512//42 501//42
f 501//42 512//42 500//42
f 500//42 512//42 499//42
f 569//42 513//42 568//42
f 525//42 526//42 524//42
f 526//42 527//42 524//42
f 527//42 528//42 524//42
f 524//42 528//42 523//42
f 528//42 529//42 523//42
f 523//42 529//42 522//42
f 522//42 529//42 521//42
f 521//42 529//42 520//42
f 520//42 529//42 519//42
f 519//42 529//42 518//42
f 518//42 529//42 517//42
f 517//42 529//42 516//42
f 516//42 529//42 515//42
f 515//42 529//42 514//42
f 529//42 530//42 514//42
f 530//42 531//42 514//42
f 531//42 532//42 514//42
f 532//42 533//42 514//42
f 533//42 534//42 514//42
f 534//42 535//42 514//42
f 535//42 536//42 514//42
f 536//42 537//42 514//42
f 537//42 538//42 514//42
f 538//42 539//42 514//42
f 539//42 540//42 514//42
f 540//42 541//42 514//42
f 493/507/42 494/508/42 552//42
f 495//42 496//42 494/508/42
f 497//42 498//42 496//42
f 496//42 498//42 494/508/42
f 498//42 499//42 494/508/42
f 494/508/42 499//42 552//42
f 542//42 543//42 541//42
f 541//42 543//42 514//42
f 514//42 543//42 513//42
f 543//42 544//42 513//42
f 513//42 544//42 568//42
f 544//42 545//42 568//42
f 568//42 545//42 573//42
f 573//42 545//42 592//42
f 592//42 545//42 591//42
f 591//42 545//42 590//42
f 590//42 545//42 589//42
f 589//42 545//42 588//42
f 568//42 573//42 567//42
f 573//42 574//42 567//42
f 574//42 575//42 567//42
f 575//42 576//42 567//42
f 576//42 577//42 567//42
f 577//42 578//42 567//42
f 578//42 579//42 567//42
f 567//42 579//42 566//42
f 588//42 545//42 587//42
f 579//42 580//42 566//42
f 566//42 580//42 565//42
f 587//42 545//42 586//42
f 580//42 581//42 565//42
f 565//42 581//42 564//42
f 545//42 546//42 586//42
f 546//42 547//42 586//42
f 547//42 548//42 586//42
f 548//42 549//42 586//42
f 549//42 593//42 586//42
f 593//42 594//42 586//42
f 593//42 549//42 612//42
f 594//42 595//42 586//42
f 612//42 549//42 611//42
f 595//42 596//42 586//42
f 596//42 597//42 586//42
f 611//42 549//42 610//42
f 597//42 598//42 586//42
f 610//42 549//42 609//42
f 549//42 550//42 609//42
f 550//42 551//42 609//42
f 551//42 552//42 609//42
f 552//42 499//42 609//42
f 609//42 499//42 608//42
f 608//42 499//42 607//42
f 607//42 499//42 606//42
f 606//42 499//42 605//42
f 605//42 499//42 604//42
f 598//42 599//42 586//42
f 604//42 499//42 603//42
f 603//42 499//42 602//42
f 599//42 600//42 586//42
f 586//42 600//42 585//42
f 602//42 499//42 601//42
f 600//42 601//42 585//42
f 601//42 499//42 585//42
f 585//42 499//42 584//42
f 584//42 499//42 583//42
f 583//42 499//42 582//42
f 582//42 499//42 581//42
f 581//42 499//42 564//42
f 564//42 499//42 563//42
f 563//42 499//42 562//42
f 559//42 560//42 512//42
f 512//42 560//42 499//42
f 560//42 561//42 499//42
f 499//42 561//42 562//42
f 254//1 253//1 255//1
f 253//1 252//1 255//1
f 252//1 251//1 255//1
f 255//1 251//1 256//1
f 251//1 322//1 256//1
f 322//1 321//1 256//1
f 321//1 320//1 256//1
f 320//1 319//1 256//1
f 319//1 318//1 256//1
f 322//1 251//1 323//1
f 251//1 250//1 323//1
f 323//1 250//1 324//1
f 324//1 250//1 305//1
f 305//1 250//1 306//1
f 306//1 250//1 307//1
f 318//1 317//1 256//1
f 307//1 250//1 308//1
f 317//1 316//1 256//1
f 308//1 250//1 309//1
f 316//1 315//1 256//1
f 309//1 250//1 310//1
f 256//1 315//1 257//1
f 257//1 315//1 258//1
f 258//1 315//1 259//1
f 259//1 315//1 260//1
f 260//1 315//1 261//1
f 261//1 315//1 262//1
f 262//1 315//1 263//1
f 263//1 315//1 264//1
f 264//1 315//1 209//1
f 315//1 314//1 209//1
f 314//1 313//1 209//1
f 313//1 312//1 209//1
f 312//1 311//1 209//1
f 209//1 311//1 210//1
f 210//1 311//1 211//1
f 211//1 311//1 212//1
f 212//1 311//1 213//1
f 275//1 274//1 213//1
f 213//1 274//1 214//1
f 274//1 273//1 214//1
f 273//1 272//1 214//1
f 272//1 271//1 214//1
f 271//1 270//1 214//1
f 270//1 269//1 214//1
f 269//1 268//1 214//1
f 214//1 268//1 215//1
f 215//1 268//1 216//1
f 216//1 268//1 217//1
f 217//1 268//1 218//1
f 218//1 268//1 219//1
f 268//1 267//1 219//1
f 267//1 266//1 219//1
f 266//1 265//1 219//1
f 265//1 284//1 219//1
f 284//1 283//1 219//1
f 283//1 282//1 219//1
f 275//1 213//1 276//1
f 213//1 296//1 276//1
f 276//1 296//1 277//1
f 296//1 295//1 277//1
f 213//1 311//1 296//1
f 296//1 311//1 297//1
f 295//1 294//1 277//1
f 297//1 311//1 298//1
f 277//1 294//1 278//1
f 294//1 293//1 278//1
f 298//1 311//1 299//1
f 278//1 293//1 279//1
f 293//1 292//1 279//1
f 299//1 311//1 300//1
f 279//1 292//1 280//1
f 292//1 291//1 280//1
f 280//1 291//1 281//1
f 300//1 311//1 301//1
f 311//1 310//1 301//1
f 310//1 250//1 301//1
f 301//1 250//1 302//1
f 302//1 250//1 303//1
f 303//1 250//1 304//1
f 291//1 290//1 281//1
f 304//1 250//1 285//1
f 281//1 290//1 282//1
f 282//1 290//1 219//1
f 290//1 289//1 219//1
f 289//1 288//1 219//1
f 288//1 287//1 219//1
f 287//1 286//1 219//1
f 286//1 285//1 219//1
f 285//1 250//1 219//1
f 250//1 249//1 219//1
f 219//1 249//1 220//1
f 247//1 246//1 248//1
f 246//1 245//1 248//1
f 245//1 244//1 248//1
f 248//1 244//1 249//1
f 244//1 243//1 249//1
f 243//1 242//1 249//1
f 242//1 241//1 249//1
f 241//1 240//1 249//1
f 240//1 239//1 249//1
f 239//1 238//1 249//1
f 238//1 237//1 249//1
f 237//1 236//1 249//1
f 236//1 235//1 249//1
f 235//1 234//1 249//1
f 249//1 234//1 220//1
f 234//1 233//1 220//1
f 233//1 232//1 220//1
f 232//1 231//1 220//1
f 231//1 230//1 220//1
f 230//1 229//1 220//1
f 229//1 228//1 220//1
f 228//1 227//1 220//1
f 227//1 226//1 220//1
f 226//1 225//1 220//1
f 225//1 224//1 220//1
f 224//1 223//1 220//1
f 223//1 222//1 220//1
f 222//1 221//1 220//1
f 209//413 210//414 613//415
f 613//415 210//414 614//416
f 210//414 211//417 614//416
f 614//416 211//417 615//418
f 211//417 212//419 615//418
f 615//418 212//419 616//420
f 212//419 213//421 616//420
f 616//420 213//421 617//422
f 213//421 214//423 617//422
f 617//422 214//423 618//424
f 214//423 215//425 618//424
f 618//424 215//425 619//426
f 215//425 216//427 619//426
f 619//426 216//427 620//428
f 216//427 217//215 620//428
f 620//428 217//215 621//216
f 217//215 218//217 621//216
f 621//216 218//217 622//218
f 218//217 219//219 622//218
f 622//218 219//219 623//219
f 219//220 220//220 623//220
f 623//220 220//220 624//220
f 220//221 221//429 624//221
f 624//221 221//429 625//430
f 221//429 222//431 625//430
f 625//430 222//431 626//432
f 222//431 223//433 626//432
f 626//432 223//433 627//434
f 223//433 224//435 627//434
f 627//434 224//435 628//436
f 224//435 225//437 628//436
f 628//436 225//437 629//438
f 225//437 226//439 629//438
f 629//438 226//439 630//440
f 226//439 227//441 630//440
f 630//440 227//441 631//442
f 227//441 228//443 631//442
f 631//442 228//443 632//444
f 228//443 229//445 632//444
f 632//444 229//445 633//446
f 229//445 230//447 633//446
f 633//446 230//447 634//448
f 230//447 231//449 634//448
f 634//448 231//449 635//450
f 231//449 232//451 635//450
f 635//450 232//451 636//452
f 232//451 233//453 636//452
f 636//452 233//453 637//454
f 233//453 234//455 637//454
f 637//454 234//455 638//456
f 234//455 235//457 638//456
f 638//456 235//457 639//458
f 235//457 236//459 639//458
f 639//458 236//459 640//460
f 236//459 237//461 640//460
f 640//460 237//461 641//462
f 237//461 238//463 641//462
f 641//462 238//463 642//464
f 238//463 239//465 642//464
f 642//464 239//465 643//466
f 239//465 240//467 643//466
f 643//466 240//467 644//468
f 240//467 241//469 644//468
f 644//468 241//469 645//470
f 241//469 242//471 645//470
f 645//470 242//471 646//472
f 242//471 243//473 646//472
f 646//472 243//473 647//474
f 243//473 244//475 647//474
f 647//474 244//475 648//476
f 244//475 245//477 648//476
f 648//476 245//477 649//478
f 245//477 246//479 649//478
f 649//478 246//479 650//480
f 246//479 247//481 650//480
f 650//480 247//481 651//482
f 247//481 248//483 651//482
f 651//482 248//483 652//484
f 248//483 249//221 652//484
f 652//484 249//221 653//221
f 249//278 250//278 653//278
f 653//278 250//278 654//278
f 250//219 251//485 654//219
f 654//219 251//485 655//486
f 251//485 252//487 655//486
f 655//486 252//487 656//488
f 252//487 253//489 656//488
f 656//488 253//489 657//490
f 253//489 254//491 657//490
f 657//490 254//491 658//492
f 254//491 255//493 658//492
f 658//492 255//493 659//494
f 255//493 256//495 659//494
f 659//494 256//495 660//496
f 256//495 257//497 660//496
f 660//496 257//497 661//498
f 257//497 258//499 661//498
f 661//498 258//499 662//500
f 258//499 259//501 662//500
f 662//500 259//501 663//502
f 259//501 260//503 663//502
f 663//502 260//503 664//504
f 260//503 261//505 664//504
f 664//504 261//505 665//506
f 261//505 262//507 665//506
f 665//506 262//507 666//508
f 262//507 263//509 666//508
f 666//508 263//509 667//510
f 263//509 264//511 667//510
f 667//510 264//511 668//512
f 264//511 209//413 668//512
f 668//512 209//413 613//415
f 265//513 266//514 669//515
f 669//515 266//514 670//516
f 266//514 267//517 670//516
f 670//516 267//517 671//518
f 267//517 268//519 671//518
f 671//518 268//519 672//520
f 268//519 269//521 672//520
f 672//520 269//521 673//522
f 269//521 270//523 673//522
f 673//522 270//523 674//524
f 270//523 271//525 674//524
f 674//524 271//525 675//526
f 271//525 272//527 675//526
f 675//526 272//527 676//528
f 272//527 273//529 676//528
f 676//528 273//529 677//530
f 273//529 274//531 677//530
f 677//530 274//531 678//532
f 274//531 275//533 678//532
f 678//532 275//533 679//534
f 275//533 276//535 679//534
f 679//534 276//535 680//536
f 276//535 277//537 680//536
f 680//536 277//537 681//538
f 277//537 278//539 681//538
f 681//538 278//539 682//540
f 278//539 279//541 682//540
f 682//540 279//541 683//542
f 279//541 280//543 683//542
f 683//542 280//543 684//544
f 280//543 281//545 684//544
f 684//544 281//545 685//546
f 281//545 282//547 685//546
f 685//546 282//547 686//548
f 282//547 283//549 686//548
f 686//548 283//549 687//550
f 283//549 284//551 687//550
f 687//550 284//551 688//552
f 284//551 265//513 688//552
f 688//552 265//513 669//515
f 285//553 286//554 689//555
f 689//555 286//554 690//556
f 286//554 287//557 690//556
f 690//556 287//557 691//558
f 287//557 288//559 691//558
f 691//558 288//559 692//560
f 288//559 289//561 692//560
f 692//560 289//561 693//562
f 289//561 290//563 693//562
f 693//562 290//563 694//564
f 290//563 291//565 694//564
f 694//564 291//565 695//566
f 291//565 292//567 695//566
f 695//566 292//567 696//568
f 292//567 293//569 696//568
f 696//568 293//569 697//570
f 293//569 294//571 697//570
f 697//570 294//571 698//572
f 294//571 295//573 698//572
f 698//572 295//573 699//574
f 295//573 296//575 699//574
f 699//574 296//575 700//576
f 296//575 297//577 700//576
f 700//576 297//577 701//578
f 297//577 298//579 701//578
f 701//578 298//579 702//580
f 298//579 299//581 702//580
f 702//580 299//581 703//582
f 299//581 300//583 703//582
f 703//582 300//583 704//584
f 300//583 301//585 704//584
f 704//584 301//585 705//586
f 301//585 302//587 705//586
f 705//586 302//587 706//588
f 302//587 303//589 706//588
f 706//588 303//589 707//590
f 303//589 304//551 707//590
f 707//590 304//551 708//552
f 304//551 285//553 708//552
f 708//552 285//553 689//555
f 305//513 306//514 709//515
f 709//515 306//514 710//516
f 306//514 307//517 710//516
f 710//516 307//517 711//518
f 307//517 308//519 711//518
f 711//518 308//519 712//520
f 308//519 309//591 712//520
f 712//520 309//591 713//592
f 309//591 310//563 713//592
f 713//592 310//563 714//564
f 310//563 311//565 714//564
f 714//564 311//565 715//566
f 311//565 312//527 715//566
f 715//566 312//527 716//528
f 312//527 313//529 716//528
f 716//528 313//529 717//530
f 313//529 314//593 717//530
f 717//530 314//593 718//594
f 314//593 315//595 718//594
f 718//594 315//595 719//596
f 315//595 316//597 719//596
f 719//596 316//597 720//598
f 316//597 317//537 720//598
f 720//598 317//537 721//538
f 317//537 318//539 721//538
f 721//538 318//539 722//540
f 318//539 319//599 722//540
f 722//540 319//599 723//600
f 319//599 320//601 723//600
f 723//600 320//601 724//602
f 320//601 321//603 724//602
f 724//602 321//603 725//604
f 321//603 322//605 725//604
f 725//604 322//605 726//606
f 322//605 323//607 726//606
f 726//606 323//607 727//608
f 323//607 324//551 727//608
f 727//608 324//551 728//552
f 324//551 305//513 728//552
f 728//552 305//513 709//515
f 614//42 615//42 613//42
f 615//42 616//42 613//42
f 616//42 617//42 613//42
f 613//42 617//42 668//42
f 617//42 618//42 668//42
f 618//42 619//42 668//42
f 619//42 620//42 668//42
f 620//42 621//42 668//42
f 621//42 622//42 668//42
f 676//42 622//42 675//42
f 675//42 622//42 674//42
f 674//42 622//42 673//42
f 673//42 622//42 672//42
f 622//42 623//42 672//42
f 672//42 623//42 671//42
f 671//42 623//42 670//42
f 670//42 623//42 669//42
f 669//42 623//42 688//42
f 688//42 623//42 687//42
f 687//42 623//42 686//42
f 668//42 622//42 667//42
f 667//42 622//42 666//42
f 666//42 622//42 665//42
f 686//42 623//42 685//42
f 685//42 623//42 684//42
f 626//42 627//42 625//42
f 627//42 628//42 625//42
f 628//42 629//42 625//42
f 625//42 629//42 624//42
f 629//42 630//42 624//42
f 630//42 631//42 624//42
f 631//42 632//42 624//42
f 632//42 633//42 624//42
f 633//42 634//42 624//42
f 634//42 635//42 624//42
f 635//42 636//42 624//42
f 636//42 637//42 624//42
f 637//42 638//42 624//42
f 638//42 639//42 624//42
f 649//42 650//42 648//42
f 650//42 651//42 648//42
f 651//42 652//42 648//42
f 648//42 652//42 647//42
f 652//42 653//42 647//42
f 647//42 653//42 646//42
f 646//42 653//42 645//42
f 645//42 653//42 644//42
f 644//42 653//42 643//42
f 643//42 653//42 642//42
f 642//42 653//42 641//42
f 641//42 653//42 640//42
f 640//42 653//42 639//42
f 639//42 653//42 624//42
f 624//42 653//42 623//42
f 653//42 654//42 623//42
f 623//42 654//42 684//42
f 654//42 690//42 684//42
f 690//42 691//42 684//42
f 691//42 692//42 684//42
f 692//42 693//42 684//42
f 693//42 694//42 684//42
f 690//42 654//42 689//42
f 694//42 695//42 684//42
f 689//42 654//42 708//42
f 654//42 655//42 708//42
f 708//42 655//42 707//42
f 707//42 655//42 706//42
f 706//42 655//42 705//42
f 695//42 696//42 684//42
f 684//42 696//42 683//42
f 705//42 655//42 704//42
f 696//42 697//42 683//42
f 683//42 697//42 682//42
f 704//42 655//42 703//42
f 697//42 698//42 682//42
f 655//42 656//42 703//42
f 656//42 710//42 703//42
f 710//42 711//42 703//42
f 711//42 712//42 703//42
f 710//42 656//42 709//42
f 712//42 713//42 703//42
f 709//42 656//42 728//42
f 713//42 714//42 703//42
f 728//42 656//42 727//42
f 714//42 715//42 703//42
f 727//42 656//42 726//42
f 715//42 716//42 703//42
f 726//42 656//42 725//42
f 656//42 657//42 725//42
f 657//42 658//42 725//42
f 658//42 659//42 725//42
f 659//42 660//42 725//42
f 725//42 660//42 724//42
f 724//42 660//42 723//42
f 723//42 660//42 722//42
f 722//42 660//42 721//42
f 721//42 660//42 720//42
f 716//42 717//42 703//42
f 720//42 660//42 719//42
f 703//42 717//42 702//42
f 660//42 661//42 719//42
f 661//42 662//42 719//42
f 662//42 663//42 719//42
f 663//42 664//42 719//42
f 664//42 665//42 719//42
f 719//42 665//42 718//42
f 717//42 718//42 702//42
f 718//42 665//42 702//42
f 702//42 665//42 701//42
f 701//42 665//42 700//42
f 700//42 665//42 699//42
f 682//42 698//42 681//42
f 699//42 665//42 698//42
f 698//42 665//42 681//42
f 681//42 665//42 680//42
f 680//42 665//42 679//42
f 676//42 677//42 622//42
f 622//42 677//42 665//42
f 677//42 678//42 665//42
f 678//42 679//42 665//42
f 343//1 342//1 344//1
f 342//1 341//1 344//1
f 341//1 357//1 344//1
f 357//1 356//1 344//1
f 357//1 341//1 358//1
f 356//1 355//1 344//1
f 358//1 341//1 359//1
f 341//1 340//1 359//1
f 359//1 340//1 360//1
f 355//1 354//1 344//1
f 344//1 354//1 325//1
f 354//1 353//1 325//1
f 325//1 353//1 326//1
f 353//1 352//1 326//1
f 326//1 352//1 327//1
f 352//1 351//1 327//1
f 327//1 351//1 328//1
f 351//1 350//1 328//1
f 328//1 350//1 329//1
f 350//1 349//1 329//1
f 329//1 349//1 330//1
f 349//1 348//1 330//1
f 330//1 348//1 331//1
f 348//1 347//1 331//1
f 331//1 347//1 332//1
f 347//1 346//1 332//1
f 332//1 346//1 333//1
f 346//1 345//1 333//1
f 333//1 345//1 334//1
f 345//1 364//1 334//1
f 334//1 364//1 335//1
f 364//1 363//1 335//1
f 335//1 363//1 336//1
f 340//1 339//1 360//1
f 360//1 339//1 361//1
f 339//1 338//1 361//1
f 361//1 338//1 362//1
f 338//1 337//1 362//1
f 362//1 337//1 363//1
f 363//1 337//1 336//1
f 325//609 326//610 729//611
f 729//611 326//610 730//612
f 326//610 327//613 730//612
f 730//612 327//613 731//614
f 327//613 328//615 731//614
f 731//614 328//615 732//616
f 328//615 329//617 732//616
f 732//616 329//617 733//618
f 329//617 330//619 733//618
f 733//618 330//619 734//620
f 330//619 331//621 734//620
f 734//620 331//621 735//622
f 331//621 332//623 735//622
f 735//622 332//623 736//624
f 332//623 333//625 736//624
f 736//624 333//625 737//626
f 333//625 334//627 737//626
f 737//626 334//627 738//628
f 334//627 335//629 738//628
f 738//628 335//629 739//630
f 335//629 336//631 739//630
f 739//630 336//631 740//632
f 336//631 337//633 740//632
f 740//632 337//633 741//634
f 337//633 338//635 741//634
f 741//634 338//635 742//636
f 338//635 339//637 742//636
f 742//636 339//637 743//638
f 339//637 340//639 743//638
f 743//638 340//639 744//640
f 340//639 341//641 744//640
f 744//640 341//641 745//642
f 341//641 342//643 745//642
f 745//642 342//643 746//644
f 342//643 343//645 746//644
f 746//644 343//645 747//646
f 343//645 344//647 747//646
f 747//646 344//647 748//648
f 344//647 325//609 748//648
f 748//648 325//609 729//611
f 345//649 346//650 749//651
f 749//651 346//650 750//652
f 346//650 347//653 750//652
f 750//652 347//653 751//654
f 347//653 348//655 751//654
f 751//654 348//655 752//656
f 348//655 349//657 752//656
f 752//656 349//657 753//658
f 349//657 350//659 753//658
f 753//658 350//659 754//660
f 350//659 351//661 754//660
f 754//660 351//661 755//662
f 351//661 352//663 755//662
f 755//662 352//663 756//664
f 352//663 353//665 756//664
f 756//664 353//665 757//666
f 353//665 354//667 757//666
f 757//666 354//667 758//668
f 354//667 355//669 758//668
f 758//668 355//669 759//670
f 355//669 356//671 759//670
f 759//670 356//671 760//672
f 356//671 357//673 760//672
f 760//672 357//673 761//674
f 357//673 358//675 761//674
f 761//674 358//675 762//676
f 358//675 359//677 762//676
f 762//676 359//677 763//678
f 359//677 360//679 763//678
f 763//678 360//679 764//680
f 360//679 361//681 764//680
f 764//680 361//681 765//682
f 361//681 362//683 765//682
f 765//682 362//683 766//684
f 362//683 363//685 766//684
f 766//684 363//685 767//686
f 363//685 364//687 767//686
f 767//686 364//687 768//688
f 364//687 345//649 768//688
f 768//688 345//649 749//651
f 745//42 746//42 744//42
f 746//42 747//42 744//42
f 747//42 761//42 744//42
f 761//42 762//42 744//42
f 762//42 763//42 744//42
f 763//42 764//42 744//42
f 761//42 747//42 760//42
f 747//42 748//42 760//42
f 760//42 748//42 759//42
f 759//42 748//42 758//42
f 748//42 729//42 758//42
f 758//42 729//42 757//42
f 729//42 730//42 757//42
f 757//42 730//42 756//42
f 730//42 731//42 756//42
f 756//42 731//42 755//42
f 731//42 732//42 755//42
f 755//42 732//42 754//42
f 732//42 733//42 754//42
f 754//42 733//42 753//42
f 733//42 734//42 753//42
f 753//42 734//42 752//42
f 734//42 735//42 752//42
f 752//42 735//42 751//42
f 735//42 736//42 751//42
f 751//42 736//42 750//42
f 736//42 737//42 750//42
f 750//42 737//42 749//42
f 737//42 738//42 749//42
f 749//42 738//42 768//42
f 738//42 739//42 768//42
f 744//42 764//42 743//42
f 764//42 765//42 743//42
f 743//42 765//42 742//42
f 765//42 766//42 742//42
f 742//42 766//42 741//42
f 766//42 767//42 741//42
f 741//42 767//42 740//42
f 740//42 767//42 739//42
f 739//42 767//42 768//42
f 383//1 382//1 384//1
f 382//1 381//1 384//1
f 381//1 397//1 384//1
f 397//1 396//1 384//1
f 397//1 381//1 398//1
f 396//1 395//1 384//1
f 398//1 381//1 399//1
f 381//1 380//1 399//1
f 399//1 380//1 400//1
f 395//1 394//1 384//1
f 384//1 394//1 365//1
f 394//1 393//1 365//1
f 365//1 393//1 366//1
f 393//1 392//1 366//1
f 366//1 392//1 367//1
f 392//1 391//1 367//1
f 367//1 391//1 368//1
f 391//1 390//1 368//1
f 368//1 390//1 369//1
f 390//1 389//1 369//1
f 369//1 389//1 370//1
f 389//1 388//1 370//1
f 370//1 388//1 371//1
f 388//1 387//1 371//1
f 371//1 387//1 372//1
f 387//1 386//1 372//1
f 372//1 386//1 373//1
f 386//1 385//1 373//1
f 373//1 385//1 374//1
f 385//1 404//1 374//1
f 374//1 404//1 375//1
f 404//1 403//1 375//1
f 375//1 403//1 376//1
f 380//1 379//1 400//1
f 400//1 379//1 401//1
f 379//1 378//1 401//1
f 401//1 378//1 402//1
f 378//1 377//1 402//1
f 402//1 377//1 403//1
f 403//1 377//1 376//1
f 365//689 366//690 769//691
f 769//691 366//690 770//692
f 366//690 367//693 770//692
f 770//692 367//693 771//694
f 367//693 368//695 771//694
f 771//694 368//695 772//696
f 368//695 369//697 772//696
f 772//696 369//697 773//698
f 369//697 370//699 773//698
f 773//698 370//699 774//700
f 370//699 371//701 774//700
f 774//700 371//701 775//702
f 371//701 372//703 775//702
f 775//702 372//703 776//704
f 372//703 373//705 776//704
f 776//704 373//705 777//706
f 373//705 374//707 777//706
f 777//706 374//707 778//708
f 374//707 375//709 778//708
f 778//708 375//709 779//710
f 375//709 376//711 779//710
f 779//710 376//711 780//712
f 376//711 377//713 780//712
f 780//712 377//713 781//714
f 377//713 378//715 781//714
f 781//714 378//715 782//716
f 378//715 379//717 782//716
f 782//716 379//717 783//718
f 379//717 380//719 783//718
f 783//718 380//719 784//720
f 380//719 381//721 784//720
f 784//720 381//721 785//722
f 381//721 382//723 785//722
f 785//722 382//723 786//724
f 382//723 383//725 786//724
f 786//724 383//725 787//726
f 383//725 384//727 787//726
f 787//726 384//727 788//728
f 384//727 365//689 788//728
f 788//728 365//689 769//691
f 385//729 386//730 789//731
f 789//731 386//730 790//732
f 386//730 387//559 790//732
f 790//732 387//559 791//733
f 387//559 388//734 791//733
f 791//733 388//734 792//735
f 388//734 389//736 792//735
f 792//735 389//736 793//737
f 389//736 390//738 793//737
f 793//737 390//738 794//739
f 390//738 391//740 794//739
f 794//739 391//740 795//741
f 391//740 392//742 795//741
f 795//741 392//742 796//743
f 392//742 393//744 796//743
f 796//743 393//744 797//745
f 393//744 394//746 797//745
f 797//745 394//746 798//747
f 394//746 395//748 798//747
f 798//747 395//748 799//749
f 395//748 396//750 799//749
f 799//749 396//750 800//751
f 396//750 397//752 800//751
f 800//751 397//752 801//753
f 397//752 398//754 801//753
f 801//753 398//754 802//755
f 398//754 399//756 802//755
f 802//755 399//756 803//757
f 399//756 400//758 803//757
f 803//757 400//758 804//759
f 400//758 401//760 804//759
f 804//759 401//760 805//761
f 401//760 402//762 805//761
f 805//761 402//762 806//763
f 402//762 403//764 806//763
f 806//763 403//764 807//765
f 403//764 404//766 807//765
f 807//765 404//766 808//767
f 404//766 385//729 808//767
f 808//767 385//729 789//731
f 785//42 786//42 784//42
f 786//42 787//42 784//42
f 787//42 801//42 784//42
f 801//42 802//42 784//42
f 802//42 803//42 784//42
f 803//42 804//42 784//42
f 801//42 787//42 800//42
f 787//42 788//42 800//42
f 800//42 788//42 799//42
f 799//42 788//42 798//42
f 788//42 769//42 798//42
f 798//42 769//42 797//42
f 769//42 770//42 797//42
f 797//42 770//42 796//42
f 770//42 771//42 796//42
f 796//42 771//42 795//42
f 771//42 772//42 795//42
f 795//42 772//42 794//42
f 772//42 773//42 794//42
f 794//42 773//42 793//42
f 773//42 774//42 793//42
f 793//42 774//42 792//42
f 774//42 775//42 792//42
f 792//42 775//42 791//42
f 775//42 776//42 791//42
f 791//42 776//42 790//42
f 776//42 777//42 790//42
f 790//42 777//42 789//42
f 777//42 778//42 789//42
f 789//42 778//42 808//42
f 778//42 779//42 808//42
f 784//42 804//42 783//42
f 804//42 805//42 783//42
f 783//42 805//42 782//42
f 805//42 806//42 782//42
f 782//42 806//42 781//42
f 806//42 807//42 781//42
f 781//42 807//42 780//42
f 780//42 807//42 779//42
f 779//42 807//42 808//42
