# 3ds Max Wavefront OBJ Exporter v0.97b - (c)2007 guruware
# File Created: 09.01.2019 14:37:19

newmtl wire_015015015
	Ns 32
	d 1
	Tr 0
	Tf 1 1 1
	illum 2
	Ka 0.058824 0.058824 0.058824
	Kd 0.058824 0.058824 0.058824
	Ks 0.350000 0.350000 0.350000

newmtl wire_000000000
	Ns 32
	d 1
	Tr 0
	Tf 1 1 1
	illum 2
	Ka 0.000000 0.000000 0.000000
	Kd 0.000000 0.000000 0.000000
	Ks 0.350000 0.350000 0.350000
