<?xml version="1.0" encoding="utf-8" ?>
<COLLADA xmlns="http://www.collada.org/2005/11/COLLADASchema" version="1.4.1">
    <asset>
        <contributor>
            <authoring_tool>modo 1221 [Build 525410], Microsoft Windows 10 (10.0.17134)</authoring_tool>
            <comments>
                Plug-in: [Build 525410];
                Use Absolute Path: No;
                Merge Reference Items: No;
                Save Hidden Items: Yes;
                Save Cameras: Yes;
                Save Lights: Yes;
                Save Locators: Yes;
                Save Triangles as Triangles: No;
                Order Vertex Maps Alphabetically: Yes;
                Bake Matrices: No;
                Save Vertex Normals: Yes;
                Save UV Texture Coordinates: Yes;
                Save Vertex Colors: Yes;
                Save Vertex Weights: Yes;
                Save Animation: Yes;
                Sample Animation: No;
                Sample Animation Start: 0;
                Sample Animation End: 120;
                Save modo Profile: Yes;
                Save Maya Profile: Yes;
                Save 3ds Max Profile: Yes;
                Formatted Arrays: Yes;
            </comments>
            <source_data>file://Untitled</source_data>
        </contributor>
        <created>2019-01-09T13:03:35Z</created>
        <modified>2019-01-09T13:03:35Z</modified>
        <up_axis>Y_UP</up_axis>
    </asset>
    <library_cameras>
        <camera id="Camera-camera003" name="Camera">
            <optics>
                <technique_common>
                    <perspective>
                        <xfov sid="HFOV">39.5978</xfov>
                        <yfov sid="YFOV">26.9915</yfov>
                        <znear sid="near_clip">0.01</znear>
                        <zfar sid="far_clip">10000</zfar>
                    </perspective>
                </technique_common>
                <technique profile="modo401">
                    <param sid="projType" name="Projection_Type" type="Name">persp</param>
                    <param sid="focalLen" name="Focal_Length" type="float">0.05</param>
                    <param sid="distort" name="Lens_Distortion" type="float">0</param>
                    <param sid="squeeze" name="Lens_Squeeze" type="float">1</param>
                    <param sid="focusDist" name="Focus_Distance" type="float">4</param>
                    <param sid="fStop" name="F-Stop" type="float">4</param>
                    <param sid="blurLen" name="Blur_Length" type="float">0.5</param>
                    <param sid="blurOff" name="Blur_Offset" type="float">0</param>
                    <param sid="ioDist" name="Interocular_Distance" type="float">0.065</param>
                    <param sid="convDist" name="Convergence_Distance" type="float">2</param>
                </technique>
            </optics>
            <imager>
                <technique profile="modo401">
                    <param sid="apertureX" name="Film_Width" type="float">0.036</param>
                    <param sid="apertureY" name="Film_Height" type="float">0.024</param>
                    <param sid="offsetX" name="Film_Offset_X" type="float">0</param>
                    <param sid="offsetY" name="Film_Offset_Y" type="float">0</param>
                    <param sid="filmFit" name="Film_Fit" type="Name">fill</param>
                </technique>
            </imager>
        </camera>
    </library_cameras>
    <library_materials>
        <material id="Material-Default" name="Default">
            <instance_effect url="#Effect-Default" />
        </material>
    </library_materials>
    <library_effects>
        <effect id="Effect-Default" name="Default">
            <profile_COMMON>
                <technique sid="common">
                    <phong>
                        <diffuse>
                            <color sid="diffuse_effect_rgb">0.48 0.48 0.48 1</color>
                        </diffuse>
                        <specular>
                            <color sid="specular_effect_rgb">0.04 0.04 0.04 1</color>
                        </specular>
                        <shininess>
                            <float sid="specular_effect_rgb">256</float>
                        </shininess>
                    </phong>
                </technique>
            </profile_COMMON>
        </effect>
    </library_effects>
    <library_geometries>
        <geometry id="Geometry-mesh030" name="Connection">
            <mesh>
                <source id="Geometry-mesh030-positions" name="positions">
                    <float_array id="Geometry-mesh030-positions-array" count="246">
                        7.33687 1.83334 0.742349
                        8.87861 3.12308 0.693484
                        9.79377 2.89508 -0.970903
                        8.1949 1.43461 2.75574
                        8.14738 -1.01953 2.72427
                        7.01524 -0.85035 0.780079
                        11.0006 2.19481 2.6314
                        10.2449 0.606411 3.60544
                        8.63394 -1.7558 -1.49454
                        10.5171 1.28435 -2.31254
                        8.61891 -0.297942 -2.1207
                        7.38495 0.6776 -1.19471
                        10.2983 -1.34236 3.19141
                        12.3659 -0.538936 2.36087
                        -10.089 3.45531 -1.5293
                        -11.6186 2.58413 1.90944
                        -12.141 0.676761 2.27249
                        -7.05553 0.430846 -0.901965
                        -8.09301 2.50537 -1.70571
                        -8.7552 0.330923 -2.69411
                        -7.82088 0.329414 2.15759
                        -8.61844 -1.02851 1.96374
                        -7.25312 1.95138 0.90338
                        -8.66153 3.55181 0.164969
                        -10.5211 0.592754 -3.07489
                        -11.0663 -1.00125 2.30729
                        -9.55415 0.645748 3.08908
                        -9.22246 3.15844 1.64027
                        -2.35345 1.69433 8.05728
                        -1.89231 3.44454 8.93301
                        -0.089048 3.88531 8.4708
                        -3.09538 1.26812 10.1108
                        -2.1541 -0.979176 10.4102
                        -1.53645 -0.875722 8.24274
                        -1.61859 3.01413 11.9095
                        -2.14101 1.10676 12.2726
                        2.94447 0.860846 9.09814
                        1.90699 2.93537 8.29439
                        1.2448 0.760923 7.30599
                        2.74688 2.38138 10.9035
                        1.33847 3.98181 10.1651
                        -0.521057 1.02275 6.92521
                        -2.255 2.38767 -11.4258
                        -1.79386 4.13788 -10.55
                        -2.99694 1.96146 -9.37227
                        -2.05565 -0.285836 -9.0728
                        -1.438 -0.182382 -11.2403
                        -1.52014 3.70747 -7.5735
                        -2.04256 1.8001 -7.21045
                        3.04292 1.55419 -10.3849
                        2.00544 3.62871 -11.1886
                        2.27757 1.45275 -7.32535
                        2.84533 3.07472 -8.57956
                        1.43692 4.67515 -9.31797
                        0.544299 1.76909 -6.39386
                        0.875985 4.28178 -7.84267
                        -5.87683 0.819945 -6.26309
                        -6.88705 0.84398 -7.49214
                        -7.89649 1.88661 -7.52861
                        -7.49568 3.52364 -6.7619
                        -6.36885 3.35911 -5.26163
                        -5.64544 2.12797 -5.02968
                        6.38855 0.53854 -6.51349
                        5.25527 0.19414 -5.74639
                        4.43146 0.961729 -5.04071
                        4.67555 2.3627 -5.34888
                        5.4201 3.02144 -6.14689
                        6.14785 2.78159 -6.57976
                        6.63299 1.39246 -6.6619
                        6.47319 -0.239165 6.85179
                        5.56172 0.389923 4.79917
                        5.81566 1.78383 4.92171
                        6.80341 2.56604 5.99231
                        7.64371 2.04266 7.06111
                        7.24275 0.895824 7.87852
                        -6.88701 1.31702 6.41699
                        -6.50423 2.49006 6.55805
                        -7.72847 2.92274 7.60218
                        -8.53156 2.29646 8.20331
                        -8.45147 1.11834 7.98233
                        -7.95851 0.17815 7.569
                        -7.09084 0.00418151 6.44785
                    </float_array>
                    <technique_common>
                        <accessor count="82" source="#Geometry-mesh030-positions-array" stride="3">
                            <param name="X" type="float" />
                            <param name="Y" type="float" />
                            <param name="Z" type="float" />
                        </accessor>
                    </technique_common>
                </source>
                <source id="Geometry-mesh030-normals" name="normals">
                    <float_array id="Geometry-mesh030-normals-array" count="609">
                        -0.709066 -0.28444 -0.645228
                        -0.770883 -0.328422 -0.545783
                        0.27898 -0.0639102 0.958168
                        0.368796 -0.27265 0.888624
                        0.599891 0.0786226 0.796209
                        -0.951024 -0.13147 -0.279767
                        -0.889577 -0.188827 -0.41593
                        -0.998043 -0.0505056 -0.0368693
                        -0.977217 0.11958 0.175351
                        -0.588722 0.687654 -0.424898
                        -0.590935 0.687198 -0.422557
                        -0.501746 0.573116 -0.647911
                        -0.498469 0.604224 -0.621644
                        -0.376086 0.417337 -0.827278
                        0.576633 0.209861 0.78959
                        0.512768 0.0168604 0.858362
                        -0.374023 0.3443 -0.861141
                        -0.114907 0.558451 0.82154
                        -0.263156 0.292004 0.919501
                        -0.313372 -0.107107 0.943571
                        -0.26179 0.122947 0.957262
                        -0.0703111 -0.139381 0.987739
                        0.167808 0.966054 -0.196416
                        0.397198 0.900153 -0.178768
                        0.593189 0.765867 -0.248142
                        0.487837 0.42069 0.764876
                        0.581836 0.522093 0.623608
                        0.338916 0.447607 0.827517
                        0.0731657 -0.363235 0.92882
                        -0.0957601 -0.353736 0.93043
                        0.256562 -0.436303 0.862448
                        0.392487 -0.351838 0.849802
                        0.686947 0.294368 -0.664418
                        0.848568 0.242107 -0.470443
                        0.504344 0.225319 -0.833587
                        -0.481334 -0.136778 0.865799
                        -0.335867 -0.417985 0.844086
                        -0.169532 -0.152962 0.973582
                        0.192837 0.397431 -0.897141
                        0.138416 0.454277 -0.880042
                        0.849263 0.386061 -0.360152
                        0.738198 0.672158 -0.0571675
                        0.636511 0.767251 -0.0786048
                        0.720311 0.649665 -0.243077
                        -0.158402 0.3847 0.909348
                        -0.300294 0.0424771 0.952901
                        -0.213642 0.204818 0.9552
                        0.387121 0.310532 -0.868163
                        0.185997 0.415941 0.890167
                        0.257714 0.456883 0.851376
                        0.254825 0.929212 -0.267635
                        0.448305 0.86476 -0.226302
                        0.593189 0.765867 -0.248142
                        -0.923562 -0.380212 0.0497116
                        -0.926658 -0.362212 -0.100531
                        -0.876805 -0.354685 -0.32467
                        0.686947 0.294368 -0.664418
                        0.848568 0.242107 -0.470443
                        0.504344 0.225319 -0.833587
                        0.0236135 0.441079 -0.897157
                        -0.0912012 0.483747 -0.870443
                        0.192837 0.397431 -0.897141
                        0.849263 0.386061 -0.360151
                        0.847816 0.503646 -0.165977
                        0.720311 0.649665 -0.243077
                        0.387121 0.310532 -0.868163
                        -0.885109 0.462808 -0.0488943
                        -0.899915 0.422705 0.107117
                        -0.856028 0.432746 0.282749
                        -0.951497 0.246314 0.184346
                        -0.914903 -0.003228 0.40366
                        -0.970943 -0.151896 0.184925
                        -0.829865 -0.474794 0.293079
                        -0.735225 -0.207843 0.645171
                        -0.942046 0.030019 -0.334137
                        -0.939922 -0.122817 -0.318533
                        -0.966946 0.254203 -0.0199078
                        -0.923562 -0.380213 0.0497117
                        -0.926658 -0.362212 -0.100531
                        -0.786928 -0.430923 -0.441644
                        0.487837 0.420689 0.764876
                        0.543596 0.512449 0.664755
                        0.502926 0.398031 0.767226
                        0.84109 0.339888 -0.420765
                        0.834484 0.44576 -0.323936
                        0.847816 0.503646 -0.165977
                        0.595271 0.794043 0.123079
                        0.799141 0.600463 0.0285851
                        0.75503 0.609878 -0.240789
                        0.959689 -0.154249 0.234954
                        -0.885109 0.462808 -0.0488941
                        -0.899914 0.422705 0.107117
                        -0.856028 0.432746 0.282749
                        -0.951497 0.246314 0.184346
                        -0.914903 -0.00322799 0.40366
                        -0.970943 -0.151896 0.184925
                        0.644327 0.579656 0.49884
                        0.4652 0.842804 0.270685
                        0.385976 0.66144 0.643055
                        -0.862404 -0.182817 -0.472056
                        -0.939922 -0.122817 -0.318533
                        0.567781 0.555465 0.607523
                        -0.848701 0.191223 -0.493094
                        -0.966946 0.254203 -0.0199077
                        -0.818426 0.494913 -0.29196
                        0.0246596 -0.98136 -0.190589
                        -0.0464194 -0.995442 -0.0833147
                        -0.0324694 -0.998775 0.0373475
                        0.120511 -0.990955 -0.0590415
                        -0.0718477 -0.945677 -0.31707
                        -0.849187 0.344341 -0.400388
                        -0.709206 0.41449 -0.570285
                        -0.0377534 0.997674 0.0567619
                        0.732201 0.677327 0.0714823
                        0.727106 0.639277 0.250283
                        0.664203 0.702471 0.255673
                        0.953987 -0.287361 0.0856282
                        0.951399 -0.176225 0.252555
                        -0.184387 -0.97388 0.132513
                        -0.541923 -0.546987 -0.638063
                        -0.729619 -0.439169 -0.524201
                        -0.749026 0.431726 -0.502566
                        -0.0230659 0.99175 0.126091
                        0.375709 0.380011 0.845242
                        0.334979 -0.677106 0.655222
                        0.727309 -0.465339 -0.504462
                        0.8592 -0.194413 -0.473264
                        0.714519 -0.414371 -0.563701
                        -0.494368 -0.869233 -0.00579665
                        -0.50395 -0.850967 0.147953
                        -0.391965 -0.916493 -0.0800211
                        -0.89456 0.113287 0.432353
                        -0.600525 0.730207 0.325835
                        -0.327336 0.799106 0.504263
                        0.114644 0.990744 -0.0726846
                        0.231055 0.972911 -0.00756667
                        0.636993 0.641771 -0.427048
                        0.701657 0.477519 -0.528823
                        0.630795 0.687801 -0.359204
                        0.528673 -0.693561 -0.489365
                        0.554583 -0.57537 -0.601155
                        0.618904 -0.514819 -0.593228
                        0.232294 -0.816112 -0.529151
                        -0.308104 -0.910841 -0.274664
                        -0.0883454 -0.853426 -0.513672
                        -0.501404 -0.812223 0.298142
                        -0.271155 0.251609 0.929068
                        -0.152986 0.545831 0.823811
                        -0.326252 0.645938 0.690162
                        0.298632 0.782149 0.546866
                        0.111655 0.657311 0.745302
                        0.387136 0.908679 -0.156296
                        0.580384 0.813786 -0.0301028
                        0.749228 0.228339 -0.621706
                        0.834801 0.127238 -0.535648
                        0.714629 -0.261069 -0.64896
                        0.677646 -0.309884 -0.666909
                        0.742692 -0.0086314 -0.669577
                        -0.0825134 -0.996575 0.00539554
                        0.168275 -0.872283 0.459135
                        0.0765222 -0.918669 0.387545
                        -0.129885 -0.988505 -0.0773761
                        -0.293351 0.710798 -0.639305
                        -0.435294 0.556534 -0.707664
                        0.206324 0.977704 0.0390466
                        0.0554688 0.991259 -0.119706
                        0.481539 0.679277 0.553807
                        0.637703 0.455535 0.621147
                        0.545209 0.656665 0.521094
                        0.257832 -0.747493 0.61219
                        0.179177 -0.742733 0.64517
                        -0.634979 0.102865 -0.76565
                        -0.618376 0.022047 -0.785573
                        -0.494473 0.344148 -0.79816
                        -0.157569 0.849114 -0.50416
                        -0.247005 0.876744 -0.412685
                        0.315078 0.922142 0.224455
                        0.274594 0.931109 0.240069
                        0.334607 -0.746799 0.574743
                        0.918203 -0.386938 -0.0847431
                        0.890968 -0.43386 -0.133946
                        0.47679 0.866854 -0.145725
                        0.357175 0.923741 -0.138308
                        -0.222047 0.970493 0.0940096
                        -0.218254 0.91449 0.340694
                        -0.0684926 0.979354 0.190198
                        -0.846752 0.313702 0.429654
                        -0.54639 -0.334023 0.768041
                        -0.608736 -0.510693 0.607152
                        -0.567177 -0.413376 0.712341
                        0.0183516 -0.977882 0.208351
                        -0.0897423 -0.990344 0.105665
                        0.858953 -0.478455 -0.18243
                        0.318778 -0.0332153 -0.947247
                        0.340069 0.00211539 -0.940398
                        0.170577 0.983313 -0.063235
                        0.231275 0.96437 -0.128458
                        -0.200492 0.799957 0.565573
                        -0.447781 -0.194152 0.87281
                        -0.632001 -0.374386 0.678535
                        -0.702145 -0.45303 0.549324
                        -0.195827 -0.980638 0.000613854
                        0.296929 -0.0684879 -0.95244
                    </float_array>
                    <technique_common>
                        <accessor count="203" source="#Geometry-mesh030-normals-array" stride="3">
                            <param name="X" type="float" />
                            <param name="Y" type="float" />
                            <param name="Z" type="float" />
                        </accessor>
                    </technique_common>
                </source>
                <source id="Geometry-mesh030-Texture" name="Texture">
                    <float_array id="Geometry-mesh030-Texture-array" count="132">
                        0.181818 0.333333
                        0.253324 0.262187
                        0.188688 0.5
                        0.610201 0.762595
                        0.526051 0.595521
                        0.629494 0.5
                        0.29889 0.570738
                        0.155076 0.764722
                        0.0647468 0.762595
                        0.0267423 0.568612
                        0.0909091 0.333333
                        0.70053 0.764722
                        0.636364 1
                        0.435142 0.928854
                        0.417121 0.666667
                        0.5 0.833333
                        0.935833 0.568612
                        0.844924 0.431389
                        0.946515 0.333333
                        0.61696 0.262187
                        0.753435 0.237405
                        0.545455 0.333333
                        0.162415 0.0711459
                        0.928494 0.0711459
                        0.863636 0.166667
                        0.772727 0.5
                        0.292131 0.928854
                        0.863636 0.833333
                        0.818182 1
                        0.754015 0.764722
                        0.208561 0.764722
                        0.0909091 1
                        0.655767 0.262187
                        0.727273 0
                        0.240354 0.452036
                        0.289768 0.368906
                        0.198624 0.632361
                        0.0457445 0.665603
                        0.171882 0.632361
                        0.79947 0.598055
                        0.899735 0.700972
                        0.736919 0.464631
                        0.772727 0.598055
                        0.441409 0.381094
                        0.399389 0.29776
                        0.464192 0.535369
                        0.535808 0.535369
                        0.5 0.598055
                        0.486629 0.450972
                        0.509702 0.20224
                        0.30848 0.631094
                        0.363636 0.666667
                        0.412526 0.75
                        0.328118 0.534306
                        0.444609 0.632361
                        0.685488 0.513455
                        0.782663 0.534306
                        0.409091 0.5
                        0.386018 0.513455
                        0.763371 0.632361
                        0.808536 0.535369
                        0.655366 0.763659
                        0.736629 0.632361
                        0.513661 0.714631
                        0.600265 0.799028
                        0.41247 0.583129
                    </float_array>
                    <technique_common>
                        <accessor count="66" source="#Geometry-mesh030-Texture-array" stride="2">
                            <param name="S" type="float" />
                            <param name="T" type="float" />
                        </accessor>
                    </technique_common>
                </source>
                <vertices id="Geometry-mesh030-vertices">
                    <input semantic="POSITION" source="#Geometry-mesh030-positions" />
                </vertices>
                <polylist count="101" material="Material-Default">
                    <input semantic="VERTEX" source="#Geometry-mesh030-vertices" offset="0" />
                    <input semantic="NORMAL" source="#Geometry-mesh030-normals" offset="1" />
                    <input semantic="TEXCOORD" source="#Geometry-mesh030-Texture" offset="2" set="0" />
                    <vcount>3 3 3 3 3 3 3 3 3 3 3 3 3 3 3 3 3 3 3 3 3 3 3 3 3 3 3 3 3 3 3 3 3 3 3 3 3 3 3 3 3 3 3 3 3 3 3 3 3 4 4 4 4 4 4 4 4 4 4 4 4 4 4 4 4 4 4 4 3 4 4 4 4 4 4 4 4 4 4 4 4 4 3 4 4 4 4 4 4 4 4 4 4 4 3 4 4 4 4 4 4</vcount>
                    <p>10 0 0 8 1 1 11 1 2 7 2 3 12 3 4 13 4 5 5 5 6 11 6 2 8 1 1 5 7 6 0 8 7 11 5 2 0 9 7 1 10 8 11 11 2 2 12 9 11 11 2 1 10 8 11 11 2 2 12 9 9 13 10 6 14 11 7 15 3 13 4 5 9 13 10 10 16 0 11 11 2 6 17 11 3 18 12 7 18 3 3 18 13 4 19 14 7 20 15 12 3 4 7 21 15 4 19 14 14 22 16 23 23 17 18 24 18 20 25 19 22 26 20 26 27 5 26 28 5 25 29 4 21 30 21 21 30 21 20 31 19 26 30 5 18 32 10 17 33 22 19 34 0 16 35 3 25 36 4 26 37 5 24 38 2 14 39 9 18 38 10 17 33 23 18 40 18 22 41 24 23 42 17 22 41 24 18 43 18 15 44 11 16 45 3 26 46 5 18 47 10 19 34 0 24 38 2 26 48 5 27 49 25 15 44 11 27 49 25 26 27 5 22 26 20 30 50 16 40 51 17 37 52 18 32 53 14 31 54 26 33 55 6 37 56 10 36 57 22 38 58 0 41 59 2 30 60 9 37 61 10 36 57 23 37 62 18 39 63 24 40 52 17 39 63 24 37 64 18 37 65 10 38 58 0 41 59 2 29 66 27 31 67 28 34 68 29 34 68 11 31 69 12 35 70 3 31 71 13 32 72 14 35 73 15 28 74 30 33 55 6 31 75 26 28 74 7 31 76 31 29 66 8 45 77 14 44 78 26 46 79 6 51 80 19 52 81 20 54 82 5 49 83 23 50 84 18 52 85 24 53 86 17 52 87 24 50 88 18 51 89 32 49 89 33 52 89 20 43 90 27 44 91 28 47 92 29 47 92 11 44 93 12 48 94 3 44 95 13 45 77 14 48 94 15 52 96 20 53 97 17 55 98 25 42 99 30 46 79 6 44 100 26 55 101 25 54 82 5 52 81 20 42 102 7 44 103 31 43 104 8 19 105 0 57 106 34 56 107 35 17 108 22 24 109 2 58 109 36 57 106 34 19 105 0 24 110 2 14 110 9 59 111 37 58 111 38 14 22 16 23 22 17 60 112 39 59 112 40 23 113 17 22 114 24 61 115 41 60 115 42 22 116 24 17 117 23 56 117 41 61 117 42 56 107 35 57 106 34 46 118 6 45 118 14 57 119 34 58 119 36 42 120 30 46 79 6 58 111 38 59 111 37 43 121 8 42 121 7 59 112 40 60 112 39 47 122 29 43 122 27 60 123 42 61 123 41 48 123 3 47 123 11 61 124 42 56 124 41 45 124 14 48 124 15 10 125 0 8 126 1 63 126 43 62 127 44 8 128 1 5 128 6 64 129 45 63 130 43 5 8 6 0 8 7 65 131 46 64 131 45 0 132 7 1 132 8 66 133 47 65 133 46 1 134 8 2 134 9 67 135 48 66 135 47 2 136 9 9 136 10 68 137 49 67 138 48 9 139 10 10 125 0 62 140 49 68 141 49 62 142 44 63 143 43 51 144 19 63 129 43 64 129 45 54 145 5 51 145 19 64 146 45 65 147 46 55 147 25 54 146 5 65 148 46 66 133 47 53 149 17 55 150 25 66 135 47 67 151 48 50 152 18 53 86 17 67 137 48 68 153 49 49 154 23 50 84 18 68 155 49 62 127 49 51 156 32 49 157 33 38 158 0 70 158 50 69 159 35 36 160 22 38 158 0 41 161 2 71 161 50 70 158 35 41 59 2 30 60 9 72 162 51 71 163 52 30 50 16 40 50 17 73 164 53 72 165 54 40 166 17 39 166 24 74 167 55 73 168 56 36 160 23 69 159 35 74 169 56 39 170 24 3 171 13 4 172 14 69 172 35 70 171 50 70 171 35 71 173 50 3 171 12 71 162 52 72 174 51 6 175 11 3 175 12 72 164 54 73 176 53 13 177 5 6 177 11 73 167 56 74 167 55 12 3 4 13 4 5 74 169 56 69 159 35 4 178 14 12 3 4 22 116 20 76 179 57 75 180 58 20 180 19 22 41 20 27 181 25 77 182 59 76 182 60 27 183 25 15 183 11 78 184 59 77 185 60 15 186 11 16 186 3 79 186 61 78 186 62 16 187 3 25 187 4 80 188 63 79 189 64 25 190 4 21 190 21 81 191 65 80 191 63 21 192 21 20 180 19 75 180 58 81 192 65 75 193 58 76 194 57 28 193 7 76 182 60 77 195 59 29 196 8 28 196 7 77 184 60 78 184 59 34 197 29 29 197 27 78 198 62 79 189 61 35 199 3 34 198 11 79 189 64 80 188 63 32 200 14 35 199 15 80 191 63 81 191 65 33 201 6 32 201 14 81 202 65 75 193 58 28 193 30 33 202 6</p>
                </polylist>
                <extra>
                    <technique profile="modo401">
                        <param sid="render" name="Render" type="Name">default</param>
                        <param sid="dissolve" name="Dissolve" type="float">0</param>
                        <param sid="curves" name="Render_Curves" type="bool">false</param>
                        <param sid="radius" name="Curve_Radius" type="float">0.05</param>
                    </technique>
                </extra>
            </mesh>
        </geometry>
        <geometry id="Geometry-mesh022" name="SphereHouse">
            <mesh>
                <source id="Geometry-mesh022-positions" name="positions">
                    <float_array id="Geometry-mesh022-positions-array" count="69">
                        3.44821 3.24622 2.02974
                        1.02248 2.76477 4.29117
                        0.971608 -0.331787 5.04914
                        0.708122 5.10219 0.358099
                        1.1595 3.65469 -3.4419
                        4.28485 1.96659 -2.20818
                        -3.44821 3.24622 2.02974
                        -2.84294 4.21488 -1.12072
                        -2.5 1.6485 4.00405
                        0.708122 -5.10219 -0.358099
                        3.75873 -2.89369 -2.03973
                        1.1595 -3.65469 3.4419
                        4.04508 -2.87926 0.589197
                        1.02248 -2.76477 -4.29117
                        -3.75873 -2.89369 -2.03973
                        -2.5 -1.6485 -4.00405
                        -2.84294 -4.21488 1.12072
                        -2.13111 -2.13972 4.17467
                        5.01941 -0.107219 1.37753
                        0.708122 -0.0517554 -5.11448
                        -2.32302 2.46625 -3.89656
                        -4.8592 0.234836 -1.8538
                        -4.04508 -0.76065 2.83878
                    </float_array>
                    <technique_common>
                        <accessor count="23" source="#Geometry-mesh022-positions-array" stride="3">
                            <param name="X" type="float" />
                            <param name="Y" type="float" />
                            <param name="Z" type="float" />
                        </accessor>
                    </technique_common>
                </source>
                <source id="Geometry-mesh022-normals" name="normals">
                    <float_array id="Geometry-mesh022-normals-array" count="315">
                        -0.145207 -0.217637 0.965168
                        -0.183802 -0.433035 0.882438
                        -0.118612 -0.629179 0.768157
                        0.239011 0.916518 -0.32073
                        0.373693 0.891407 -0.256412
                        0.709209 0.69682 -0.107074
                        -0.932905 -0.335873 0.129917
                        -0.878864 -0.409405 0.24492
                        -0.97336 -0.177852 0.144703
                        -0.761851 0.102174 -0.639644
                        -0.624277 0.197024 -0.75595
                        -0.504097 -0.116593 -0.85574
                        -0.18985 0.0522695 -0.980421
                        -0.358338 0.176165 -0.91682
                        -0.475911 -0.251919 -0.842642
                        -0.54688 -0.502979 -0.669278
                        -0.709323 -0.0904105 -0.699061
                        0.598777 0.0855714 -0.796332
                        0.72966 -0.0111262 -0.68372
                        0.651135 -0.118968 -0.74958
                        0.611703 0.0242332 -0.790716
                        0.411463 0.209448 -0.887034
                        0.241933 0.37447 -0.895121
                        0.833432 -0.108995 -0.541766
                        0.402672 -0.799279 0.446104
                        0.342822 -0.917608 0.201168
                        0.617536 -0.734381 0.281661
                        0.671528 -0.706199 -0.224351
                        0.712193 -0.701027 0.0366303
                        0.486355 -0.869136 -0.0897796
                        0.798834 -0.595695 -0.0837428
                        0.883552 -0.443576 -0.150254
                        0.960403 -0.210092 -0.182996
                        -0.737641 -0.100736 0.667636
                        -0.558846 -0.178107 0.809919
                        -0.476329 0.122832 0.870645
                        -0.151576 -0.0637171 0.98639
                        -0.303135 -0.154598 0.940324
                        -0.678861 0.633282 -0.37162
                        -0.594997 0.4866 -0.639686
                        -0.827489 0.34896 -0.439873
                        0.0440943 0.274536 -0.960565
                        -0.206344 0.456149 -0.86565
                        0.0949569 0.556163 -0.82563
                        0.880353 0.0179059 -0.473982
                        0.994019 -0.000660547 -0.109204
                        0.89775 -0.181204 -0.40151
                        0.834766 0.527299 -0.158495
                        0.782601 0.621638 -0.0332008
                        0.981252 0.158848 -0.109144
                        0.655166 0.163516 0.737577
                        0.656097 0.166279 0.736131
                        0.689975 -0.0987552 0.717065
                        0.672365 -0.0678252 0.737106
                        0.67421 -0.357529 0.646231
                        0.210051 -0.92169 0.32614
                        0.0613322 -0.901706 0.427977
                        -0.156688 -0.8639 0.478671
                        -0.336668 -0.614722 0.713283
                        -0.360058 -0.77963 0.512381
                        -0.10884 -0.753101 0.64884
                        -0.283692 -0.828994 -0.481963
                        -0.281814 -0.873033 -0.397989
                        -0.339974 -0.898665 -0.277164
                        -0.426108 -0.718493 -0.549728
                        -0.429406 -0.446905 -0.784784
                        -0.0893052 -0.72177 -0.686348
                        -0.917286 0.303341 0.258012
                        -0.84735 0.47353 -0.240347
                        -0.91666 0.388845 -0.0923847
                        -0.574817 0.0794065 0.81442
                        -0.818874 0.139325 0.556807
                        -0.263422 -0.135006 -0.955187
                        -0.233863 -0.646506 -0.72618
                        -0.0766749 -0.895441 -0.438527
                        0.464896 -0.844533 -0.265775
                        0.248086 -0.894539 -0.371826
                        -0.0551534 -0.826491 -0.560241
                        0.640445 -0.542942 0.543179
                        0.614617 -0.65161 0.444578
                        -0.260737 0.83526 0.484105
                        -0.220326 0.476317 0.851222
                        -0.0855517 0.699992 0.709008
                        -0.218405 0.127693 0.967468
                        -0.342088 0.242995 0.907705
                        -0.0565942 0.814869 0.576875
                        -0.0747305 0.904046 0.420851
                        -0.0812064 0.969186 0.23256
                        -0.212288 0.974336 -0.0748487
                        0.0487207 0.988396 -0.14387
                        0.0883604 0.906971 -0.411821
                        -0.215968 0.945023 -0.245538
                        -0.363834 0.619995 -0.695148
                        -0.376503 0.790187 -0.48358
                        -0.108526 0.758653 -0.642393
                        -0.763726 -0.539441 0.354579
                        -0.551375 -0.470336 0.689035
                        -0.801752 -0.318414 0.505773
                        0.652518 0.742864 0.149576
                        0.502646 0.863586 0.0395738
                        -0.994429 -0.0159023 0.104202
                        -0.952281 0.0187008 0.304649
                        -0.92818 -0.24161 0.28303
                        0.468802 0.862749 0.189443
                        0.109177 0.946088 0.304954
                    </float_array>
                    <technique_common>
                        <accessor count="105" source="#Geometry-mesh022-normals-array" stride="3">
                            <param name="X" type="float" />
                            <param name="Y" type="float" />
                            <param name="Z" type="float" />
                        </accessor>
                    </technique_common>
                </source>
                <source id="Geometry-mesh022-Texture" name="Texture">
                    <float_array id="Geometry-mesh022-Texture-array" count="82">
                        0.935833 0.568612
                        0.844924 0.431389
                        0.946515 0.333333
                        0.417121 0.666667
                        0.292131 0.928854
                        0.29889 0.570738
                        0.61696 0.262187
                        0.753435 0.237405
                        0.629494 0.5
                        0.526051 0.595521
                        0.545455 0.333333
                        0.435142 0.404479
                        0.389799 0.237405
                        0.253324 0.262187
                        0.0909091 0.333333
                        0.162415 0.0711459
                        0.181818 0.333333
                        0.188688 0.5
                        0.772727 0.5
                        0.818182 0.666667
                        0.610201 0.762595
                        0.155076 0.764722
                        0.0647468 0.762595
                        0.0267423 0.568612
                        0.928494 0.0711459
                        0.863636 0.166667
                        0.655767 0.262187
                        0.727273 0
                        0.5 0.166667
                        0.70053 0.764722
                        0.545455 0
                        0.292131 0.262187
                        0.363636 0
                        0.754015 0.764722
                        0.863636 0.833333
                        0.818182 1
                        0.636364 1
                        0.435142 0.928854
                        0.5 0.833333
                        0.208561 0.764722
                        0.0909091 1
                    </float_array>
                    <technique_common>
                        <accessor count="41" source="#Geometry-mesh022-Texture-array" stride="2">
                            <param name="S" type="float" />
                            <param name="T" type="float" />
                        </accessor>
                    </technique_common>
                </source>
                <vertices id="Geometry-mesh022-vertices">
                    <input semantic="POSITION" source="#Geometry-mesh022-positions" />
                </vertices>
                <polylist count="42" material="Material-Default">
                    <input semantic="VERTEX" source="#Geometry-mesh022-vertices" offset="0" />
                    <input semantic="NORMAL" source="#Geometry-mesh022-normals" offset="1" />
                    <input semantic="TEXCOORD" source="#Geometry-mesh022-Texture" offset="2" set="0" />
                    <vcount>3 3 3 3 3 3 3 3 3 3 3 3 3 3 3 3 3 3 3 3 3 3 3 3 3 3 3 3 3 3 3 3 3 3 3 3 3 3 3 3 3 3</vcount>
                    <p>2 0 0 17 1 1 11 2 2 4 3 3 3 4 4 5 5 5 14 6 6 16 7 7 21 8 8 21 9 8 20 10 9 15 11 10 19 12 11 15 11 10 20 13 9 15 14 10 14 15 6 21 16 8 19 17 11 5 18 5 13 19 12 5 20 5 19 21 11 4 22 3 10 23 13 13 19 12 5 18 5 11 24 14 9 25 15 12 26 16 10 27 13 12 28 16 9 29 15 12 30 16 10 31 13 18 32 17 22 33 18 17 34 1 8 35 19 2 36 0 8 35 19 17 37 1 7 38 20 20 39 9 21 40 8 19 41 11 20 42 9 4 43 3 5 44 5 18 45 17 10 46 13 5 47 5 0 48 21 18 49 17 0 50 21 1 51 22 18 52 17 2 53 23 18 52 17 1 51 22 18 52 17 2 53 23 11 54 14 9 55 24 11 56 2 16 57 25 17 58 1 16 59 25 11 60 2 14 61 26 9 62 27 16 63 7 14 64 6 15 65 10 13 66 28 6 67 29 7 68 20 21 69 8 8 70 19 6 67 29 22 71 18 19 72 11 13 73 28 15 14 10 13 66 28 9 74 30 14 61 6 10 75 31 9 76 32 13 77 12 11 78 14 12 79 16 18 52 17 6 80 33 8 81 19 1 82 34 2 83 0 1 81 34 8 84 19 1 85 34 3 86 35 6 80 33 6 80 29 3 87 36 7 88 20 3 89 37 4 90 3 7 91 38 20 92 9 7 93 38 4 94 3 16 95 7 17 96 1 22 97 18 0 98 39 5 5 5 3 99 4 21 100 8 22 101 18 6 67 29 22 102 18 21 8 8 16 7 7 0 103 21 3 104 40 1 85 22</p>
                </polylist>
                <extra>
                    <technique profile="modo401">
                        <param sid="render" name="Render" type="Name">default</param>
                        <param sid="dissolve" name="Dissolve" type="float">0</param>
                        <param sid="curves" name="Render_Curves" type="bool">false</param>
                        <param sid="radius" name="Curve_Radius" type="float">0.05</param>
                    </technique>
                </extra>
            </mesh>
        </geometry>
        <geometry id="Geometry-mesh028" name="SpherePflanze">
            <mesh>
                <source id="Geometry-mesh028-positions" name="positions">
                    <float_array id="Geometry-mesh028-positions-array" count="69">
                        3.44821 3.24622 2.02974
                        1.02248 2.76477 4.29117
                        0.971608 -0.331787 5.04914
                        0.708122 5.10219 0.358099
                        1.1595 3.65469 -3.4419
                        4.28485 1.96659 -2.20818
                        -3.44821 3.24622 2.02974
                        -2.84294 4.21488 -1.12072
                        -2.5 1.6485 4.00405
                        0.708122 -5.10219 -0.358099
                        3.75873 -2.89369 -2.03973
                        1.1595 -3.65469 3.4419
                        4.04508 -2.87926 0.589197
                        1.02248 -2.76477 -4.29117
                        -3.75873 -2.89369 -2.03973
                        -2.5 -1.6485 -4.00405
                        -2.84294 -4.21488 1.12072
                        -2.13111 -2.13972 4.17467
                        5.01941 -0.107219 1.37753
                        0.708122 -0.0517554 -5.11448
                        -2.32302 2.46625 -3.89656
                        -4.8592 0.234836 -1.8538
                        -4.04508 -0.76065 2.83878
                    </float_array>
                    <technique_common>
                        <accessor count="23" source="#Geometry-mesh028-positions-array" stride="3">
                            <param name="X" type="float" />
                            <param name="Y" type="float" />
                            <param name="Z" type="float" />
                        </accessor>
                    </technique_common>
                </source>
                <source id="Geometry-mesh028-normals" name="normals">
                    <float_array id="Geometry-mesh028-normals-array" count="315">
                        -0.145207 -0.217637 0.965168
                        -0.183802 -0.433035 0.882438
                        -0.118612 -0.629179 0.768157
                        0.239011 0.916518 -0.32073
                        0.373693 0.891407 -0.256412
                        0.709209 0.69682 -0.107074
                        -0.932905 -0.335873 0.129917
                        -0.878864 -0.409405 0.24492
                        -0.97336 -0.177852 0.144703
                        -0.761851 0.102174 -0.639644
                        -0.624277 0.197024 -0.75595
                        -0.504097 -0.116593 -0.85574
                        -0.18985 0.0522695 -0.980421
                        -0.358338 0.176165 -0.91682
                        -0.475911 -0.251919 -0.842642
                        -0.54688 -0.502979 -0.669278
                        -0.709323 -0.0904105 -0.699061
                        0.598777 0.0855714 -0.796332
                        0.72966 -0.0111262 -0.68372
                        0.651135 -0.118968 -0.74958
                        0.611703 0.0242332 -0.790716
                        0.411463 0.209448 -0.887034
                        0.241933 0.37447 -0.895121
                        0.833432 -0.108995 -0.541766
                        0.402672 -0.799279 0.446104
                        0.342822 -0.917608 0.201168
                        0.617536 -0.734381 0.281661
                        0.671528 -0.706199 -0.224351
                        0.712193 -0.701027 0.0366303
                        0.486355 -0.869136 -0.0897796
                        0.798834 -0.595695 -0.0837428
                        0.883552 -0.443576 -0.150254
                        0.960403 -0.210092 -0.182996
                        -0.737641 -0.100736 0.667636
                        -0.558846 -0.178107 0.809919
                        -0.476329 0.122832 0.870645
                        -0.151576 -0.0637171 0.98639
                        -0.303135 -0.154598 0.940324
                        -0.678861 0.633282 -0.37162
                        -0.594997 0.4866 -0.639686
                        -0.827489 0.34896 -0.439873
                        0.0440943 0.274536 -0.960565
                        -0.206344 0.456149 -0.86565
                        0.0949569 0.556163 -0.82563
                        0.880353 0.0179059 -0.473982
                        0.994019 -0.000660547 -0.109204
                        0.89775 -0.181204 -0.40151
                        0.834766 0.527299 -0.158495
                        0.782601 0.621638 -0.0332008
                        0.981252 0.158848 -0.109144
                        0.655166 0.163516 0.737577
                        0.656097 0.166279 0.736131
                        0.689975 -0.0987552 0.717065
                        0.672365 -0.0678252 0.737106
                        0.67421 -0.357529 0.646231
                        0.210051 -0.92169 0.32614
                        0.0613322 -0.901706 0.427977
                        -0.156688 -0.8639 0.478671
                        -0.336668 -0.614722 0.713283
                        -0.360058 -0.77963 0.512381
                        -0.10884 -0.753101 0.64884
                        -0.283692 -0.828994 -0.481963
                        -0.281814 -0.873033 -0.397989
                        -0.339974 -0.898665 -0.277164
                        -0.426108 -0.718493 -0.549728
                        -0.429406 -0.446905 -0.784784
                        -0.0893052 -0.72177 -0.686348
                        -0.917286 0.303341 0.258012
                        -0.84735 0.47353 -0.240347
                        -0.91666 0.388845 -0.0923847
                        -0.574817 0.0794065 0.81442
                        -0.818874 0.139325 0.556807
                        -0.263422 -0.135006 -0.955187
                        -0.233863 -0.646506 -0.72618
                        -0.0766749 -0.895441 -0.438527
                        0.464896 -0.844533 -0.265775
                        0.248086 -0.894539 -0.371826
                        -0.0551534 -0.826491 -0.560241
                        0.640445 -0.542942 0.543179
                        0.614617 -0.65161 0.444578
                        -0.260737 0.83526 0.484105
                        -0.220326 0.476317 0.851222
                        -0.0855517 0.699992 0.709008
                        -0.218405 0.127693 0.967468
                        -0.342088 0.242995 0.907705
                        -0.0565942 0.814869 0.576875
                        -0.0747305 0.904046 0.420851
                        -0.0812064 0.969186 0.23256
                        -0.212288 0.974336 -0.0748487
                        0.0487207 0.988396 -0.14387
                        0.0883604 0.906971 -0.411821
                        -0.215968 0.945023 -0.245538
                        -0.363834 0.619995 -0.695148
                        -0.376503 0.790187 -0.48358
                        -0.108526 0.758653 -0.642393
                        -0.763726 -0.539441 0.354579
                        -0.551375 -0.470336 0.689035
                        -0.801752 -0.318414 0.505773
                        0.652518 0.742864 0.149576
                        0.502646 0.863586 0.0395738
                        -0.994429 -0.0159023 0.104202
                        -0.952281 0.0187008 0.304649
                        -0.92818 -0.24161 0.28303
                        0.468802 0.862749 0.189443
                        0.109177 0.946088 0.304954
                    </float_array>
                    <technique_common>
                        <accessor count="105" source="#Geometry-mesh028-normals-array" stride="3">
                            <param name="X" type="float" />
                            <param name="Y" type="float" />
                            <param name="Z" type="float" />
                        </accessor>
                    </technique_common>
                </source>
                <source id="Geometry-mesh028-Texture" name="Texture">
                    <float_array id="Geometry-mesh028-Texture-array" count="82">
                        0.935833 0.568612
                        0.844924 0.431389
                        0.946515 0.333333
                        0.417121 0.666667
                        0.292131 0.928854
                        0.29889 0.570738
                        0.61696 0.262187
                        0.753435 0.237405
                        0.629494 0.5
                        0.526051 0.595521
                        0.545455 0.333333
                        0.435142 0.404479
                        0.389799 0.237405
                        0.253324 0.262187
                        0.0909091 0.333333
                        0.162415 0.0711459
                        0.181818 0.333333
                        0.188688 0.5
                        0.772727 0.5
                        0.818182 0.666667
                        0.610201 0.762595
                        0.155076 0.764722
                        0.0647468 0.762595
                        0.0267423 0.568612
                        0.928494 0.0711459
                        0.863636 0.166667
                        0.655767 0.262187
                        0.727273 0
                        0.5 0.166667
                        0.70053 0.764722
                        0.545455 0
                        0.292131 0.262187
                        0.363636 0
                        0.754015 0.764722
                        0.863636 0.833333
                        0.818182 1
                        0.636364 1
                        0.435142 0.928854
                        0.5 0.833333
                        0.208561 0.764722
                        0.0909091 1
                    </float_array>
                    <technique_common>
                        <accessor count="41" source="#Geometry-mesh028-Texture-array" stride="2">
                            <param name="S" type="float" />
                            <param name="T" type="float" />
                        </accessor>
                    </technique_common>
                </source>
                <vertices id="Geometry-mesh028-vertices">
                    <input semantic="POSITION" source="#Geometry-mesh028-positions" />
                </vertices>
                <polylist count="42" material="Material-Default">
                    <input semantic="VERTEX" source="#Geometry-mesh028-vertices" offset="0" />
                    <input semantic="NORMAL" source="#Geometry-mesh028-normals" offset="1" />
                    <input semantic="TEXCOORD" source="#Geometry-mesh028-Texture" offset="2" set="0" />
                    <vcount>3 3 3 3 3 3 3 3 3 3 3 3 3 3 3 3 3 3 3 3 3 3 3 3 3 3 3 3 3 3 3 3 3 3 3 3 3 3 3 3 3 3</vcount>
                    <p>2 0 0 17 1 1 11 2 2 4 3 3 3 4 4 5 5 5 14 6 6 16 7 7 21 8 8 21 9 8 20 10 9 15 11 10 19 12 11 15 11 10 20 13 9 15 14 10 14 15 6 21 16 8 19 17 11 5 18 5 13 19 12 5 20 5 19 21 11 4 22 3 10 23 13 13 19 12 5 18 5 11 24 14 9 25 15 12 26 16 10 27 13 12 28 16 9 29 15 12 30 16 10 31 13 18 32 17 22 33 18 17 34 1 8 35 19 2 36 0 8 35 19 17 37 1 7 38 20 20 39 9 21 40 8 19 41 11 20 42 9 4 43 3 5 44 5 18 45 17 10 46 13 5 47 5 0 48 21 18 49 17 0 50 21 1 51 22 18 52 17 2 53 23 18 52 17 1 51 22 18 52 17 2 53 23 11 54 14 9 55 24 11 56 2 16 57 25 17 58 1 16 59 25 11 60 2 14 61 26 9 62 27 16 63 7 14 64 6 15 65 10 13 66 28 6 67 29 7 68 20 21 69 8 8 70 19 6 67 29 22 71 18 19 72 11 13 73 28 15 14 10 13 66 28 9 74 30 14 61 6 10 75 31 9 76 32 13 77 12 11 78 14 12 79 16 18 52 17 6 80 33 8 81 19 1 82 34 2 83 0 1 81 34 8 84 19 1 85 34 3 86 35 6 80 33 6 80 29 3 87 36 7 88 20 3 89 37 4 90 3 7 91 38 20 92 9 7 93 38 4 94 3 16 95 7 17 96 1 22 97 18 0 98 39 5 5 5 3 99 4 21 100 8 22 101 18 6 67 29 22 102 18 21 8 8 16 7 7 0 103 21 3 104 40 1 85 22</p>
                </polylist>
                <extra>
                    <technique profile="modo401">
                        <param sid="render" name="Render" type="Name">default</param>
                        <param sid="dissolve" name="Dissolve" type="float">0</param>
                        <param sid="curves" name="Render_Curves" type="bool">false</param>
                        <param sid="radius" name="Curve_Radius" type="float">0.05</param>
                    </technique>
                </extra>
            </mesh>
        </geometry>
        <geometry id="Geometry-mesh026" name="SphereRobot">
            <mesh>
                <source id="Geometry-mesh026-positions" name="positions">
                    <float_array id="Geometry-mesh026-positions-array" count="69">
                        3.44821 3.24622 2.02974
                        1.02248 2.76477 4.29117
                        0.971608 -0.331787 5.04914
                        0.708122 5.10219 0.358099
                        1.1595 3.65469 -3.4419
                        4.28485 1.96659 -2.20818
                        -3.44821 3.24622 2.02974
                        -2.84294 4.21488 -1.12072
                        -2.5 1.6485 4.00405
                        0.708122 -5.10219 -0.358099
                        3.75873 -2.89369 -2.03973
                        1.1595 -3.65469 3.4419
                        4.04508 -2.87926 0.589197
                        1.02248 -2.76477 -4.29117
                        -3.75873 -2.89369 -2.03973
                        -2.5 -1.6485 -4.00405
                        -2.84294 -4.21488 1.12072
                        -2.13111 -2.13972 4.17467
                        5.01941 -0.107219 1.37753
                        0.708122 -0.0517554 -5.11448
                        -2.32302 2.46625 -3.89656
                        -4.8592 0.234836 -1.8538
                        -4.04508 -0.76065 2.83878
                    </float_array>
                    <technique_common>
                        <accessor count="23" source="#Geometry-mesh026-positions-array" stride="3">
                            <param name="X" type="float" />
                            <param name="Y" type="float" />
                            <param name="Z" type="float" />
                        </accessor>
                    </technique_common>
                </source>
                <source id="Geometry-mesh026-normals" name="normals">
                    <float_array id="Geometry-mesh026-normals-array" count="315">
                        -0.145207 -0.217637 0.965168
                        -0.183802 -0.433035 0.882438
                        -0.118612 -0.629179 0.768157
                        0.239011 0.916518 -0.32073
                        0.373693 0.891407 -0.256412
                        0.709209 0.69682 -0.107074
                        -0.932905 -0.335873 0.129917
                        -0.878864 -0.409405 0.24492
                        -0.97336 -0.177852 0.144703
                        -0.761851 0.102174 -0.639644
                        -0.624277 0.197024 -0.75595
                        -0.504097 -0.116593 -0.85574
                        -0.18985 0.0522695 -0.980421
                        -0.358338 0.176165 -0.91682
                        -0.475911 -0.251919 -0.842642
                        -0.54688 -0.502979 -0.669278
                        -0.709323 -0.0904105 -0.699061
                        0.598777 0.0855714 -0.796332
                        0.72966 -0.0111262 -0.68372
                        0.651135 -0.118968 -0.74958
                        0.611703 0.0242332 -0.790716
                        0.411463 0.209448 -0.887034
                        0.241933 0.37447 -0.895121
                        0.833432 -0.108995 -0.541766
                        0.402672 -0.799279 0.446104
                        0.342822 -0.917608 0.201168
                        0.617536 -0.734381 0.281661
                        0.671528 -0.706199 -0.224351
                        0.712193 -0.701027 0.0366303
                        0.486355 -0.869136 -0.0897796
                        0.798834 -0.595695 -0.0837428
                        0.883552 -0.443576 -0.150254
                        0.960403 -0.210092 -0.182996
                        -0.737641 -0.100736 0.667636
                        -0.558846 -0.178107 0.809919
                        -0.476329 0.122832 0.870645
                        -0.151576 -0.0637171 0.98639
                        -0.303135 -0.154598 0.940324
                        -0.678861 0.633282 -0.37162
                        -0.594997 0.4866 -0.639686
                        -0.827489 0.34896 -0.439873
                        0.0440943 0.274536 -0.960565
                        -0.206344 0.456149 -0.86565
                        0.0949569 0.556163 -0.82563
                        0.880353 0.0179059 -0.473982
                        0.994019 -0.000660547 -0.109204
                        0.89775 -0.181204 -0.40151
                        0.834766 0.527299 -0.158495
                        0.782601 0.621638 -0.0332008
                        0.981252 0.158848 -0.109144
                        0.655166 0.163516 0.737577
                        0.656097 0.166279 0.736131
                        0.689975 -0.0987552 0.717065
                        0.672365 -0.0678252 0.737106
                        0.67421 -0.357529 0.646231
                        0.210051 -0.92169 0.32614
                        0.0613322 -0.901706 0.427977
                        -0.156688 -0.8639 0.478671
                        -0.336668 -0.614722 0.713283
                        -0.360058 -0.77963 0.512381
                        -0.10884 -0.753101 0.64884
                        -0.283692 -0.828994 -0.481963
                        -0.281814 -0.873033 -0.397989
                        -0.339974 -0.898665 -0.277164
                        -0.426108 -0.718493 -0.549728
                        -0.429406 -0.446905 -0.784784
                        -0.0893052 -0.72177 -0.686348
                        -0.917286 0.303341 0.258012
                        -0.84735 0.47353 -0.240347
                        -0.91666 0.388845 -0.0923847
                        -0.574817 0.0794065 0.81442
                        -0.818874 0.139325 0.556807
                        -0.263422 -0.135006 -0.955187
                        -0.233863 -0.646506 -0.72618
                        -0.0766749 -0.895441 -0.438527
                        0.464896 -0.844533 -0.265775
                        0.248086 -0.894539 -0.371826
                        -0.0551534 -0.826491 -0.560241
                        0.640445 -0.542942 0.543179
                        0.614617 -0.65161 0.444578
                        -0.260737 0.83526 0.484105
                        -0.220326 0.476317 0.851222
                        -0.0855517 0.699992 0.709008
                        -0.218405 0.127693 0.967468
                        -0.342088 0.242995 0.907705
                        -0.0565942 0.814869 0.576875
                        -0.0747305 0.904046 0.420851
                        -0.0812064 0.969186 0.23256
                        -0.212288 0.974336 -0.0748487
                        0.0487207 0.988396 -0.14387
                        0.0883604 0.906971 -0.411821
                        -0.215968 0.945023 -0.245538
                        -0.363834 0.619995 -0.695148
                        -0.376503 0.790187 -0.48358
                        -0.108526 0.758653 -0.642393
                        -0.763726 -0.539441 0.354579
                        -0.551375 -0.470336 0.689035
                        -0.801752 -0.318414 0.505773
                        0.652518 0.742864 0.149576
                        0.502646 0.863586 0.0395738
                        -0.994429 -0.0159023 0.104202
                        -0.952281 0.0187008 0.304649
                        -0.92818 -0.24161 0.28303
                        0.468802 0.862749 0.189443
                        0.109177 0.946088 0.304954
                    </float_array>
                    <technique_common>
                        <accessor count="105" source="#Geometry-mesh026-normals-array" stride="3">
                            <param name="X" type="float" />
                            <param name="Y" type="float" />
                            <param name="Z" type="float" />
                        </accessor>
                    </technique_common>
                </source>
                <source id="Geometry-mesh026-Texture" name="Texture">
                    <float_array id="Geometry-mesh026-Texture-array" count="82">
                        0.935833 0.568612
                        0.844924 0.431389
                        0.946515 0.333333
                        0.417121 0.666667
                        0.292131 0.928854
                        0.29889 0.570738
                        0.61696 0.262187
                        0.753435 0.237405
                        0.629494 0.5
                        0.526051 0.595521
                        0.545455 0.333333
                        0.435142 0.404479
                        0.389799 0.237405
                        0.253324 0.262187
                        0.0909091 0.333333
                        0.162415 0.0711459
                        0.181818 0.333333
                        0.188688 0.5
                        0.772727 0.5
                        0.818182 0.666667
                        0.610201 0.762595
                        0.155076 0.764722
                        0.0647468 0.762595
                        0.0267423 0.568612
                        0.928494 0.0711459
                        0.863636 0.166667
                        0.655767 0.262187
                        0.727273 0
                        0.5 0.166667
                        0.70053 0.764722
                        0.545455 0
                        0.292131 0.262187
                        0.363636 0
                        0.754015 0.764722
                        0.863636 0.833333
                        0.818182 1
                        0.636364 1
                        0.435142 0.928854
                        0.5 0.833333
                        0.208561 0.764722
                        0.0909091 1
                    </float_array>
                    <technique_common>
                        <accessor count="41" source="#Geometry-mesh026-Texture-array" stride="2">
                            <param name="S" type="float" />
                            <param name="T" type="float" />
                        </accessor>
                    </technique_common>
                </source>
                <vertices id="Geometry-mesh026-vertices">
                    <input semantic="POSITION" source="#Geometry-mesh026-positions" />
                </vertices>
                <polylist count="42" material="Material-Default">
                    <input semantic="VERTEX" source="#Geometry-mesh026-vertices" offset="0" />
                    <input semantic="NORMAL" source="#Geometry-mesh026-normals" offset="1" />
                    <input semantic="TEXCOORD" source="#Geometry-mesh026-Texture" offset="2" set="0" />
                    <vcount>3 3 3 3 3 3 3 3 3 3 3 3 3 3 3 3 3 3 3 3 3 3 3 3 3 3 3 3 3 3 3 3 3 3 3 3 3 3 3 3 3 3</vcount>
                    <p>2 0 0 17 1 1 11 2 2 4 3 3 3 4 4 5 5 5 14 6 6 16 7 7 21 8 8 21 9 8 20 10 9 15 11 10 19 12 11 15 11 10 20 13 9 15 14 10 14 15 6 21 16 8 19 17 11 5 18 5 13 19 12 5 20 5 19 21 11 4 22 3 10 23 13 13 19 12 5 18 5 11 24 14 9 25 15 12 26 16 10 27 13 12 28 16 9 29 15 12 30 16 10 31 13 18 32 17 22 33 18 17 34 1 8 35 19 2 36 0 8 35 19 17 37 1 7 38 20 20 39 9 21 40 8 19 41 11 20 42 9 4 43 3 5 44 5 18 45 17 10 46 13 5 47 5 0 48 21 18 49 17 0 50 21 1 51 22 18 52 17 2 53 23 18 52 17 1 51 22 18 52 17 2 53 23 11 54 14 9 55 24 11 56 2 16 57 25 17 58 1 16 59 25 11 60 2 14 61 26 9 62 27 16 63 7 14 64 6 15 65 10 13 66 28 6 67 29 7 68 20 21 69 8 8 70 19 6 67 29 22 71 18 19 72 11 13 73 28 15 14 10 13 66 28 9 74 30 14 61 6 10 75 31 9 76 32 13 77 12 11 78 14 12 79 16 18 52 17 6 80 33 8 81 19 1 82 34 2 83 0 1 81 34 8 84 19 1 85 34 3 86 35 6 80 33 6 80 29 3 87 36 7 88 20 3 89 37 4 90 3 7 91 38 20 92 9 7 93 38 4 94 3 16 95 7 17 96 1 22 97 18 0 98 39 5 5 5 3 99 4 21 100 8 22 101 18 6 67 29 22 102 18 21 8 8 16 7 7 0 103 21 3 104 40 1 85 22</p>
                </polylist>
                <extra>
                    <technique profile="modo401">
                        <param sid="render" name="Render" type="Name">default</param>
                        <param sid="dissolve" name="Dissolve" type="float">0</param>
                        <param sid="curves" name="Render_Curves" type="bool">false</param>
                        <param sid="radius" name="Curve_Radius" type="float">0.05</param>
                    </technique>
                </extra>
            </mesh>
        </geometry>
        <geometry id="Geometry-mesh024" name="SphereLogo">
            <mesh>
                <source id="Geometry-mesh024-positions" name="positions">
                    <float_array id="Geometry-mesh024-positions-array" count="69">
                        3.44821 3.24622 2.02974
                        1.02248 2.76477 4.29117
                        0.971608 -0.331787 5.04914
                        0.708122 5.10219 0.358099
                        1.1595 3.65469 -3.4419
                        4.28485 1.96659 -2.20818
                        -3.44821 3.24622 2.02974
                        -2.84294 4.21488 -1.12072
                        -2.5 1.6485 4.00405
                        0.708122 -5.10219 -0.358099
                        3.75873 -2.89369 -2.03973
                        1.1595 -3.65469 3.4419
                        4.04508 -2.87926 0.589197
                        1.02248 -2.76477 -4.29117
                        -3.75873 -2.89369 -2.03973
                        -2.5 -1.6485 -4.00405
                        -2.84294 -4.21488 1.12072
                        -2.13111 -2.13972 4.17467
                        5.01941 -0.107219 1.37753
                        0.708122 -0.0517554 -5.11448
                        -2.32302 2.46625 -3.89656
                        -4.8592 0.234836 -1.8538
                        -4.04508 -0.76065 2.83878
                    </float_array>
                    <technique_common>
                        <accessor count="23" source="#Geometry-mesh024-positions-array" stride="3">
                            <param name="X" type="float" />
                            <param name="Y" type="float" />
                            <param name="Z" type="float" />
                        </accessor>
                    </technique_common>
                </source>
                <source id="Geometry-mesh024-normals" name="normals">
                    <float_array id="Geometry-mesh024-normals-array" count="315">
                        -0.145207 -0.217637 0.965168
                        -0.183802 -0.433035 0.882438
                        -0.118612 -0.629179 0.768157
                        0.239011 0.916518 -0.32073
                        0.373693 0.891407 -0.256412
                        0.709209 0.69682 -0.107074
                        -0.932905 -0.335873 0.129917
                        -0.878864 -0.409405 0.24492
                        -0.97336 -0.177852 0.144703
                        -0.761851 0.102174 -0.639644
                        -0.624277 0.197024 -0.75595
                        -0.504097 -0.116593 -0.85574
                        -0.18985 0.0522695 -0.980421
                        -0.358338 0.176165 -0.91682
                        -0.475911 -0.251919 -0.842642
                        -0.54688 -0.502979 -0.669278
                        -0.709323 -0.0904105 -0.699061
                        0.598777 0.0855714 -0.796332
                        0.72966 -0.0111262 -0.68372
                        0.651135 -0.118968 -0.74958
                        0.611703 0.0242332 -0.790716
                        0.411463 0.209448 -0.887034
                        0.241933 0.37447 -0.895121
                        0.833432 -0.108995 -0.541766
                        0.402672 -0.799279 0.446104
                        0.342822 -0.917608 0.201168
                        0.617536 -0.734381 0.281661
                        0.671528 -0.706199 -0.224351
                        0.712193 -0.701027 0.0366303
                        0.486355 -0.869136 -0.0897796
                        0.798834 -0.595695 -0.0837428
                        0.883552 -0.443576 -0.150254
                        0.960403 -0.210092 -0.182996
                        -0.737641 -0.100736 0.667636
                        -0.558846 -0.178107 0.809919
                        -0.476329 0.122832 0.870645
                        -0.151576 -0.0637171 0.98639
                        -0.303135 -0.154598 0.940324
                        -0.678861 0.633282 -0.37162
                        -0.594997 0.4866 -0.639686
                        -0.827489 0.34896 -0.439873
                        0.0440943 0.274536 -0.960565
                        -0.206344 0.456149 -0.86565
                        0.0949569 0.556163 -0.82563
                        0.880353 0.0179059 -0.473982
                        0.994019 -0.000660547 -0.109204
                        0.89775 -0.181204 -0.40151
                        0.834766 0.527299 -0.158495
                        0.782601 0.621638 -0.0332008
                        0.981252 0.158848 -0.109144
                        0.655166 0.163516 0.737577
                        0.656097 0.166279 0.736131
                        0.689975 -0.0987552 0.717065
                        0.672365 -0.0678252 0.737106
                        0.67421 -0.357529 0.646231
                        0.210051 -0.92169 0.32614
                        0.0613322 -0.901706 0.427977
                        -0.156688 -0.8639 0.478671
                        -0.336668 -0.614722 0.713283
                        -0.360058 -0.77963 0.512381
                        -0.10884 -0.753101 0.64884
                        -0.283692 -0.828994 -0.481963
                        -0.281814 -0.873033 -0.397989
                        -0.339974 -0.898665 -0.277164
                        -0.426108 -0.718493 -0.549728
                        -0.429406 -0.446905 -0.784784
                        -0.0893052 -0.72177 -0.686348
                        -0.917286 0.303341 0.258012
                        -0.84735 0.47353 -0.240347
                        -0.91666 0.388845 -0.0923847
                        -0.574817 0.0794065 0.81442
                        -0.818874 0.139325 0.556807
                        -0.263422 -0.135006 -0.955187
                        -0.233863 -0.646506 -0.72618
                        -0.0766749 -0.895441 -0.438527
                        0.464896 -0.844533 -0.265775
                        0.248086 -0.894539 -0.371826
                        -0.0551534 -0.826491 -0.560241
                        0.640445 -0.542942 0.543179
                        0.614617 -0.65161 0.444578
                        -0.260737 0.83526 0.484105
                        -0.220326 0.476317 0.851222
                        -0.0855517 0.699992 0.709008
                        -0.218405 0.127693 0.967468
                        -0.342088 0.242995 0.907705
                        -0.0565942 0.814869 0.576875
                        -0.0747305 0.904046 0.420851
                        -0.0812064 0.969186 0.23256
                        -0.212288 0.974336 -0.0748487
                        0.0487207 0.988396 -0.14387
                        0.0883604 0.906971 -0.411821
                        -0.215968 0.945023 -0.245538
                        -0.363834 0.619995 -0.695148
                        -0.376503 0.790187 -0.48358
                        -0.108526 0.758653 -0.642393
                        -0.763726 -0.539441 0.354579
                        -0.551375 -0.470336 0.689035
                        -0.801752 -0.318414 0.505773
                        0.652518 0.742864 0.149576
                        0.502646 0.863586 0.0395738
                        -0.994429 -0.0159023 0.104202
                        -0.952281 0.0187008 0.304649
                        -0.92818 -0.24161 0.28303
                        0.468802 0.862749 0.189443
                        0.109177 0.946088 0.304954
                    </float_array>
                    <technique_common>
                        <accessor count="105" source="#Geometry-mesh024-normals-array" stride="3">
                            <param name="X" type="float" />
                            <param name="Y" type="float" />
                            <param name="Z" type="float" />
                        </accessor>
                    </technique_common>
                </source>
                <source id="Geometry-mesh024-Texture" name="Texture">
                    <float_array id="Geometry-mesh024-Texture-array" count="82">
                        0.935833 0.568612
                        0.844924 0.431389
                        0.946515 0.333333
                        0.417121 0.666667
                        0.292131 0.928854
                        0.29889 0.570738
                        0.61696 0.262187
                        0.753435 0.237405
                        0.629494 0.5
                        0.526051 0.595521
                        0.545455 0.333333
                        0.435142 0.404479
                        0.389799 0.237405
                        0.253324 0.262187
                        0.0909091 0.333333
                        0.162415 0.0711459
                        0.181818 0.333333
                        0.188688 0.5
                        0.772727 0.5
                        0.818182 0.666667
                        0.610201 0.762595
                        0.155076 0.764722
                        0.0647468 0.762595
                        0.0267423 0.568612
                        0.928494 0.0711459
                        0.863636 0.166667
                        0.655767 0.262187
                        0.727273 0
                        0.5 0.166667
                        0.70053 0.764722
                        0.545455 0
                        0.292131 0.262187
                        0.363636 0
                        0.754015 0.764722
                        0.863636 0.833333
                        0.818182 1
                        0.636364 1
                        0.435142 0.928854
                        0.5 0.833333
                        0.208561 0.764722
                        0.0909091 1
                    </float_array>
                    <technique_common>
                        <accessor count="41" source="#Geometry-mesh024-Texture-array" stride="2">
                            <param name="S" type="float" />
                            <param name="T" type="float" />
                        </accessor>
                    </technique_common>
                </source>
                <vertices id="Geometry-mesh024-vertices">
                    <input semantic="POSITION" source="#Geometry-mesh024-positions" />
                </vertices>
                <polylist count="42" material="Material-Default">
                    <input semantic="VERTEX" source="#Geometry-mesh024-vertices" offset="0" />
                    <input semantic="NORMAL" source="#Geometry-mesh024-normals" offset="1" />
                    <input semantic="TEXCOORD" source="#Geometry-mesh024-Texture" offset="2" set="0" />
                    <vcount>3 3 3 3 3 3 3 3 3 3 3 3 3 3 3 3 3 3 3 3 3 3 3 3 3 3 3 3 3 3 3 3 3 3 3 3 3 3 3 3 3 3</vcount>
                    <p>2 0 0 17 1 1 11 2 2 4 3 3 3 4 4 5 5 5 14 6 6 16 7 7 21 8 8 21 9 8 20 10 9 15 11 10 19 12 11 15 11 10 20 13 9 15 14 10 14 15 6 21 16 8 19 17 11 5 18 5 13 19 12 5 20 5 19 21 11 4 22 3 10 23 13 13 19 12 5 18 5 11 24 14 9 25 15 12 26 16 10 27 13 12 28 16 9 29 15 12 30 16 10 31 13 18 32 17 22 33 18 17 34 1 8 35 19 2 36 0 8 35 19 17 37 1 7 38 20 20 39 9 21 40 8 19 41 11 20 42 9 4 43 3 5 44 5 18 45 17 10 46 13 5 47 5 0 48 21 18 49 17 0 50 21 1 51 22 18 52 17 2 53 23 18 52 17 1 51 22 18 52 17 2 53 23 11 54 14 9 55 24 11 56 2 16 57 25 17 58 1 16 59 25 11 60 2 14 61 26 9 62 27 16 63 7 14 64 6 15 65 10 13 66 28 6 67 29 7 68 20 21 69 8 8 70 19 6 67 29 22 71 18 19 72 11 13 73 28 15 14 10 13 66 28 9 74 30 14 61 6 10 75 31 9 76 32 13 77 12 11 78 14 12 79 16 18 52 17 6 80 33 8 81 19 1 82 34 2 83 0 1 81 34 8 84 19 1 85 34 3 86 35 6 80 33 6 80 29 3 87 36 7 88 20 3 89 37 4 90 3 7 91 38 20 92 9 7 93 38 4 94 3 16 95 7 17 96 1 22 97 18 0 98 39 5 5 5 3 99 4 21 100 8 22 101 18 6 67 29 22 102 18 21 8 8 16 7 7 0 103 21 3 104 40 1 85 22</p>
                </polylist>
                <extra>
                    <technique profile="modo401">
                        <param sid="render" name="Render" type="Name">default</param>
                        <param sid="dissolve" name="Dissolve" type="float">0</param>
                        <param sid="curves" name="Render_Curves" type="bool">false</param>
                        <param sid="radius" name="Curve_Radius" type="float">0.05</param>
                    </technique>
                </extra>
            </mesh>
        </geometry>
    </library_geometries>
    <library_lights>
        <light id="Light-polyRender006" name="Render">
            <technique_common>
                <ambient>
                    <color sid="ambient_light_rgb">0 0 0</color>
                </ambient>
            </technique_common>
        </light>
        <light id="Light-sunLight014" name="Directional_Light">
            <technique_common>
                <directional>
                    <color sid="directional_light_rgb">1 1 1</color>
                </directional>
            </technique_common>
            <extra>
                <technique profile="modo401">
                    <param sid="lightType" name="Light_Type" type="Name">sun_light</param>
                    <param sid="render" name="Render" type="Name">default</param>
                    <param sid="visible" name="Display_Visible" type="Name">default</param>
                    <param sid="size" name="Display_Size" type="float">1</param>
                    <param sid="dissolve" name="Dissolve" type="float">0</param>
                    <param sid="radiance" name="Radiant_Intensity" type="float">3</param>
                    <param sid="samples" name="Samples" type="int">64</param>
                    <param sid="shadType" name="Shadow_Type" type="Name">raytrace</param>
                    <param sid="shadRes" name="Shadow_Resolution" type="int">1024</param>
                    <param sid="azimuth" name="Azimuth" type="float">0</param>
                    <param sid="clamp" name="Clamp_Intensity" type="bool">true</param>
                    <param sid="day" name="Day" type="int">2014173</param>
                    <param sid="elevation" name="Elevation" type="float">0</param>
                    <param sid="haze" name="Haze" type="float">3</param>
                    <param sid="height" name="Height" type="float">10</param>
                    <param sid="lat" name="Latitude" type="float">0.655057</param>
                    <param sid="lon" name="Longitude" type="float">-2.13456</param>
                    <param sid="mapSize" name="Map_Size" type="float">2</param>
                    <param sid="north" name="North" type="float">0</param>
                    <param sid="radius" name="Radius" type="float">0.5</param>
                    <param sid="spread" name="Spread" type="float">0</param>
                    <param sid="sunPos" name="Sun_Position" type="bool">false</param>
                    <param sid="time" name="Time" type="float">12</param>
                    <param sid="timeZone" name="Time_Zone" type="float">-8</param>
                    <param sid="volumetrics" name="Volumetrics" type="bool">false</param>
                    <param sid="vdissolve" name="Volumetrics_Dissolve" type="float">0</param>
                    <param sid="vsamples" name="Volumetric_Samples" type="int">40</param>
                </technique>
            </extra>
        </light>
    </library_lights>
    <library_nodes id="shader_tree" name="Shader_Tree">
        <node sid="shader_tree_render" name="Render">
            <extra>
                <technique profile="modo401">
                    <param sid="first" name="Frame_Range_First" type="int">1</param>
                    <param sid="last" name="Frame_Range_Last" type="int">120</param>
                    <param sid="dpi" name="Frame_DPI" type="float">300</param>
                    <param sid="resUnit" name="Resolution_Unit" type="Name">pixels</param>
                    <param sid="pAspect" name="Frame_Pixel_Aspect_Ratio" type="float">1</param>
                    <param sid="bucketX" name="Bucket_Width" type="int">32</param>
                    <param sid="bucketY" name="Bucket_Height" type="int">32</param>
                    <param sid="bktOrder" name="Bucket_Order" type="Name">hilbert</param>
                    <param sid="bktSkip" name="Skip_Existing_Buckets" type="bool">false</param>
                    <param sid="region" name="Render_Region" type="bool">false</param>
                    <param sid="regX0" name="Render_Region_Left" type="float">0</param>
                    <param sid="regX1" name="Render_Region_Right" type="float">1</param>
                    <param sid="regY0" name="Render_Region_Top" type="float">0</param>
                    <param sid="regY1" name="Render_Region_Bottom" type="float">1</param>
                    <param sid="aa" name="Render_Antialiasing" type="Name">s8</param>
                    <param sid="aaFilter" name="Render_Antialiasing_Filter" type="Name">gaussian</param>
                    <param sid="fineRate" name="Refinement_Shading_Rate" type="float">2</param>
                    <param sid="fineThresh" name="Refinement_Threshold" type="float">0.1</param>
                    <param sid="bktRefine" name="Refine_Bucket_Borders" type="bool">false</param>
                    <param sid="rayShadow" name="Ray_Tracing_Shadows" type="bool">true</param>
                    <param sid="reflDepth" name="Reflection_Depth" type="int">8</param>
                    <param sid="refrDepth" name="Refraction_Depth" type="int">8</param>
                    <param sid="rayThresh" name="Ray_Threshold" type="float">0.001</param>
                    <param sid="subdAdapt" name="Adaptive_Subdivision" type="bool">false</param>
                    <param sid="subdRate" name="Subdivision_Rate" type="float">10</param>
                    <param sid="dispEnable" name="Micropoly_Displacement" type="bool">true</param>
                    <param sid="dispRate" name="Displacement_Rate" type="float">1</param>
                    <param sid="dispRatio" name="Displacement_Ratio" type="float">4</param>
                    <param sid="edgeMin" name="Minimum_Edge_Length" type="float">0.0001</param>
                    <param sid="dispSmooth" name="Smooth_Positions" type="bool">true</param>
                    <param sid="ambRad" name="Ambient_Intensity" type="float">0</param>
                    <param sid="ambColor" name="Ambient_Color" type="color">1 1 1</param>
                    <param sid="globEnable" name="Enable_Indirect_Illumination" type="bool">true</param>
                    <param sid="globScope" name="Indirect_Illumination_Scope" type="Name">all</param>
                    <param sid="globRays" name="Indirect_Rays" type="int">64</param>
                    <param sid="globLimit" name="Indirect_Bounces" type="int">1</param>
                    <param sid="globRange" name="Indirect_Range" type="float">0</param>
                    <param sid="globSubs" name="Subsurface_Scattering" type="int">1</param>
                    <param sid="globVols" name="Volumetrics_Affect_Indirect" type="bool">false</param>
                    <param sid="irrCache" name="Enable_Irradiance_Caching" type="bool">true</param>
                    <param sid="irrRays" name="Irradiance_Rays" type="int">256</param>
                    <param sid="globSuper" name="Indirect_Supersampling" type="bool">true</param>
                    <param sid="irrRate" name="Irradiance_Rate" type="float">2.5</param>
                    <param sid="irrRatio" name="Irradiance_Ratio" type="float">6</param>
                    <param sid="irrVals" name="Interpolation_Values" type="int">1</param>
                    <param sid="irrGrads" name="Irradiance_Gradients" type="Name">both</param>
                    <param sid="irrWalk" name="Walkthrough_Mode" type="bool">false</param>
                    <param sid="irrLEnable" name="Load_Irradiance_before_Render" type="bool">false</param>
                    <param sid="irrLName" name="Load_Irradiance_File" type="Name"></param>
                    <param sid="irrSEnable" name="Save_Irradiance_after_Render" type="bool">false</param>
                    <param sid="irrSName" name="Save_Irradiance_File" type="Name"></param>
                    <param sid="causEnable" name="Enable_Direct_Caustics" type="bool">false</param>
                    <param sid="causTotal" name="Caustics_Total_Photons" type="int">100000</param>
                    <param sid="causLocal" name="Caustics_Local_Photons" type="int">32</param>
                    <param sid="globCaus" name="Indirect_Caustics" type="Name">refraction</param>
                </technique>
            </extra>
        </node>
        <node sid="shader_tree_environment" name="Environment">
            <extra>
                <technique profile="modo401">
                    <param sid="radiance" name="Environment_Intensity" type="float">1</param>
                    <param sid="visCam" name="Environment_Visible_to_Camera" type="bool">true</param>
                    <param sid="visInd" name="Environment_Visible_to_Indirect_Rays" type="bool">true</param>
                    <param sid="visRefl" name="Environment_Visible_to_Reflection_Rays" type="bool">true</param>
                    <param sid="visRefr" name="Environment_Visible_to_Refraction_Rays" type="bool">true</param>
                </technique>
            </extra>
        </node>
    </library_nodes>
    <library_visual_scenes>
        <visual_scene id="DefaultScene">
            <node id="polyRender006" name="Render" type="NODE">
                <instance_light url="#Light-polyRender006" />
            </node>
            <node id="locator032Node" name="LocatorExport" type="NODE">
                <translate sid="translation034">0 0.5 0</translate>
                <rotate sid="rotation033Y">0 1 0 0</rotate>
                <rotate sid="rotation033X">1 0 0 0</rotate>
                <rotate sid="rotation033Z">0 0 1 0</rotate>
                <node id="locator031Node" name="Locator_YRotate" type="NODE">
                    <rotate sid="rotation050Y">0 1 0 0</rotate>
                    <rotate sid="rotation050X">1 0 0 0</rotate>
                    <rotate sid="rotation050Z">0 0 1 0</rotate>
                    <node id="Geometry-mesh030Node" name="Connection" type="NODE">
                        <instance_geometry url="#Geometry-mesh030">
                            <bind_material>
                                <technique_common>
                                    <instance_material symbol="Material-Default" target="#Material-Default" />
                                </technique_common>
                            </bind_material>
                        </instance_geometry>
                    </node>
                    <node id="locator023Node" name="LocatorHouse" type="NODE">
                        <translate sid="translation046">10 0 0.523476</translate>
                        <rotate sid="rotation045Y">0 1 0 0</rotate>
                        <rotate sid="rotation045X">1 0 0 15</rotate>
                        <rotate sid="rotation045Z">0 0 1 0</rotate>
                        <node id="Geometry-mesh022Node" name="SphereHouse" type="NODE">
                            <translate sid="translation037">-0.0517638 0.186603 -0.05</translate>
                            <rotate sid="rotation036Y">0 1 0 -188.751</rotate>
                            <rotate sid="rotation036X">1 0 0 -54.002</rotate>
                            <rotate sid="rotation036Z">0 0 1 -20.1573</rotate>
                            <scale sid="scale035">0.6 0.6 0.6</scale>
                            <instance_geometry url="#Geometry-mesh022">
                                <bind_material>
                                    <technique_common>
                                        <instance_material symbol="Material-Default" target="#Material-Default" />
                                    </technique_common>
                                </bind_material>
                            </instance_geometry>
                        </node>
                    </node>
                    <node id="locator029Node" name="LocatorPflanze" type="NODE">
                        <translate sid="translation055">-0.000167024 3.45716 -10</translate>
                        <rotate sid="rotation054Y">0 1 0 0</rotate>
                        <rotate sid="rotation054X">1 0 0 15</rotate>
                        <rotate sid="rotation054Z">0 0 1 0</rotate>
                        <node id="Geometry-mesh028Node" name="SpherePflanze" type="NODE">
                            <translate sid="translation044">0.0986156 -1.37673 0.904092</translate>
                            <rotate sid="rotation043Y">0 1 0 -173.775</rotate>
                            <rotate sid="rotation043X">1 0 0 -56.5517</rotate>
                            <rotate sid="rotation043Z">0 0 1 -84.9521</rotate>
                            <scale sid="scale042">0.6 0.6 0.6</scale>
                            <instance_geometry url="#Geometry-mesh028">
                                <bind_material>
                                    <technique_common>
                                        <instance_material symbol="Material-Default" target="#Material-Default" />
                                    </technique_common>
                                </bind_material>
                            </instance_geometry>
                        </node>
                    </node>
                    <node id="locator025Node" name="LocatorLogo" type="NODE">
                        <translate sid="translation041">-10 0.77 -0.0001</translate>
                        <rotate sid="rotation040Y">0 1 0 0</rotate>
                        <rotate sid="rotation040X">1 0 0 15</rotate>
                        <rotate sid="rotation040Z">0 0 1 0</rotate>
                        <node id="Geometry-mesh024Node" name="SphereLogo" type="NODE">
                            <translate sid="translation053">0 -1.11022e-016 0</translate>
                            <rotate sid="rotation052Y">0 1 0 -173.775</rotate>
                            <rotate sid="rotation052X">1 0 0 -56.5517</rotate>
                            <rotate sid="rotation052Z">0 0 1 -84.9521</rotate>
                            <scale sid="scale051">0.6 0.6 0.6</scale>
                            <instance_geometry url="#Geometry-mesh024">
                                <bind_material>
                                    <technique_common>
                                        <instance_material symbol="Material-Default" target="#Material-Default" />
                                    </technique_common>
                                </bind_material>
                            </instance_geometry>
                        </node>
                    </node>
                    <node id="locator027Node" name="LocatorRobot" type="NODE">
                        <translate sid="translation039">0 0 10</translate>
                        <rotate sid="rotation038Y">0 1 0 0</rotate>
                        <rotate sid="rotation038X">1 0 0 15</rotate>
                        <rotate sid="rotation038Z">0 0 1 0</rotate>
                        <node id="Geometry-mesh026Node" name="SphereRobot" type="NODE">
                            <translate sid="translation049">0 1.15911 -0.310583</translate>
                            <rotate sid="rotation048Y">0 1 0 -173.775</rotate>
                            <rotate sid="rotation048X">1 0 0 -56.5517</rotate>
                            <rotate sid="rotation048Z">0 0 1 -84.9521</rotate>
                            <scale sid="scale047">0.6 0.6 0.6</scale>
                            <instance_geometry url="#Geometry-mesh026">
                                <bind_material>
                                    <technique_common>
                                        <instance_material symbol="Material-Default" target="#Material-Default" />
                                    </technique_common>
                                </bind_material>
                            </instance_geometry>
                        </node>
                    </node>
                </node>
            </node>
            <node id="Camera-camera003Node" name="Camera" type="NODE">
                <translate sid="translation004">0 0.75 4</translate>
                <rotate sid="rotation005Y">0 1 0 0</rotate>
                <rotate sid="rotation005X">1 0 0 -5</rotate>
                <rotate sid="rotation005Z">0 0 1 0</rotate>
                <instance_camera url="#Camera-camera003" />
            </node>
            <node id="Light-sunLight014Node" name="Directional_Light" type="NODE">
                <translate sid="translation016">-2 2 2</translate>
                <rotate sid="rotation017Y">0 1 0 -45</rotate>
                <rotate sid="rotation017X">1 0 0 -30</rotate>
                <rotate sid="rotation017Z">0 0 1 0</rotate>
                <instance_light url="#Light-sunLight014" />
            </node>
            <extra>
                <technique profile="modo401">
                    <param sid="fps" name="Scene_FPS" type="float">24</param>
                    <param sid="sceneS" name="Scene_Start_Time" type="float">0</param>
                    <param sid="sceneE" name="Scene_End_Time" type="float">5</param>
                    <param sid="currentS" name="Scene_Current_Start_Time" type="float">0</param>
                    <param sid="currentE" name="Scene_Current_End_Time" type="float">5</param>
                    <param sid="timeSys" name="Scene_Time_System" type="Name">frames</param>
                </technique>
            </extra>
            <extra>
                <technique profile="MAX3D">
                    <frame_rate>24</frame_rate>
                </technique>
            </extra>
            <extra>
                <technique profile="MAYA">
                    <start_time>0</start_time>
                    <end_time>5</end_time>
                </technique>
            </extra>
            <extra>
                <technique profile="OKINO" />
            </extra>
            <extra>
                <technique profile="XSI">
                    <SI_Scene>
                        <frame_rate>24</frame_rate>
                    </SI_Scene>
                </technique>
            </extra>
        </visual_scene>
    </library_visual_scenes>
    <scene>
        <instance_visual_scene url="#DefaultScene" />
    </scene>
</COLLADA>
